1971.00,48.22
2020.00,49.20
2023.00,49.13
2026.00,48.92
2029.00,49.62
2033.00,49.62
2036.00,49.20
2039.00,49.55
2042.00,49.34
2045.00,48.99
2049.00,48.78
2052.00,49.34
2055.00,49.55
2058.00,48.64
2062.00,49.55
2065.00,49.20
2068.00,48.57
2071.00,49.55
2074.00,49.83
2078.00,49.48
2081.00,49.13
2084.00,48.99
2087.00,49.48
2091.00,50.04
2094.00,49.34
2097.00,49.48
2100.00,49.20
2103.00,50.53
2107.00,50.11
2110.00,50.11
2113.00,50.18
2116.00,50.39
2120.00,50.32
2123.00,51.23
2126.00,50.81
2215.00,47.73
2218.00,47.03
2221.00,47.59
2224.00,47.87
2228.00,47.38
2231.00,47.80
2234.00,47.66
2237.00,47.73
2240.00,47.52
2244.00,48.43
2247.00,48.36
2250.00,48.50
2253.00,48.50
2257.00,48.85
2260.00,49.20
2263.00,49.13
2266.00,48.71
2270.00,49.62
2273.00,49.55
2276.00,50.32
2279.00,50.39
2282.00,54.73
2286.00,60.75
2289.00,69.01
2292.00,74.75
2295.00,70.34
2298.00,67.47
2302.00,66.42
2305.00,58.51
2308.00,41.29
2311.00,30.16
2315.00,28.20
2318.00,36.39
2321.00,42.83
2409.00,302.74
2412.00,312.26
2415.00,319.75
2419.00,322.55
2422.00,327.45
2425.00,335.22
2428.00,339.91
2432.00,345.30
2435.00,353.77
2438.00,362.38
2441.00,363.78
2445.00,369.94
2448.00,372.95
2451.00,379.18
2454.00,390.45
2457.00,403.75
2461.00,425.87
2464.00,442.25
2467.00,461.92
2470.00,499.02
2473.00,518.97
2477.00,546.34
2480.00,575.11
2483.00,601.71
2486.00,640.63
2490.00,659.60
2493.00,685.50
2496.00,711.26
2499.00,726.45
2502.00,740.31
2506.00,766.49
2509.00,781.19
2596.00,1111.31
2599.00,1114.88
2602.00,1140.50
2606.00,1157.93
2609.00,1161.78
2612.00,1182.85
2615.00,1183.97
2619.00,1187.05
2622.00,1188.10
2625.00,1195.87
2628.00,1209.80
2632.00,1220.51
2635.00,1230.73
2638.00,1238.15
2641.00,1247.25
2645.00,1256.35
2648.00,1258.24
2651.00,1272.10
2654.00,1278.68
2657.00,1285.47
2661.00,1288.69
2664.00,1300.24
2667.00,1308.85
2670.00,1313.33
2674.00,1325.30
2677.00,1327.05
2680.00,1336.08
2683.00,1342.66
2686.00,1350.71
2690.00,1361.49
2783.00,1445.70
2786.00,1438.77
2789.00,1443.53
2792.00,1438.49
2796.00,1445.00
2799.00,1440.87
2802.00,1446.26
2805.00,1439.54
2809.00,1445.84
2812.00,1444.30
2815.00,1446.40
2818.00,1441.29
2821.00,1435.97
2825.00,1436.39
2828.00,1434.57
2831.00,1434.36
2834.00,1431.14
2838.00,1432.05
2841.00,1428.48
2844.00,1431.63
2847.00,1431.21
2851.00,1427.08
2854.00,1424.35
2857.00,1419.80
2860.00,1419.38
2863.00,1415.46
2867.00,1415.60
2870.00,1413.22
2873.00,1416.51
2876.00,1411.05
2965.00,1454.03
2968.00,1456.06
2972.00,1457.88
2975.00,1458.58
2978.00,1460.54
2981.00,1463.41
2985.00,1467.19
2988.00,1464.60
2991.00,1466.56
2994.00,1465.65
2997.00,1461.38
3001.00,1463.48
3004.00,1460.89
3007.00,1462.99
3010.00,1461.45
3014.00,1463.55
3017.00,1460.96
3020.00,1465.37
3023.00,1471.11
3027.00,1467.05
3030.00,1470.90
3033.00,1467.47
3036.00,1471.81
3039.00,1469.29
3043.00,1469.36
3046.00,1465.58
3049.00,1463.34
3052.00,1463.48
3056.00,1460.82
3059.00,1461.03
3066.00,1456.48
3069.00,1454.10
3072.00,1450.32
3075.00,1447.80
3079.00,1445.42
3082.00,1445.42
3085.00,1439.47
3088.00,1440.31
3091.00,1438.07
3095.00,1432.89
3098.00,1431.84
3101.00,1426.66
3104.00,1424.07
3108.00,1417.70
3111.00,1416.23
3114.00,1410.35
3117.00,1408.32
3120.00,1405.38
3124.00,1404.19
3127.00,1406.85
3130.00,1402.09
3133.00,1404.19
3137.00,1401.39
3140.00,1401.74
3143.00,1395.86
3146.00,1399.22
3150.00,1392.92
3153.00,1393.06
3156.00,1393.97
3159.00,1396.63
3166.00,1397.89
3169.00,1398.38
3173.00,1399.99
3176.00,1403.00
3179.00,1403.42
3182.00,1406.08
3186.00,1406.92
3189.00,1409.79
3192.00,1409.30
3195.00,1414.55
3199.00,1413.99
3202.00,1413.64
3205.00,1419.66
3208.00,1419.38
3211.00,1422.60
3215.00,1425.61
3218.00,1427.92
3221.00,1430.72
3224.00,1429.46
3228.00,1434.50
3231.00,1434.78
3234.00,1437.16
3237.00,1437.72
3241.00,1441.15
3244.00,1442.69
3247.00,1439.33
3250.00,1441.78
3253.00,1439.33
3257.00,1440.73
3260.00,1438.77
3267.00,1438.07
3270.00,1438.35
3273.00,1435.06
3277.00,1435.69
3280.00,1433.45
3283.00,1433.17
3286.00,1439.05
3290.00,1434.99
3293.00,1437.65
3296.00,1438.28
3299.00,1435.34
3302.00,1432.82
3306.00,1445.91
3309.00,1430.93
3312.00,1426.24
3315.00,1427.50
3319.00,1424.84
3322.00,1422.53
3325.00,1422.95
3328.00,1419.45
3332.00,1418.47
3335.00,1413.99
3338.00,1412.52
3341.00,1409.02
3344.00,1409.09
3348.00,1409.58
3351.00,1404.40
3354.00,1406.22
3357.00,1404.68
3361.00,1401.11
3364.00,1398.52
3381.00,1379.62
3384.00,1376.61
3387.00,1371.71
3390.00,1370.38
3393.00,1365.90
3397.00,1366.46
3400.00,1361.63
3403.00,1363.31
3406.00,1363.31
3410.00,1361.56
3413.00,1360.23
3416.00,1373.32
3419.00,1358.69
3423.00,1355.47
3426.00,1358.34
3429.00,1356.45
3432.00,1358.69
3436.00,1358.41
3439.00,1363.03
3442.00,1365.41
3445.00,1364.36
3448.00,1366.95
3452.00,1367.72
3455.00,1370.03
3458.00,1370.38
3461.00,1371.43
3465.00,1372.27
3468.00,1371.29
3471.00,1374.23
3474.00,1372.62
3480.00,1374.44
3484.00,1375.42
3487.00,1378.92
3490.00,1377.38
3493.00,1380.25
3497.00,1381.09
3500.00,1384.52
3503.00,1387.04
3506.00,1383.89
3510.00,1385.08
3513.00,1385.92
3516.00,1388.93
3519.00,1387.25
3523.00,1384.59
3526.00,1384.94
3529.00,1385.36
3532.00,1385.64
3536.00,1385.36
3539.00,1388.79
3542.00,1387.67
3545.00,1389.98
3548.00,1384.45
3552.00,1387.67
3555.00,1390.33
3558.00,1387.32
3561.00,1387.39
3565.00,1384.10
3568.00,1384.66
3571.00,1379.83
3574.00,1394.67
3580.00,1373.81
3584.00,1375.28
3587.00,1370.59
3590.00,1370.38
3593.00,1370.87
3596.00,1364.22
3600.00,1367.16
3603.00,1347.91
3606.00,1362.47
3609.00,1362.54
3613.00,1356.31
3616.00,1358.20
3619.00,1354.14
3622.00,1353.65
3625.00,1348.61
3629.00,1345.04
3632.00,1341.89
3635.00,1338.46
3638.00,1336.50
3642.00,1330.06
3645.00,1331.67
3648.00,1326.56
3651.00,1326.42
3654.00,1326.07
3658.00,1322.57
3661.00,1322.36
3664.00,1315.57
3667.00,1317.67
3671.00,1312.70
3674.00,1314.03
3680.00,1307.59
3683.00,1310.11
3686.00,1305.63
3690.00,1310.25
3693.00,1307.87
3696.00,1308.50
3699.00,1304.58
3703.00,1308.78
3706.00,1305.91
3709.00,1301.36
3712.00,1306.05
3716.00,1303.74
3719.00,1307.59
3722.00,1307.45
3725.00,1310.46
3728.00,1309.20
3732.00,1312.28
3735.00,1315.85
3738.00,1317.67
3741.00,1319.77
3745.00,1321.38
3748.00,1323.90
3751.00,1324.32
3754.00,1326.84
3758.00,1327.40
3761.00,1326.42
3764.00,1330.90
3767.00,1329.43
3770.00,1330.97
3774.00,1332.44
3780.00,1335.17
3783.00,1334.96
3786.00,1335.24
3789.00,1336.50
3793.00,1337.41
3796.00,1338.95
3799.00,1335.66
3802.00,1336.36
3806.00,1333.21
3809.00,1335.73
3812.00,1333.49
3815.00,1334.40
3819.00,1332.02
3822.00,1332.02
3825.00,1333.63
3828.00,1330.48
3832.00,1333.14
3835.00,1330.97
3838.00,1333.56
3841.00,1332.23
3844.00,1332.86
3848.00,1332.79
3851.00,1328.73
3854.00,1331.11
3857.00,1326.63
3861.00,1326.00
3864.00,1325.65
3867.00,1324.18
3870.00,1323.20
3874.00,1321.24
3880.00,1318.65
3883.00,1317.46
3886.00,1318.30
3889.00,1313.19
3893.00,1314.80
3896.00,1309.90
3899.00,1308.50
3902.00,1304.44
3906.00,1299.40
3909.00,1297.79
3912.00,1292.68
3915.00,1290.16
3918.00,1284.28
3922.00,1280.92
3925.00,1277.91
3928.00,1275.46
3931.00,1276.65
3935.00,1268.81
3938.00,1269.16
3941.00,1265.66
3944.00,1263.14
3947.00,1258.80
3951.00,1259.43
3954.00,1251.87
3957.00,1248.16
3960.00,1246.69
3964.00,1244.66
3967.00,1247.53
3970.00,1243.19
3973.00,1246.76
3979.00,1245.57
3983.00,1245.22
3986.00,1241.30
3989.00,1245.22
3992.00,1241.86
3996.00,1244.10
3999.00,1241.93
4002.00,1245.50
4005.00,1244.38
4009.00,1247.53
4012.00,1251.80
4015.00,1250.75
4018.00,1252.64
4021.00,1251.80
4025.00,1253.20
4028.00,1252.85
4031.00,1256.35
4034.00,1256.56
4038.00,1256.21
4041.00,1259.22
4044.00,1259.01
4047.00,1261.46
4050.00,1262.23
4054.00,1264.82
4057.00,1268.60
4060.00,1269.79
4063.00,1271.82
4067.00,1272.87
4070.00,1274.90
4073.00,1276.16
4079.00,1279.45
4082.00,1277.42
4086.00,1280.36
4089.00,1280.01
4092.00,1280.15
4095.00,1280.71
4099.00,1281.55
4102.00,1285.19
4105.00,1282.88
4108.00,1284.98
4112.00,1282.67
4115.00,1284.35
4118.00,1284.00
4121.00,1280.29
4125.00,1279.73
4128.00,1277.91
4131.00,1279.31
4134.00,1274.69
4137.00,1277.84
4141.00,1273.43
4144.00,1271.47
4147.00,1270.91
4150.00,1268.95
4154.00,1270.00
4157.00,1266.99
4160.00,1267.27
4163.00,1264.68
4167.00,1265.03
4170.00,1266.36
4173.00,1261.88
4176.00,1262.72
4182.00,1256.98
4185.00,1256.91
4189.00,1253.41
4192.00,1252.78
4195.00,1247.32
4198.00,1245.50
4202.00,1242.14
4205.00,1238.85
4208.00,1240.81
4211.00,1234.30
4215.00,1239.06
4218.00,1220.65
4221.00,1231.85
4224.00,1232.13
4227.00,1226.53
4231.00,1226.81
4234.00,1221.28
4237.00,1222.40
4240.00,1216.31
4244.00,1212.95
4247.00,1210.08
4250.00,1207.28
4253.00,1209.31
4256.00,1204.27
4260.00,1205.18
4263.00,1199.93
4266.00,1203.01
4269.00,1198.53
4273.00,1198.39
4276.00,1193.70
4282.00,1192.30
4285.00,1188.66
4288.00,1189.43
4292.00,1187.54
4295.00,1190.90
4298.00,1194.75
4301.00,1194.96
4305.00,1195.87
4308.00,1197.48
4311.00,1198.32
4314.00,1193.28
4318.00,1199.58
4321.00,1197.13
4324.00,1196.08
4327.00,1198.04
4330.00,1198.53
4334.00,1201.54
4337.00,1202.24
4340.00,1205.39
4343.00,1205.25
4347.00,1207.49
4350.00,1209.38
4353.00,1208.54
4356.00,1211.62
4359.00,1210.64
4363.00,1214.14
4366.00,1214.42
4369.00,1231.50
4372.00,1215.96
4376.00,1213.51
4382.00,1214.56
4385.00,1215.68
4388.00,1219.32
4391.00,1218.83
4395.00,1220.51
4398.00,1219.11
4401.00,1221.84
4404.00,1221.84
4408.00,1223.10
4411.00,1220.79
4414.00,1219.60
4417.00,1220.65
4420.00,1219.32
4424.00,1221.14
4427.00,1219.95
4430.00,1220.86
4433.00,1221.14
4437.00,1223.17
4440.00,1225.76
4443.00,1222.89
4446.00,1226.25
4450.00,1227.30
4453.00,1224.15
4456.00,1224.08
4459.00,1225.69
4462.00,1223.66
4466.00,1223.31
4469.00,1224.50
4472.00,1221.70
4475.00,1219.81
4482.00,1217.36
4485.00,1217.71
4488.00,1214.98
4491.00,1214.63
4494.00,1217.99
4498.00,1209.38
4501.00,1211.41
4504.00,1211.20
4507.00,1205.88
4511.00,1205.25
4514.00,1200.98
4517.00,1200.14
4520.00,1193.14
4523.00,1193.42
4527.00,1186.21
4530.00,1182.29
4533.00,1178.02
4536.00,1175.71
4540.00,1177.88
4543.00,1168.71
4546.00,1172.07
4549.00,1163.53
4552.00,1166.54
4556.00,1165.07
4559.00,1160.10
4562.00,1158.35
4565.00,1153.10
4569.00,1153.24
4572.00,1150.02
4575.00,1150.09
4581.00,1148.13
4584.00,1149.25
4588.00,1144.98
4591.00,1148.27
4594.00,1146.45
4597.00,1146.24
4601.00,1142.53
4604.00,1144.28
4607.00,1139.17
4610.00,1137.98
4613.00,1139.80
4617.00,1140.78
4620.00,1127.13
4623.00,1143.37
4626.00,1148.20
4630.00,1146.45
4633.00,1149.95
4636.00,1150.02
4639.00,1152.75
4643.00,1153.03
4646.00,1152.82
4649.00,1157.51
4652.00,1157.02
4655.00,1158.49
4659.00,1160.66
4662.00,1162.76
4665.00,1166.33
4668.00,1167.24
4672.00,1171.16
4675.00,1170.95
4681.00,1175.36
4684.00,1178.51
4687.00,1180.05
4691.00,1179.84
4694.00,1184.46
4697.00,1182.01
4700.00,1182.57
4704.00,1183.83
4707.00,1184.46
4710.00,1184.67
4713.00,1186.77
4717.00,1189.50
4720.00,1188.24
4723.00,1189.99
4726.00,1188.31
4729.00,1189.78
4733.00,1187.89
4736.00,1190.20
4739.00,1189.50
4742.00,1186.56
4746.00,1187.47
4749.00,1183.55
4752.00,1184.25
4755.00,1182.85
4759.00,1183.27
4762.00,1182.15
4765.00,1183.83
4768.00,1189.50
4772.00,1185.23
4775.00,1186.14
4781.00,1183.20
4784.00,1186.07
4787.00,1182.57
4791.00,1186.14
4794.00,1180.61
4797.00,1178.72
4800.00,1179.00
4804.00,1178.79
4807.00,1179.07
4810.00,1177.18
4813.00,1177.67
4816.00,1171.58
4820.00,1171.79
4823.00,1174.03
4826.00,1170.39
4829.00,1171.37
4833.00,1166.19
4836.00,1166.26
4839.00,1159.61
4842.00,1153.17
4845.00,1153.87
4849.00,1149.39
4852.00,1147.43
4855.00,1141.20
4858.00,1142.88
4862.00,1135.32
4865.00,1136.79
4868.00,1134.76
4871.00,1129.79
4875.00,1127.97
4881.00,1121.32
4884.00,1114.81
4887.00,1111.38
4890.00,1108.86
4894.00,1107.53
4897.00,1103.61
4900.00,1102.63
4903.00,1103.89
4906.00,1101.02
4910.00,1103.05
4913.00,1100.46
4916.00,1103.19
4919.00,1098.15
4923.00,1095.14
4926.00,1096.82
4929.00,1096.33
4932.00,1096.54
4936.00,1096.61
4939.00,1100.46
4942.00,1099.83
4945.00,1103.26
4948.00,1104.03
4952.00,1105.36
4955.00,1104.52
4958.00,1106.90
4961.00,1105.71
4965.00,1104.66
4968.00,1107.74
4971.00,1106.55
4974.00,1107.88
4980.00,1113.06
4984.00,1116.70
4987.00,1116.21
4990.00,1118.38
4993.00,1118.66
4996.00,1122.09
5000.00,1125.17
5003.00,1124.26
5006.00,1126.99
5009.00,1127.41
5013.00,1126.64
5016.00,1130.28
5019.00,1129.79
5022.00,1134.06
5025.00,1134.06
5029.00,1137.21
5032.00,1137.35
5035.00,1139.59
5038.00,1141.41
5042.00,1140.71
5045.00,1143.23
5048.00,1126.57
5051.00,1147.29
5055.00,1146.24
5058.00,1147.36
5061.00,1145.26
5064.00,1144.42
5067.00,1148.20
5071.00,1147.64
5074.00,1149.74
5077.00,1148.55
5083.00,1154.50
5087.00,1151.70
5090.00,1153.94
5093.00,1154.99
5096.00,1155.20
5100.00,1151.35
5103.00,1154.29
5106.00,1152.40
5109.00,1148.55
5112.00,1149.74
5116.00,1146.87
5119.00,1147.01
5122.00,1146.59
5125.00,1146.73
5129.00,1144.77
5132.00,1143.30
5135.00,1144.84
5138.00,1141.41
5142.00,1141.62
5145.00,1140.57
5148.00,1138.96
5151.00,1139.17
5154.00,1136.37
5158.00,1135.18
5161.00,1132.73
5164.00,1131.89
5167.00,1127.13
5171.00,1121.60
5174.00,1122.79
5177.00,1117.75
5183.00,1118.80
5186.00,1111.87
5190.00,1114.32
5193.00,1106.97
5196.00,1106.83
5199.00,1106.27
5202.00,1103.19
5206.00,1099.97
5209.00,1093.88
5212.00,1093.39
5215.00,1087.02
5219.00,1086.81
5222.00,1083.80
5225.00,1084.01
5228.00,1077.78
5231.00,1078.27
5235.00,1078.27
5238.00,1075.61
5241.00,1071.34
5244.00,1068.68
5248.00,1067.28
5251.00,1062.87
5254.00,1064.48
5257.00,1060.07
5261.00,1059.65
5264.00,1057.13
5267.00,1058.88
5270.00,1061.40
5274.00,1059.51
5277.00,1062.87
5283.00,1066.30
5286.00,1064.13
5289.00,1061.89
5293.00,1064.90
5296.00,1064.27
5299.00,1069.87
5302.00,1069.24
5306.00,1074.00
5309.00,1073.37
5312.00,1078.48
5315.00,1082.33
5318.00,1082.82
5322.00,1087.37
5325.00,1088.84
5328.00,1091.99
5331.00,1092.41
5335.00,1097.03
5338.00,1096.89
5341.00,1096.12
5344.00,1099.34
5347.00,1098.15
5351.00,1100.11
5354.00,1100.81
5357.00,1103.54
5360.00,1104.38
5364.00,1106.13
5367.00,1108.79
5370.00,1108.65
5373.00,1111.59
5376.00,1112.85
5383.00,1113.76
5386.00,1111.94
5389.00,1111.80
5392.00,1111.03
5396.00,1112.71
5399.00,1113.27
5402.00,1115.02
5405.00,1117.54
5408.00,1114.88
5412.00,1116.28
5415.00,1115.37
5418.00,1117.33
5421.00,1115.72
5425.00,1118.10
5428.00,1116.00
5431.00,1112.99
5434.00,1117.19
5438.00,1114.32
5441.00,1115.86
5444.00,1113.90
5447.00,1114.32
5451.00,1112.85
5454.00,1113.13
5457.00,1114.32
5460.00,1112.08
5463.00,1112.50
5467.00,1110.33
5470.00,1111.52
5473.00,1108.30
5476.00,1105.92
5483.00,1102.28
5486.00,1103.96
5489.00,1099.13
5492.00,1097.03
5496.00,1094.72
5499.00,1091.57
5502.00,1089.75
5505.00,1087.09
5508.00,1086.46
5512.00,1088.63
5515.00,1083.66
5518.00,1084.08
5521.00,1078.97
5525.00,1078.41
5528.00,1072.18
5531.00,1070.85
5534.00,1064.97
5537.00,1059.09
5541.00,1056.99
5544.00,1052.58
5547.00,1052.37
5550.00,1046.70
5554.00,1047.96
5557.00,1041.87
5560.00,1043.76
5563.00,1040.82
5566.00,1037.95
5570.00,1035.15
5573.00,1030.32
5576.00,1031.65
5582.00,1023.11
5585.00,1021.43
5589.00,1021.29
5592.00,1020.87
5595.00,1018.63
5598.00,1019.26
5602.00,1017.23
5605.00,1018.14
5608.00,1015.27
5611.00,1016.25
5615.00,1013.73
5618.00,1009.53
5621.00,1012.12
5624.00,1011.14
5627.00,1014.50
5631.00,1014.50
5634.00,1017.30
5637.00,1016.46
5640.00,1019.05
5644.00,1020.24
5647.00,1022.27
5650.00,1020.94
5653.00,1019.40
5657.00,1022.97
5660.00,1022.06
5663.00,1024.58
5666.00,1025.91
5669.00,1028.99
5673.00,1025.70
5676.00,1025.98
5682.00,1025.00
5685.00,1024.51
5688.00,1022.97
5692.00,1021.08
5695.00,1018.42
5698.00,1014.15
5701.00,1013.24
5705.00,1010.93
5708.00,1012.96
5711.00,1008.62
5714.00,1010.16
5717.00,1010.44
5721.00,1007.64
5724.00,1005.54
5727.00,1002.39
5730.00,998.26
5734.00,992.66
5737.00,991.89
5740.00,988.67
5743.00,989.02
5747.00,980.34
5750.00,979.85
5753.00,978.59
5756.00,974.53
5759.00,968.37
5763.00,968.44
5766.00,961.37
5769.00,958.01
5772.00,952.83
5776.00,952.97
5779.00,933.51
5785.00,941.77
5788.00,935.68
5791.00,927.42
5795.00,927.14
5798.00,926.44
5801.00,920.70
5804.00,918.67
5808.00,914.26
5811.00,907.96
5814.00,902.85
5817.00,901.38
5820.00,895.85
5824.00,892.63
5827.00,890.18
5830.00,889.20
5833.00,883.60
5837.00,881.36
5840.00,875.83
5843.00,871.91
5846.00,865.05
5849.00,866.73
5853.00,858.40
5856.00,856.65
5859.00,850.56
5862.00,844.19
5866.00,842.30
5869.00,823.68
5872.00,834.53
5875.00,829.91
5879.00,822.84
5882.00,815.14
5885.00,815.35
5891.00,804.78
5894.00,797.43
5898.00,792.60
5901.00,789.17
5904.00,785.60
5907.00,777.90
5910.00,773.35
5914.00,770.55
5917.00,762.50
5920.00,752.42
5923.00,732.75
5927.00,741.85
5930.00,744.02
5933.00,739.19
5936.00,721.41
5940.00,719.45
5943.00,715.39
5946.00,716.58
5949.00,704.68
5952.00,692.99
5956.00,692.92
5959.00,691.03
5962.00,673.53
5965.00,670.94
5969.00,649.66
5972.00,655.96
