in PID_v1.cpp:
	~setOutputLimits(50,255);
	~sampleTime??? why 10?

imu.cpp:
	->searching for this?
  roll = 180 + (atan2(-aY, aZ) * 180) / PI;
  pitch = 180 + (atan2(-aX, aZ) * 180) / PI;
	*Don'T where it happens
...

roll= roll % 365;

