85,333.3433227539
84,390.3792724609
83,435.7477416992
82,475.7097167968
81,516.1907958984
80,556.6396484375
79,593.2541503906
78,629.3059082031
77,658.4124755859
76,683.9523925781
75,723.4654541015
74,752.6406250000
73,780.9349365234
72,806.8644409179
71,832.0461425781
70,855.7355957031
69,878.2184448242
68,898.6209106445
67,919.9039306640
66,941.7608642578
65,968.2611694335
64,998.3170166015
63,1012.0062255859
62,1023.2915039062
61,1032.9448242187
60,1028.6132812500
59,1017.6874389648
58,1029.2934570312
57,1049.7216796875
56,1063.3673095703
55,1074.8048095703
54,1085.1500244140
53,1095.1826171875
52,1105.8447265625
51,1114.7049560546
50,1122.9833984375
49,1129.9146728515
48,1140.1441650390
47,1148.8387451171
46,1157.0590820312
45,1164.7807617187
44,1172.9208984375
43,1180.5969238281
42,1187.6319580078
41,1195.6044921875
40,1203.2707519531
39,1210.4655761718
38,1217.7297363281
37,1224.2788085937
36,1231.2927246093
35,1237.4027099609
34,1242.7674560546
33,1251.0244140625
32,1252.9288330078
31,1258.2397460937
30,1263.0952148437
29,1267.2231445312
28,1271.9521484375
27,1275.9832763671
26,1280.0052490234
25,1283.7415771484
24,1287.6656494140
23,1291.1063232421
22,1294.8842773437
21,1298.3522949218
20,1302.0883789062
19,1305.1268310546
18,1308.4879150390
17,1311.8850097656
16,1315.2598876953
15,1317.8723144531
14,1321.2127685546
13,1324.4940185546
12,1328.0708007812
11,1331.0709228515
10,1334.3665771484
9,1338.4437255859
8,1343.1088867187
7,1347.7613525390
6,1354.9462890625
5,1363.8349609375
4,1375.1562500000
3,1405.5866699218
2,1406.1317138671
1,1405.9562988281
0,1406.4078369140