85,312.2691040039
84,385.7453002929
83,430.4827270507
82,471.4657897949
81,511.7052001953
80,551.8376464843
79,588.9800415039
78,624.4311523437
77,656.0271606445
76,683.8627929687
75,718.9383544921
74,747.9340820312
73,776.7853393554
72,803.8186035156
71,829.8338012695
70,853.5673217773
69,876.4870605468
68,897.0270996093
67,917.6370849609
66,940.7030639648
65,972.2523193359
64,995.4813842773
63,1010.4877319335
62,1023.0445556640
61,1033.0848388671
60,1035.4641113281
59,1023.2849731445
58,1007.6939086914
57,1045.6004638671
56,1060.7779541015
55,1073.0960693359
54,1084.7604980468
53,1095.4636230468
52,1104.7866210937
51,1113.5667724609
50,1121.1507568359
49,1129.1995849609
48,1137.4840087890
47,1145.3818359375
46,1153.7169189453
45,1161.2666015625
44,1169.5561523437
43,1177.5339355468
42,1184.1672363281
41,1192.8273925781
40,1199.7963867187
39,1207.5706787109
38,1214.7539062500
37,1221.5072021484
36,1228.0303955078
35,1235.0892333984
34,1240.4632568359
33,1247.7241210937
32,1250.1463623046
31,1256.2575683593
30,1261.5325927734
29,1265.3039550781
28,1269.6602783203
27,1274.4713134765
26,1278.6215820312
25,1282.2205810546
24,1286.4141845703
23,1289.6647949218
22,1293.2416992187
21,1296.4449462890
20,1300.2144775390
19,1303.7086181640
18,1307.2563476562
17,1310.1557617187
16,1313.7652587890
15,1317.0450439453
14,1319.9766845703
13,1323.2670898437
12,1326.3868408203
11,1329.9135742187
10,1332.8793945312
9,1336.7808837890
8,1341.3642578125
7,1346.6818847656
6,1353.6381835937
5,1362.7116699218
4,1374.0109863281
3,1404.6809082031
2,1404.8493652343
1,1404.5506591796
0,1404.8538818359