3,-14031.70166
4,-13724.42017
5,-13608.85498
6,-13521.92627
7,-13451.83594
8,-13402.42188
9,-13357.48291
10,-13318.38379
11,-13287.18628
12,-13252.23022
13,-13218.64502
14,-13190.89966
15,-13155.55054
16,-13130.17456
17,-13093.83545
18,-13060.82153
19,-13026.80298
20,-12998.04199
21,-12962.88208
22,-12926.24878
23,-12892.07886
24,-12856.5271
25,-12816.97266
26,-12775.49194
27,-12740.78979
28,-12696.48315
29,-12648.35693
30,-12610.06836
31,-12560.46997
32,-12506.74683
33,-12492.03735
34,-12408.24951
35,-12347.29736
36,-12287.30347
37,-12223.72925
38,-12166.27075
39,-12100.92896
40,-12040.72632
41,-11969.98779
42,-11900.0647
43,-11835.06348
44,-11763.87207
45,-11686.4502
46,-11613.4436
47,-11532.76855
48,-11453.64624
49,-11368.31421
50,-11277.50122
51,-11196.8042
52,-11101.41968
53,-11004.21143
54,-10895.61401
55,-10778.68164
56,-10683.66821
57,-10563.44971
58,-10418.43628
59,-10183.58765
60,-10291.9751
61,-10328.0896
62,-10289.78638
63,-10191.60889
64,-10069.68933
65,-9901.871338
66,-9578.309326
67,-9317.215576
68,-9085.891113
69,-8897.909546
70,-8680.036621
71,-8451.392212
72,-8210.22583
73,-7949.592285
74,-7669.492188
75,-7401.885376
76,-7090.181274
77,-6719.188843
78,-6418.743896
79,-6109.864502
80,-5749.451294
81,-5357.355957
82,-4936.308289
83,-4541.101685
84,-4090.52124
85,-3607.719421
95,3159.343872
96,3929.460449
97,4419.780579
98,4865.578613
99,5329.415894
100,5733.616943
101,6107.559204
102,6465.06897
103,6776.275635
104,7153.4021
105,7485.74707
106,7787.281494
107,8082.731934
108,8355.674438
109,8608.747559
110,8838.377075
111,9056.160889
112,9253.580322
113,9428.106079
114,9596.635132
115,9746.96228
116,9896.998291
117,10015.07629
118,10073.71399
119,10177.52808
120,10298.67188
121,10260.89966
122,10370.78003
123,10479.54346
124,10592.75635
125,10689.50684
126,10789.22241
127,10886.70898
128,10974.80835
129,11060.72632
130,11140.09277
131,11238.42773
132,11315.98389
133,11381.77002
134,11471.15845
135,11534.729
136,11611.93115
137,11667.34131
138,11728.6792
139,11800.68237
140,11847.38037
141,11909.90601
142,11957.90283
143,11992.28638
144,12052.69165
145,12049.32251
146,12122.2168
147,12173.35938
148,12204.36035
149,12255.25024
150,12292.63916
151,12310.90088
152,12363.48633
153,12398.81226
154,12413.84644
155,12450.04517
156,12493.46924
157,12523.73779
158,12545.91675
159,12585.99365
160,12617.09839
161,12637.76123
162,12662.82837
163,12710.01831
164,12739.87549
165,12760.55054
166,12794.63013
167,12846.17676
168,12871.1731
169,12944.45068
170,13019.24194
171,13128.27148
172,13416.23169
173,13429.19434
