1295.00,-19.21
1386.00,-143.46
1390.00,-148.92
1393.00,-151.79
1396.00,-157.46
1399.00,-162.22
1403.00,-165.93
1406.00,-171.67
1409.00,-175.17
1412.00,-177.90
1416.00,-184.27
1419.00,-187.07
1422.00,-190.22
1425.00,-195.05
1428.00,-197.08
1432.00,-202.05
1435.00,-205.27
1438.00,-208.07
1441.00,-211.71
1444.00,-215.42
1448.00,-218.22
1451.00,-223.54
1454.00,-226.55
1457.00,-229.77
1461.00,-235.30
1464.00,-237.82
1467.00,-241.46
1470.00,-243.28
1474.00,-244.26
1477.00,-246.36
1480.00,-248.18
1486.00,-254.06
1489.00,-256.72
1493.00,-260.57
1496.00,-264.14
1499.00,-267.29
1502.00,-270.51
1505.00,-273.80
1509.00,-274.78
1512.00,-274.15
1515.00,-275.69
1518.00,-276.18
1522.00,-277.37
1525.00,-280.45
1528.00,-283.18
1531.00,-288.01
1534.00,-290.11
1538.00,-292.14
1541.00,-292.28
1544.00,-293.75
1547.00,-294.17
1551.00,-295.50
1554.00,-295.64
1557.00,-296.20
1560.00,-297.88
1564.00,-299.77
1567.00,-301.31
1570.00,-302.78
1573.00,-304.81
1576.00,-306.49
1580.00,-308.31
1586.00,-310.34
1589.00,-308.80
1592.00,-307.68
1596.00,-309.85
1599.00,-310.76
1602.00,-311.74
1605.00,-311.67
1608.00,-312.16
1612.00,-312.37
1615.00,-312.58
1618.00,-316.50
1621.00,-317.83
1625.00,-319.65
1628.00,-318.81
1631.00,-315.73
1634.00,-316.22
1638.00,-318.18
1641.00,-320.98
1644.00,-323.71
1647.00,-325.11
1650.00,-323.64
1654.00,-324.27
1657.00,-326.30
1660.00,-327.84
1663.00,-329.66
1667.00,-329.31
1670.00,-328.68
1673.00,-330.43
1676.00,-330.36
1680.00,-314.61
1686.00,-329.87
1689.00,-330.92
1692.00,-334.07
1695.00,-337.08
1699.00,-335.19
1702.00,-333.30
1705.00,-332.39
1708.00,-336.31
1712.00,-340.16
1715.00,-339.25
1718.00,-337.43
1721.00,-337.64
1725.00,-342.19
1728.00,-344.71
1731.00,-343.17
1734.00,-340.16
1737.00,-342.47
1741.00,-347.79
1744.00,-348.63
1747.00,-345.20
1750.00,-342.33
1754.00,-344.57
1757.00,-350.94
1760.00,-353.04
1763.00,-347.86
1767.00,-349.75
1770.00,-354.23
1773.00,-358.15
1776.00,-361.65
1779.00,-352.90
1786.00,-360.67
1789.00,-363.26
1792.00,-365.85
1795.00,-361.79
1799.00,-363.54
1802.00,-370.89
1805.00,-369.56
1808.00,-369.00
1811.00,-370.89
1815.00,-377.82
1818.00,-378.52
1821.00,-375.23
1824.00,-376.63
1828.00,-383.00
1831.00,-384.47
1834.00,-381.04
1837.00,-381.04
1840.00,-387.97
1844.00,-391.26
1847.00,-385.38
1850.00,-387.13
1853.00,-395.11
1857.00,-398.33
1860.00,-393.15
1863.00,-394.55
1866.00,-400.29
1869.00,-404.42
1873.00,-400.57
1876.00,-400.22
1879.00,-409.46
1885.00,-406.31
1888.00,-408.97
1892.00,-415.76
1895.00,-417.16
1898.00,-411.07
1901.00,-414.92
1905.00,-422.13
1908.00,-421.15
1911.00,-417.30
1914.00,-424.86
1917.00,-428.71
1921.00,-425.49
1924.00,-426.61
1927.00,-433.26
1930.00,-435.08
1934.00,-428.57
1937.00,-433.89
1940.00,-440.96
1943.00,-438.44
1946.00,-434.66
1950.00,-444.46
1953.00,-446.28
1956.00,-442.08
1959.00,-444.53
1963.00,-452.44
1966.00,-450.76
1969.00,-446.28
1972.00,-452.86
1975.00,-458.60
1979.00,-451.95
1985.00,-460.56
1988.00,-461.05
1991.00,-458.53
1994.00,-463.85
1998.00,-468.40
2001.00,-462.17
2004.00,-466.23
2007.00,-474.49
2011.00,-470.08
2014.00,-472.67
2017.00,-477.22
2020.00,-478.13
2023.00,-475.33
2027.00,-481.21
2030.00,-484.64
2033.00,-478.20
2036.00,-486.18
2040.00,-490.73
2043.00,-483.52
2046.00,-490.59
2049.00,-496.96
2052.00,-492.20
2056.00,-495.35
2059.00,-503.75
2062.00,-499.20
2065.00,-500.39
2068.00,-510.82
2072.00,-509.56
2075.00,-525.31
2078.00,-519.64
2084.00,-513.97
2088.00,-530.00
2091.00,-526.85
2094.00,-523.84
2097.00,-538.68
2100.00,-536.23
2104.00,-534.90
2107.00,-548.34
2110.00,-547.57
2113.00,-542.04
2117.00,-556.39
2120.00,-557.65
2123.00,-552.82
2126.00,-566.40
2129.00,-571.44
2133.00,-565.07
2136.00,-576.90
2139.00,-580.33
2142.00,-576.69
2146.00,-587.33
2149.00,-592.37
2152.00,-590.76
2155.00,-600.49
2158.00,-606.44
2162.00,-604.62
2165.00,-613.65
2168.00,-619.04
2171.00,-617.85
2175.00,-646.48
2178.00,-633.67
2181.00,-634.23
2187.00,-648.65
2190.00,-647.67
2194.00,-670.00
2197.00,-663.28
2200.00,-663.49
2203.00,-686.31
2207.00,-677.63
2210.00,-678.89
2213.00,-701.57
2216.00,-692.47
2219.00,-693.87
2223.00,-716.41
2226.00,-707.03
2229.00,-708.92
2232.00,-729.78
2236.00,-721.31
2239.00,-728.38
2242.00,-740.98
2245.00,-733.28
2248.00,-742.38
2252.00,-750.50
2255.00,-746.16
2258.00,-757.29
2261.00,-754.35
2265.00,-756.17
2268.00,-771.92
2271.00,-758.97
2274.00,-765.90
2277.00,-784.45
2281.00,-765.90
2287.00,-791.52
2290.00,-771.57
2293.00,-778.57
2297.00,-792.29
2300.00,-778.08
2303.00,-786.06
2306.00,-784.59
2309.00,-779.90
2313.00,-795.37
2316.00,-776.75
2319.00,-779.97
2322.00,-802.23
2326.00,-773.53
2329.00,-781.02
2332.00,-798.31
2335.00,-773.46
2338.00,-780.88
2342.00,-781.79
2345.00,-772.69
2348.00,-787.53
2351.00,-766.46
2355.00,-770.17
2358.00,-792.50
2361.00,-759.46
2364.00,-765.55
2368.00,-783.05
2371.00,-759.25
2374.00,-767.93
2377.00,-758.69
2380.00,-755.12
2387.00,-745.53
2390.00,-749.52
2393.00,-775.07
2396.00,-744.34
2399.00,-745.11
2403.00,-749.38
2406.00,-740.35
2409.00,-760.09
2412.00,-733.91
2416.00,-735.87
2419.00,-758.90
2422.00,-729.92
2425.00,-732.93
2428.00,-735.52
2432.00,-728.03
2435.00,-749.66
2438.00,-720.26
2441.00,-724.67
2445.00,-748.54
2448.00,-720.89
2451.00,-723.34
2454.00,-726.56
2458.00,-720.61
2461.00,-744.27
2464.00,-713.82
2467.00,-719.42
2470.00,-734.47
2474.00,-713.89
2477.00,-717.95
2480.00,-711.65
2486.00,-722.92
2489.00,-716.97
2493.00,-713.75
2496.00,-736.99
2499.00,-708.50
2502.00,-714.87
2506.00,-724.60
2509.00,-706.54
2512.00,-729.08
2515.00,-707.10
2518.00,-707.87
2522.00,-729.08
2525.00,-705.07
2528.00,-720.82
2531.00,-706.26
2535.00,-706.96
2538.00,-731.95
2541.00,-703.32
2544.00,-715.64
2547.00,-710.53
2551.00,-701.01
2554.00,-732.51
2557.00,-701.29
2560.00,-721.94
2563.00,-713.61
2567.00,-699.12
2570.00,-732.02
2573.00,-700.73
2576.00,-704.86
2580.00,-722.85
2586.00,-709.55
2589.00,-725.09
2592.00,-706.68
2595.00,-733.63
2599.00,-703.04
2602.00,-714.73
2605.00,-732.30
2608.00,-712.84
2611.00,-737.90
2615.00,-708.22
2618.00,-719.56
2621.00,-739.09
2624.00,-710.74
2628.00,-744.83
2631.00,-714.31
2634.00,-742.45
2637.00,-746.65
2640.00,-720.47
2644.00,-756.80
2647.00,-725.79
2650.00,-738.32
2653.00,-753.30
2657.00,-730.90
2660.00,-748.89
2663.00,-737.20
2666.00,-756.17
2669.00,-763.10
2673.00,-749.24
2676.00,-768.42
2679.00,-752.32
2685.00,-795.51
2688.00,-778.92
2692.00,-787.60
2695.00,-778.08
2698.00,-794.60
2701.00,-809.72
2705.00,-780.60
2708.00,-813.99
2711.00,-791.52
2714.00,-809.65
2717.00,-820.43
2721.00,-800.62
2724.00,-842.69
2727.00,-809.02
2730.00,-832.75
2734.00,-828.27
2737.00,-823.93
2740.00,-848.15
2743.00,-827.43
2746.00,-850.32
2750.00,-862.50
2753.00,-850.25
2756.00,-871.88
2759.00,-843.25
2762.00,-867.26
2766.00,-859.70
2769.00,-867.89
2772.00,-884.06
2775.00,-850.32
2779.00,-882.38
2785.00,-864.11
2788.00,-889.73
2791.00,-853.47
2794.00,-876.43
2798.00,-859.14
2801.00,-872.93
2804.00,-895.61
2807.00,-860.33
2810.00,-888.47
2814.00,-859.00
2817.00,-873.42
2820.00,-875.80
2823.00,-846.33
2827.00,-892.04
2830.00,-848.22
2833.00,-883.15
2836.00,-853.75
2839.00,-851.44
2843.00,-869.50
2846.00,-833.10
2849.00,-863.62
2852.00,-833.38
2856.00,-852.35
2859.00,-870.83
2862.00,-837.16
2865.00,-872.37
2868.00,-828.41
2872.00,-851.51
2875.00,-834.71
2878.00,-837.23
2884.00,-812.73
2887.00,-839.75
2891.00,-808.67
2894.00,-828.41
2897.00,-800.34
2900.00,-814.48
2904.00,-851.02
2907.00,-801.32
2910.00,-832.12
2913.00,-817.77
2916.00,-821.90
2920.00,-837.30
2923.00,-792.29
2926.00,-841.50
2929.00,-792.78
2933.00,-829.32
2936.00,-799.50
2939.00,-796.28
2942.00,-817.21
2945.00,-786.76
2949.00,-815.67
2952.00,-784.80
2955.00,-806.08
2958.00,-818.05
2961.00,-799.57
2965.00,-827.22
2968.00,-782.56
2971.00,-821.13
2974.00,-787.11
2978.00,-803.63
2984.00,-781.65
2987.00,-816.51
2990.00,-775.98
2993.00,-802.79
2997.00,-763.94
3000.00,-795.23
3003.00,-812.31
3006.00,-789.91
3009.00,-820.01
3013.00,-773.39
3016.00,-814.83
3019.00,-780.60
3022.00,-787.53
3026.00,-793.90
3029.00,-777.38
3032.00,-813.92
3035.00,-767.51
3038.00,-800.20
3042.00,-770.59
3045.00,-792.01
3048.00,-802.93
3051.00,-788.93
3054.00,-813.85
3058.00,-767.93
3061.00,-819.38
3064.00,-771.43
3067.00,-792.29
3071.00,-781.65
3074.00,-791.24
3077.00,-805.59
3080.00,-780.53
3086.00,-781.44
3090.00,-814.97
3093.00,-800.83
3096.00,-795.79
3099.00,-812.94
3102.00,-787.88
3106.00,-833.94
3109.00,-788.65
3112.00,-829.32
3115.00,-795.37
3119.00,-828.90
3122.00,-839.33
3125.00,-837.02
3128.00,-856.27
3131.00,-806.99
3135.00,-872.09
3138.00,-816.65
3141.00,-877.27
3144.00,-830.65
3148.00,-862.22
3151.00,-845.63
3154.00,-868.31
3157.00,-893.79
3160.00,-860.82
3164.00,-901.77
3167.00,-861.24
3170.00,-907.93
3173.00,-874.68
3177.00,-910.66
3180.00,-887.70
3186.00,-925.29
3189.00,-889.24
3192.00,-932.43
3196.00,-900.09
3199.00,-936.70
3202.00,-905.20
3205.00,-939.01
3209.00,-917.31
3212.00,-923.05
3215.00,-933.27
3218.00,-921.44
3221.00,-957.63
3225.00,-925.50
3228.00,-957.98
3231.00,-911.43
3234.00,-953.01
3238.00,-936.21
3241.00,-948.25
3244.00,-945.52
3247.00,-923.12
3250.00,-954.69
3254.00,-923.68
3257.00,-958.47
3260.00,-919.83
3263.00,-948.74
3267.00,-915.56
3270.00,-944.05
3273.00,-940.90
3276.00,-937.82
3279.00,-943.77
3286.00,-949.30
3289.00,-904.57
3292.00,-939.92
3295.00,-898.83
3299.00,-929.77
3302.00,-923.26
3305.00,-919.69
3308.00,-919.41
3311.00,-886.02
3315.00,-913.25
3318.00,-875.10
3321.00,-910.66
3324.00,-860.40
3328.00,-893.58
3331.00,-853.40
3334.00,-879.58
3337.00,-869.99
3340.00,-865.86
3344.00,-871.25
3347.00,-832.12
3350.00,-874.47
3353.00,-819.66
3357.00,-869.64
3360.00,-811.89
3363.00,-837.72
3366.00,-805.87
3369.00,-825.96
3373.00,-848.57
3376.00,-809.86
3379.00,-846.33
3385.00,-832.75
3388.00,-783.40
3392.00,-796.98
3395.00,-793.48
3398.00,-778.43
3401.00,-818.54
3405.00,-761.70
3408.00,-796.98
3411.00,-755.89
3414.00,-777.31
3417.00,-782.14
3421.00,-759.32
3424.00,-786.48
3427.00,-736.78
3430.00,-781.16
3434.00,-736.08
3437.00,-743.29
3440.00,-742.52
3443.00,-724.18
3446.00,-762.12
3450.00,-711.30
3453.00,-737.06
3456.00,-711.51
3459.00,-724.32
3462.00,-745.46
3466.00,-703.46
3469.00,-739.65
3472.00,-699.33
3475.00,-714.17
3479.00,-705.56
3485.00,-713.05
3488.00,-676.09
3491.00,-693.38
3494.00,-679.52
3498.00,-683.23
3501.00,-710.81
3504.00,-660.34
3507.00,-687.29
3510.00,-679.80
3514.00,-673.92
3517.00,-697.37
3520.00,-651.03
3523.00,-681.48
3527.00,-655.23
3530.00,-662.93
3533.00,-680.50
3536.00,-639.20
3539.00,-677.28
3543.00,-642.49
3546.00,-645.71
3549.00,-667.20
3552.00,-630.45
3556.00,-650.61
3559.00,-631.15
3562.00,-639.06
3565.00,-660.27
3568.00,-628.77
3572.00,-645.99
3575.00,-627.16
3578.00,-639.34
3584.00,-626.39
3587.00,-643.68
3591.00,-661.95
3594.00,-636.89
3597.00,-657.40
3600.00,-631.29
3604.00,-644.31
3607.00,-666.57
3610.00,-628.14
3613.00,-652.15
3616.00,-643.05
3620.00,-639.76
3623.00,-670.63
3626.00,-634.51
3629.00,-651.17
3633.00,-662.02
3636.00,-642.49
3639.00,-666.22
3642.00,-644.73
3645.00,-651.45
3649.00,-676.58
3652.00,-646.27
3655.00,-656.84
3658.00,-668.81
3662.00,-651.66
3665.00,-674.97
3668.00,-655.37
3671.00,-656.98
3674.00,-684.00
3678.00,-656.14
3684.00,-681.76
3687.00,-657.96
3690.00,-668.53
3693.00,-672.38
3697.00,-661.95
3700.00,-669.23
3703.00,-660.48
3706.00,-664.12
3710.00,-673.22
3713.00,-656.21
3716.00,-664.47
3719.00,-676.65
3722.00,-655.37
3726.00,-662.65
3729.00,-674.27
3732.00,-653.34
3735.00,-658.31
3739.00,-660.55
3742.00,-649.07
3745.00,-670.91
3748.00,-649.28
3751.00,-644.66
3755.00,-662.16
3758.00,-636.40
3761.00,-637.66
3764.00,-656.70
3768.00,-626.18
3771.00,-627.44
3774.00,-647.60
3777.00,-618.69
3783.00,-636.12
3787.00,-608.75
3790.00,-607.49
3793.00,-623.59
3796.00,-598.53
3800.00,-596.01
3803.00,-610.22
3806.00,-587.40
3809.00,-581.73
3812.00,-595.80
3816.00,-575.29
3819.00,-570.18
3822.00,-582.15
3825.00,-563.32
3829.00,-555.34
3832.00,-566.47
3835.00,-549.74
3838.00,-542.74
3841.00,-551.84
3845.00,-536.30
3848.00,-530.42
3851.00,-536.44
3854.00,-522.30
3858.00,-516.42
3861.00,-520.41
3864.00,-509.84
3867.00,-503.75
3871.00,-505.92
3874.00,-496.82
3877.00,-491.99
3880.00,-493.88
3886.00,-478.69
3890.00,-476.38
3893.00,-477.92
3896.00,-467.28
3899.00,-463.78
3903.00,-469.52
3906.00,-455.87
3909.00,-448.87
3912.00,-458.18
3915.00,-444.04
3919.00,-436.69
3922.00,-442.43
3925.00,-430.46
3928.00,-426.75
3932.00,-426.05
3935.00,-420.17
3938.00,-417.02
3941.00,-411.49
3945.00,-411.56
3948.00,-406.03
3951.00,-398.12
3954.00,-404.56
3957.00,-397.07
3961.00,-386.78
3964.00,-395.39
3967.00,-386.29
3970.00,-375.37
3974.00,-379.71
3977.00,-376.91
3980.00,-369.42
3986.00,-370.54
3989.00,-360.95
3993.00,-350.80
3996.00,-359.62
3999.00,-350.87
4002.00,-345.20
4006.00,-348.28
4009.00,-343.66
4012.00,-339.74
4015.00,-333.86
4018.00,-335.26
4022.00,-330.85
4025.00,-318.88
4028.00,-327.14
4031.00,-322.80
4035.00,-312.65
4038.00,-313.28
4041.00,-312.02
4044.00,-309.01
4047.00,-298.65
4051.00,-303.83
4054.00,-299.91
4057.00,-291.51
4060.00,-293.89
4064.00,-291.23
4067.00,-287.52
4070.00,-278.98
4073.00,-282.06
4076.00,-276.95
4080.00,-265.12
4086.00,-271.56
4089.00,-263.16
4092.00,-255.74
4095.00,-260.78
4099.00,-257.91
4102.00,-246.99
4105.00,-251.89
4108.00,-249.23
4112.00,-245.73
4115.00,-238.80
4118.00,-241.53
4121.00,-239.29
4124.00,-225.57
4128.00,-231.87
4131.00,-231.52
4134.00,-225.64
4137.00,-217.59
4141.00,-222.84
4144.00,-221.30
4147.00,-212.06
4150.00,-213.32
4153.00,-214.44
4157.00,-211.22
4160.00,-200.30
4163.00,-203.87
4166.00,-205.13
4169.00,-193.72
4173.00,-192.46
4176.00,-193.86
4179.00,-193.09
4185.00,-185.74
4189.00,-188.75
4192.00,-183.50
4195.00,-172.58
4198.00,-177.55
4201.00,-180.35
4205.00,-167.75
4208.00,-167.89
4211.00,-168.17
4214.00,-167.12
4218.00,-156.48
4221.00,-158.37
4224.00,-161.38
4227.00,-156.76
4230.00,-146.61
4234.00,-150.46
4237.00,-153.12
4240.00,-147.73
4243.00,-138.91
4246.00,-141.08
4250.00,-139.33
4253.00,-132.40
4256.00,-130.02
4259.00,-135.97
4262.00,-131.42
4266.00,-123.58
4269.00,-123.51
4272.00,-127.71
4275.00,-122.60
4279.00,-112.03
4285.00,-119.24
4288.00,-113.01
4291.00,-104.12
4294.00,-108.25
4298.00,-108.25
4301.00,-105.73
4304.00,-96.28
4307.00,-101.39
4310.00,-100.13
4314.00,-97.05
4317.00,-88.79
4320.00,-92.92
4323.00,-90.75
4326.00,-85.43
4330.00,-81.16
4333.00,-86.55
4336.00,-83.33
4339.00,-79.13
4343.00,-74.44
4346.00,-78.36
4349.00,-75.63
4352.00,-67.58
4355.00,-67.02
4359.00,-70.24
4362.00,-68.84
4365.00,-62.19
4368.00,-59.95
4371.00,-62.61
4375.00,-61.84
4378.00,-51.62
4381.00,-51.69
4387.00,-52.88
4390.00,-45.60
4394.00,-43.64
4397.00,-48.26
4400.00,-46.58
4403.00,-41.33
4406.00,-37.13
4410.00,-39.65
4413.00,-39.86
4416.00,-31.60
4419.00,-29.15
4423.00,-31.88
4426.00,-32.79
4429.00,-27.33
4432.00,-19.70
4435.00,-24.39
4439.00,-25.37
4442.00,-20.89
4445.00,-13.54
4448.00,-16.13
4451.00,-18.02
4455.00,-13.33
4458.00,-6.89
4461.00,-9.13
4464.00,-11.65
4467.00,-8.92
4471.00,-0.31
4474.00,-1.92
4477.00,-5.56
4480.00,-1.08
4483.00,5.64
4487.00,5.64
4490.00,1.16
4496.00,8.58
4499.00,11.73
4502.00,10.61
4506.00,9.28
4509.00,14.88
4512.00,18.80
4515.00,18.03
4518.00,16.14
4522.00,18.94
4525.00,25.59
4528.00,24.26
4531.00,21.67
4534.00,23.98
4538.00,32.45
4541.00,31.89
4544.00,29.79
4547.00,30.00
4550.00,35.04
4554.00,38.68
4557.00,37.35
4560.00,36.93
4563.00,41.41
4566.00,46.94
4570.00,45.54
4573.00,42.67
4576.00,45.26
4579.00,51.91
4582.00,53.03
4586.00,50.93
4589.00,51.42
4592.00,57.30
4595.00,61.08
4598.00,60.59
4602.00,58.42
4605.00,60.52
4611.00,67.38
4614.00,64.93
4617.00,66.68
4621.00,73.19
4624.00,74.45
4627.00,74.52
4630.00,73.40
4633.00,75.92
4637.00,81.73
4640.00,82.29
4643.00,79.84
4646.00,81.94
4650.00,87.82
4653.00,90.69
4656.00,88.52
4659.00,89.15
4662.00,91.46
4665.00,98.81
4669.00,98.25
4672.00,96.08
4675.00,97.34
4678.00,102.73
4682.00,106.09
4685.00,105.53
4688.00,105.18
4691.00,106.16
4694.00,113.37
4698.00,114.70
4701.00,113.44
4704.00,113.44
4707.00,117.99
4710.00,123.66
4714.00,124.29
4720.00,121.42
4723.00,128.77
4726.00,131.57
4729.00,132.20
4733.00,131.43
4736.00,131.85
4739.00,140.32
4742.00,141.58
4745.00,139.13
4749.00,139.27
4752.00,144.03
4755.00,148.44
4758.00,150.61
4761.00,148.23
4765.00,147.95
4768.00,154.32
4771.00,158.38
4774.00,159.85
4778.00,157.54
4781.00,157.82
4784.00,163.42
4787.00,168.39
4790.00,167.90
4794.00,167.13
4797.00,169.72
4800.00,174.34
4803.00,178.47
4806.00,175.95
4810.00,177.00
4813.00,180.71
4816.00,186.38
4819.00,189.11
4825.00,186.87
4829.00,189.67
4832.00,197.23
4835.00,199.68
4838.00,197.09
4842.00,197.93
4845.00,200.80
4848.00,206.75
4851.00,210.18
4854.00,207.80
4858.00,208.92
4861.00,211.79
4864.00,218.93
4867.00,221.73
4870.00,218.58
4874.00,219.00
4877.00,223.97
4880.00,232.09
4883.00,234.05
4886.00,231.74
4890.00,230.34
4893.00,233.07
4896.00,243.64
4899.00,246.44
4903.00,244.55
4906.00,243.15
4909.00,245.18
4912.00,256.17
4915.00,259.39
4919.00,257.64
4922.00,255.75
4925.00,258.41
4931.00,271.71
4934.00,270.52
4938.00,269.47
4941.00,271.57
4944.00,279.41
4947.00,285.15
4951.00,287.67
4954.00,284.17
4957.00,286.55
4960.00,292.64
4964.00,299.99
4967.00,303.98
4970.00,301.25
4973.00,301.95
4976.00,305.45
4980.00,315.39
4983.00,319.03
4986.00,318.61
4989.00,318.19
4993.00,319.59
4996.00,330.23
4999.00,332.61
5002.00,334.15
5005.00,335.06
5009.00,337.65
5012.00,344.79
5015.00,346.68
5018.00,351.02
5022.00,351.02
5025.00,353.89
5028.00,358.23
5031.00,359.28
5037.00,364.74
5041.00,369.50
5044.00,369.50
5047.00,372.72
5050.00,375.80
5054.00,378.67
5057.00,382.10
5060.00,385.39
5063.00,386.37
5066.00,389.45
5070.00,392.04
5073.00,394.70
5076.00,399.88
5079.00,401.98
5083.00,403.59
5086.00,405.48
5089.00,409.54
5092.00,416.75
5096.00,417.87
5099.00,419.41
5102.00,419.76
5105.00,424.59
5108.00,426.20
5112.00,433.48
5115.00,432.99
5118.00,436.00
5121.00,435.30
5125.00,440.06
5128.00,442.72
5131.00,446.71
5134.00,446.29
5137.00,448.81
5144.00,450.63
5147.00,454.13
5150.00,456.02
5153.00,457.98
5156.00,458.54
5160.00,458.40
5163.00,459.24
5166.00,461.97
5169.00,463.44
5173.00,466.31
5176.00,465.96
5179.00,465.05
5182.00,464.70
5185.00,465.89
5189.00,467.78
5192.00,470.65
5195.00,470.72
5198.00,469.39
5201.00,466.80
5205.00,467.36
5208.00,469.60
5211.00,471.21
5214.00,471.21
5218.00,468.20
5221.00,464.84
5224.00,464.14
5227.00,463.65
5230.00,464.98
5234.00,465.33
5237.00,462.60
5240.00,459.10
5243.00,456.79
5249.00,455.32
5253.00,455.81
5256.00,454.27
5259.00,449.65
5262.00,445.66
5265.00,441.95
5269.00,441.25
5272.00,441.88
5275.00,440.20
5278.00,437.19
5282.00,433.34
5285.00,426.27
5288.00,425.57
5291.00,423.89
5294.00,423.61
5298.00,421.51
