6304.00,73.81
6308.00,74.62
6311.00,77.06
6314.00,81.14
6317.00,88.67
6321.00,92.91
6324.00,97.05
6327.00,104.00
6330.00,107.99
6333.00,113.97
6337.00,118.42
6340.00,123.07
6343.00,130.99
6346.00,136.76
6350.00,142.33
6353.00,148.80
6356.00,152.63
6359.00,157.43
6363.00,161.51
6366.00,166.65
6369.00,173.11
6372.00,176.84
6376.00,181.03
6379.00,188.66
6382.00,193.60
6385.00,197.62
6388.00,202.17
6392.00,206.54
6395.00,213.06
6398.00,215.56
6401.00,219.43
6405.00,224.93
6494.00,309.65
6497.00,309.71
6500.00,309.94
6504.00,311.30
6507.00,315.26
6510.00,318.06
6513.00,321.79
6517.00,325.67
6520.00,326.83
6523.00,326.89
6526.00,325.55
6529.00,325.75
6533.00,327.14
6536.00,329.50
6539.00,330.99
6542.00,334.16
6546.00,335.62
6549.00,339.10
6552.00,337.20
6555.00,336.65
6559.00,337.96
6562.00,338.63
6565.00,338.71
6568.00,338.48
6571.00,336.84
6575.00,336.02
6578.00,336.84
6581.00,339.19
6584.00,343.02
6588.00,345.12
6591.00,344.59
6594.00,343.12
6687.00,344.83
6691.00,339.93
6694.00,339.13
6697.00,325.42
6700.00,318.36
6704.00,317.23
6707.00,336.75
6710.00,336.19
6713.00,331.37
6717.00,317.35
6720.00,319.34
6723.00,326.09
6726.00,328.41
6730.00,327.30
6733.00,318.28
6736.00,315.99
6739.00,323.94
6743.00,326.71
6746.00,327.49
6749.00,316.94
6752.00,316.58
6756.00,320.16
6759.00,321.76
6762.00,316.73
6765.00,314.07
6769.00,314.52
6772.00,315.69
6775.00,314.80
6778.00,310.34
6782.00,319.94
6785.00,314.06
6788.00,314.70
6874.00,298.79
6878.00,314.13
6881.00,316.28
6884.00,308.80
6887.00,299.47
6891.00,317.79
6894.00,318.41
6897.00,308.94
6900.00,304.58
6904.00,323.41
6907.00,320.51
6910.00,315.68
6913.00,315.16
6917.00,329.35
6920.00,325.45
6923.00,321.87
6926.00,320.14
6930.00,334.22
6933.00,330.59
6936.00,322.53
6939.00,340.18
6943.00,339.27
6946.00,335.45
6949.00,330.83
6952.00,347.42
6955.00,346.56
6959.00,343.54
6962.00,349.87
6965.00,352.26
6968.00,351.70
6972.00,348.19
6975.00,352.62
7068.00,352.62
7071.00,352.62
7075.00,352.62
7078.00,352.62
7081.00,352.62
7084.00,352.62
7087.00,352.62
7091.00,352.62
7094.00,352.62
7097.00,352.62
7100.00,352.62
7104.00,352.62
7107.00,352.62
7110.00,352.62
7113.00,352.62
7117.00,352.62
7120.00,352.62
7123.00,352.62
7126.00,352.62
7129.00,352.62
7133.00,352.62
7136.00,352.62
7139.00,352.62
7142.00,352.62
7146.00,352.62
7149.00,352.62
7152.00,352.62
7155.00,352.62
7159.00,352.62
7162.00,352.62
7165.00,352.62
7168.00,352.62
7257.00,352.62
7260.00,352.62
7264.00,352.62
7267.00,352.62
7270.00,352.62
7273.00,352.62
7277.00,352.62
7280.00,352.62
7283.00,352.62
7286.00,352.62
7290.00,352.62
7293.00,352.62
7296.00,352.62
7299.00,352.62
7303.00,352.62
7306.00,352.62
7309.00,352.62
7312.00,352.62
7316.00,352.62
7319.00,352.62
7322.00,352.62
7325.00,352.62
7329.00,352.62
7332.00,352.62
7335.00,352.62
7338.00,352.62
7342.00,352.62
7345.00,352.62
7348.00,352.62
7351.00,352.62
7355.00,352.62
7358.00,352.62
7365.00,352.62
7368.00,352.62
7371.00,352.62
7374.00,352.62
7378.00,352.62
7381.00,352.62
7384.00,352.62
7387.00,352.62
7391.00,352.62
7394.00,352.62
7397.00,352.62
7400.00,352.62
7404.00,352.62
7407.00,352.62
7410.00,352.62
7413.00,352.62
7416.00,352.62
7420.00,352.62
7423.00,352.62
7426.00,352.62
7429.00,352.62
7433.00,352.62
7436.00,352.62
7439.00,352.62
7442.00,352.62
7446.00,352.62
7449.00,352.62
7452.00,352.62
7455.00,352.62
7459.00,352.62
7462.00,352.62
7465.00,352.62
7482.00,352.62
7485.00,352.62
7488.00,352.62
7492.00,352.62
7495.00,352.62
7498.00,352.62
7501.00,352.62
7505.00,352.62
7508.00,352.62
7511.00,352.62
7515.00,352.62
7518.00,352.62
7521.00,352.62
7524.00,352.62
7528.00,352.62
7531.00,352.62
7534.00,352.62
7537.00,352.62
7541.00,352.62
7544.00,352.62
7547.00,352.62
7550.00,352.62
7554.00,352.62
7557.00,352.62
7560.00,352.62
7563.00,352.62
7567.00,352.62
7570.00,352.62
7573.00,352.62
7576.00,352.62
7580.00,352.62
7583.00,352.62
7589.00,352.62
7592.00,352.62
7595.00,352.62
7599.00,352.62
7602.00,352.62
7605.00,352.62
7608.00,352.62
7612.00,352.62
7615.00,352.62
7618.00,352.62
7621.00,352.62
7625.00,352.62
7628.00,352.62
7631.00,352.62
7634.00,352.62
7637.00,352.62
7641.00,352.62
7644.00,352.62
7647.00,352.62
7650.00,352.62
7654.00,352.62
7657.00,352.62
7660.00,352.62
7663.00,352.62
7667.00,352.62
7670.00,352.62
7673.00,352.62
7676.00,352.62
7680.00,352.62
7683.00,352.62
7686.00,352.62
7689.00,352.62
7695.00,352.62
7699.00,352.62
7702.00,352.62
7705.00,352.62
7708.00,352.62
7711.00,352.62
7715.00,352.62
7718.00,352.62
7721.00,352.62
7724.00,352.62
7728.00,352.62
7731.00,352.62
7734.00,352.62
7737.00,352.62
7741.00,352.62
7744.00,352.62
7747.00,352.62
7750.00,352.62
7754.00,352.62
7757.00,352.62
7760.00,352.62
7763.00,352.62
7767.00,352.62
7770.00,352.62
7773.00,352.62
7776.00,352.62
7780.00,352.62
7783.00,352.62
7786.00,352.62
7789.00,352.62
7793.00,352.62
7796.00,352.62
7802.00,352.62
7805.00,352.62
7809.00,352.62
7812.00,352.62
7815.00,352.62
7818.00,352.62
7822.00,352.62
7825.00,352.62
7828.00,352.62
7831.00,352.62
7835.00,352.62
7838.00,352.62
7841.00,352.62
7844.00,352.62
7848.00,352.62
7851.00,352.62
7854.00,352.62
7857.00,352.62
7860.00,352.62
7864.00,352.62
7867.00,352.62
7870.00,352.62
7873.00,352.62
7877.00,352.62
7880.00,352.62
7883.00,352.62
7886.00,352.62
7890.00,352.62
7893.00,352.62
7896.00,352.62
7899.00,352.62
7903.00,352.62
7909.00,352.62
7912.00,352.62
7915.00,352.62
7918.00,352.62
7922.00,352.62
7925.00,352.62
7928.00,352.62
7931.00,352.62
7935.00,352.62
7938.00,352.62
7941.00,352.62
7944.00,352.62
7948.00,352.62
7951.00,352.62
7954.00,352.62
7957.00,352.62
7961.00,352.62
7964.00,352.62
7967.00,352.62
7970.00,352.62
7974.00,352.62
7977.00,352.62
7980.00,352.62
7983.00,352.62
7987.00,352.62
7990.00,352.62
7993.00,352.62
7996.00,352.62
8000.00,352.62
8003.00,352.62
8006.00,352.62
8009.00,352.62
8016.00,352.62
8019.00,352.62
8022.00,352.62
8025.00,352.62
8029.00,352.62
8032.00,352.62
8035.00,352.62
8038.00,352.62
8042.00,352.62
8045.00,352.62
8048.00,352.62
8051.00,352.62
8055.00,352.62
8058.00,352.62
8061.00,352.62
8064.00,352.62
8067.00,352.62
8071.00,352.62
8074.00,352.62
8077.00,352.62
8080.00,352.62
8084.00,352.62
8087.00,352.62
8090.00,352.62
8093.00,352.62
8097.00,352.62
8100.00,352.62
8103.00,352.62
8106.00,352.62
8109.00,352.62
8113.00,352.62
8116.00,352.62
8122.00,352.62
8125.00,352.62
8129.00,352.62
8132.00,352.62
8135.00,352.62
8138.00,352.62
8141.00,352.62
8145.00,352.62
8148.00,352.62
8151.00,352.62
8154.00,352.62
8158.00,352.62
8161.00,352.62
8164.00,352.62
8167.00,352.62
8171.00,352.62
8174.00,352.62
8177.00,352.62
8180.00,352.62
8184.00,352.62
8187.00,352.62
8190.00,352.62
8193.00,352.62
8197.00,352.62
8200.00,352.62
8203.00,352.62
8206.00,352.62
8210.00,352.62
8213.00,352.62
8216.00,352.62
8219.00,352.62
8223.00,352.62
8229.00,352.62
8232.00,352.62
8235.00,352.62
8239.00,352.62
8242.00,352.62
8245.00,352.62
8248.00,352.62
8252.00,352.62
8255.00,352.62
8258.00,352.62
8261.00,352.62
8265.00,352.62
8268.00,352.62
8271.00,352.62
8274.00,352.62
8278.00,352.62
8281.00,352.62
8284.00,352.62
8287.00,352.62
8291.00,352.62
8294.00,352.62
8297.00,352.62
8300.00,352.62
8304.00,352.62
8307.00,352.62
8310.00,352.62
8313.00,352.62
8316.00,352.62
8320.00,352.62
8323.00,352.62
8326.00,352.62
8329.00,352.62
8335.00,352.62
8339.00,352.62
8342.00,352.62
8345.00,352.62
8348.00,352.62
8352.00,352.62
8355.00,352.62
8358.00,352.62
8361.00,352.62
8365.00,352.62
8368.00,352.62
8371.00,352.62
8374.00,352.62
8378.00,352.62
8381.00,352.62
8384.00,352.62
8387.00,352.62
8391.00,352.62
8394.00,352.62
8397.00,352.62
8400.00,352.62
8404.00,352.62
8407.00,352.62
8410.00,352.62
8413.00,352.62
8417.00,352.62
8420.00,352.62
8423.00,352.62
8426.00,352.62
8430.00,352.62
8433.00,352.62
8436.00,352.62
8442.00,352.62
8446.00,352.62
8449.00,352.62
8452.00,352.62
8455.00,352.62
8459.00,352.62
8462.00,352.62
8465.00,352.62
8468.00,352.62
8472.00,352.62
8475.00,352.62
8478.00,352.62
8481.00,352.62
8485.00,352.62
8488.00,352.62
8491.00,352.62
8494.00,352.62
8498.00,352.62
8501.00,352.62
8504.00,352.62
8507.00,352.62
8511.00,352.62
8514.00,352.62
8517.00,352.62
8520.00,352.62
8524.00,352.62
8527.00,352.62
8530.00,352.62
8533.00,352.62
8537.00,352.62
8540.00,352.62
8543.00,352.62
8549.00,352.62
8552.00,352.62
8556.00,352.62
8559.00,352.62
8562.00,352.62
8565.00,352.62
8569.00,352.62
8572.00,352.62
8575.00,352.62
8578.00,352.62
8581.00,352.62
8585.00,352.62
8588.00,352.62
8591.00,352.62
8594.00,352.62
8598.00,352.62
8601.00,352.62
8604.00,352.62
8607.00,352.62
8611.00,352.62
8614.00,352.62
8617.00,352.62
8620.00,352.62
8624.00,352.62
8627.00,352.62
8630.00,352.62
8633.00,352.62
8637.00,352.62
8640.00,352.62
8643.00,352.62
8646.00,352.62
8649.00,352.62
8656.00,352.62
8659.00,352.62
8662.00,352.62
8665.00,352.62
8669.00,352.62
8672.00,352.62
8675.00,352.62
8678.00,352.62
8682.00,352.62
8685.00,352.62
8688.00,352.62
8691.00,352.62
8695.00,352.62
8698.00,352.62
8701.00,352.62
8704.00,352.62
8708.00,352.62
8711.00,352.62
8714.00,352.62
8717.00,352.62
8721.00,352.62
8724.00,352.62
8727.00,352.62
8730.00,352.62
8734.00,352.62
8737.00,352.62
8740.00,352.62
8743.00,352.62
8747.00,352.62
8750.00,352.62
8753.00,352.62
8756.00,352.62
8762.00,352.62
8766.00,352.62
8769.00,352.62
8772.00,352.62
8775.00,352.62
8779.00,352.62
8782.00,352.62
8785.00,352.62
8788.00,352.62
8792.00,352.62
8795.00,352.62
8798.00,352.62
8801.00,352.62
8805.00,352.62
8808.00,352.62
8811.00,352.62
8814.00,352.62
8818.00,352.62
8821.00,352.62
8824.00,352.62
8827.00,352.62
8831.00,352.62
8834.00,352.62
8837.00,352.62
8840.00,352.62
8844.00,352.62
8847.00,352.62
8850.00,352.62
8853.00,352.62
8857.00,352.62
8860.00,352.62
8863.00,352.62
8869.00,352.62
8873.00,352.62
8876.00,352.62
8879.00,352.62
8882.00,352.62
8886.00,352.62
8889.00,352.62
8892.00,352.62
8895.00,352.62
8898.00,352.62
8902.00,352.62
8905.00,352.62
8908.00,352.62
8911.00,352.62
8915.00,352.62
8918.00,352.62
8921.00,352.62
8924.00,352.62
8928.00,352.62
8931.00,352.62
8934.00,352.62
8937.00,352.62
8940.00,352.62
8944.00,352.62
8947.00,352.62
8950.00,352.62
8953.00,352.62
8957.00,352.62
8960.00,352.62
8963.00,352.62
8966.00,352.62
8970.00,352.62
8976.00,352.62
8979.00,352.62
8982.00,352.62
8985.00,352.62
8989.00,352.62
8992.00,352.62
8995.00,352.62
8998.00,352.62
9002.00,352.62
9005.00,352.62
9008.00,352.62
9011.00,352.62
9015.00,352.62
9018.00,352.62
9021.00,352.62
9024.00,352.62
9028.00,352.62
9031.00,352.62
9034.00,352.62
9037.00,352.62
9041.00,352.62
9044.00,352.62
9047.00,352.62
9050.00,352.62
9054.00,352.62
9057.00,352.62
9060.00,352.62
9063.00,352.62
9067.00,352.62
9070.00,352.62
9073.00,352.62
9076.00,352.62
9082.00,352.62
9086.00,352.62
9089.00,352.62
9092.00,352.62
9096.00,352.62
9099.00,352.62
9102.00,352.62
9105.00,352.62
9108.00,352.62
9112.00,352.62
9115.00,352.62
9118.00,349.76
9122.00,352.62
9125.00,350.57
9128.00,342.00
9131.00,350.26
9134.00,345.85
9138.00,334.94
9141.00,338.14
9144.00,335.92
9147.00,323.47
9151.00,317.59
9154.00,328.66
9157.00,317.22
9161.00,310.33
9164.00,318.23
9167.00,313.60
9170.00,304.79
9174.00,312.05
9177.00,308.33
9180.00,298.82
9183.00,295.00
9189.00,295.91
9193.00,283.48
9196.00,296.40
9199.00,289.64
9202.00,281.26
9206.00,280.39
9209.00,285.04
9212.00,276.20
9215.00,269.18
9219.00,278.40
9222.00,274.83
9225.00,263.83
9228.00,276.51
9231.00,271.57
9235.00,263.52
9238.00,260.89
9241.00,268.13
9244.00,259.37
9248.00,253.32
9251.00,260.95
9254.00,258.74
9257.00,253.59
9261.00,260.69
9264.00,256.09
9267.00,249.68
9270.00,243.61
9274.00,255.51
9277.00,247.27
9280.00,242.61
9283.00,246.70
9287.00,247.79
9290.00,241.39
9296.00,247.35
9299.00,243.19
9302.00,237.14
9306.00,245.48
9309.00,240.54
9312.00,235.48
9315.00,228.61
9319.00,241.34
9322.00,232.93
9325.00,229.05
9328.00,231.25
9331.00,235.38
9335.00,229.46
9338.00,223.54
9341.00,234.26
9344.00,230.57
9348.00,223.99
9351.00,227.83
9354.00,230.00
9357.00,224.61
9361.00,219.00
9364.00,232.09
9367.00,226.57
9370.00,221.77
9374.00,216.70
9377.00,226.15
9380.00,223.80
9383.00,216.93
9387.00,228.15
9390.00,224.64
9393.00,219.36
9396.00,214.38
9402.00,221.28
9406.00,216.88
9409.00,214.04
9412.00,222.54
9415.00,218.88
9419.00,216.26
9422.00,225.89
9425.00,222.29
9428.00,216.91
9432.00,212.57
9435.00,225.46
9438.00,219.61
9441.00,215.61
9444.00,211.99
9448.00,221.21
9451.00,216.73
9454.00,211.38
9457.00,222.95
9461.00,220.97
9464.00,215.80
9467.00,211.85
9470.00,224.22
9474.00,220.40
9477.00,214.67
9480.00,216.32
9483.00,223.52
9487.00,219.17
9490.00,214.44
9493.00,218.10
9496.00,221.05
9500.00,217.11
9503.00,214.81
9509.00,222.15
9512.00,217.99
9515.00,211.98
9519.00,227.16
9522.00,223.40
9525.00,216.95
9528.00,214.53
9532.00,227.34
9535.00,223.57
9538.00,218.67
9541.00,219.31
9545.00,228.54
9548.00,224.90
9551.00,219.96
9554.00,219.17
9558.00,231.19
9561.00,226.11
9564.00,221.23
9567.00,227.22
9571.00,229.05
9574.00,226.94
9577.00,221.20
9580.00,226.28
9584.00,233.01
9587.00,227.82
9590.00,224.15
9593.00,233.39
9596.00,232.01
9600.00,230.38
9603.00,222.93
9606.00,232.45
9609.00,235.12
9616.00,227.03
9619.00,229.93
9622.00,236.44
9625.00,234.10
9628.00,229.37
9632.00,235.92
9635.00,238.87
9638.00,234.58
9641.00,232.29
9645.00,233.45
9648.00,240.02
9651.00,238.32
9654.00,234.66
9658.00,238.96
9661.00,244.07
9664.00,239.45
9667.00,236.03
9671.00,234.71
9674.00,244.71
9677.00,245.62
9680.00,238.36
9684.00,239.18
9687.00,250.28
9690.00,247.33
9693.00,240.41
9697.00,236.70
9700.00,251.70
9703.00,250.42
9706.00,240.79
9710.00,237.99
9713.00,251.11
9716.00,252.66
9722.00,243.58
9725.00,252.96
9729.00,254.37
9732.00,253.95
9735.00,244.78
9738.00,245.63
9742.00,258.12
9745.00,254.97
9748.00,247.01
9751.00,243.48
9755.00,258.41
9758.00,259.69
9761.00,249.74
9764.00,243.37
9768.00,258.94
9771.00,261.81
9774.00,259.44
9777.00,246.06
9781.00,247.05
9784.00,263.74
9787.00,263.37
9790.00,251.98
9794.00,246.70
9797.00,258.03
9800.00,264.08
9803.00,255.83
9806.00,250.30
9810.00,248.06
9813.00,265.43
9816.00,263.77
9819.00,251.28
9823.00,246.80
9829.00,266.14
9832.00,259.26
9835.00,253.29
9838.00,251.84
9842.00,262.66
9845.00,258.70
9848.00,258.44
9851.00,254.36
9855.00,253.69
9858.00,264.64
9861.00,256.33
9864.00,258.15
9868.00,253.69
9871.00,255.71
9874.00,257.24
9877.00,261.95
9881.00,261.11
9884.00,254.98
9887.00,258.04
9890.00,256.71
9894.00,264.91
9897.00,264.02
9900.00,258.98
9903.00,262.27
9907.00,263.00
9910.00,267.91
9913.00,263.95
9916.00,261.07
9920.00,268.41
9923.00,266.56
9926.00,272.44
9929.00,272.64
9936.00,274.90
9939.00,275.01
9942.00,278.81
9945.00,279.23
9949.00,270.04
9952.00,277.18
9955.00,285.45
9958.00,288.68
9962.00,287.78
9965.00,281.46
9968.00,280.09
9971.00,296.06
9975.00,295.94
9978.00,295.51
9981.00,293.31
9984.00,289.90
9988.00,300.40
9991.00,301.70
9994.00,304.59
9997.00,303.93
10000.00,296.23
10004.00,299.35
10007.00,310.49
10010.00,313.82
10013.00,311.46
10017.00,308.24
10020.00,305.67
10023.00,320.91
10026.00,320.82
10030.00,319.70
10033.00,318.50
10036.00,312.43
10042.00,327.48
10046.00,330.36
10049.00,327.49
10052.00,322.11
10055.00,323.27
10058.00,338.18
10062.00,336.84
10065.00,334.64
10068.00,330.49
10071.00,326.71
10075.00,332.91
10078.00,343.28
10081.00,343.99
10084.00,342.56
10088.00,335.02
10091.00,336.75
10094.00,348.19
10097.00,349.69
10101.00,350.20
10104.00,348.86
10107.00,341.82
10110.00,342.24
10114.00,352.01
10117.00,352.62
10120.00,352.57
10123.00,349.41
10127.00,350.35
10130.00,348.28
10133.00,352.58
10136.00,352.62
10143.00,352.32
10146.00,352.25
10149.00,351.49
10152.00,352.62
10156.00,352.62
10159.00,352.62
10162.00,351.10
10165.00,352.62
10169.00,352.62
10172.00,352.62
10175.00,352.62
10178.00,352.38
10181.00,352.05
10185.00,352.62
10188.00,352.62
10191.00,352.62
10194.00,352.62
10198.00,352.35
10201.00,351.76
10204.00,352.62
10207.00,352.62
10211.00,352.62
10214.00,352.62
10217.00,352.62
10220.00,352.55
10224.00,352.62
10227.00,352.62
10230.00,352.62
10233.00,352.62
10237.00,352.62
10243.00,352.30
10246.00,352.60
10249.00,352.62
10252.00,352.62
10256.00,352.55
10259.00,347.51
10262.00,351.07
10265.00,352.60
10269.00,352.62
10272.00,352.39
10275.00,347.79
10278.00,343.17
10282.00,344.35
10285.00,350.28
10288.00,351.03
10291.00,344.18
10295.00,339.61
10298.00,332.37
10301.00,335.64
10304.00,340.46
