:020000020000FC
:1000000016C0B9C0189518950994B5C092C0189536
:100010009AC018951895CFC01895189518951895E9
:100020001895C9C01895697A40744042405B002415
:100030000FBEF4E0EFE5FEBFEDBF0292E036F00543
:1000400009F4EEE1E015F005C1F791B69092600079
:1000500094B604BE80E088BB81E087BB80E085BBAE
:1000600088E384BB80E082BB80E381BB82E083BF06
:1000700081E08EBDF5BD88E181BD88E081BDCAD03B
:10008000D9D0A2E89E918E9189569A4729F0E6E24E
:1000900085918D93A838E1F790FA9F1226F48BD0C2
:1000A0008FD093D08AC292FE04C08FD084D00068D3
:1000B00084C291FE02C08ED080C293FE05C07BD068
:1000C0007AD083D082D0FBCFA4D0492D58E040FF16
:1000D00077D040FD7FD09ED046955A95C1F7F4CF9A
:1000E0009FB68A9409F4ECE79FBE18959FB68A9450
:1000F00009F4EAE89FBE189520FD959A21FDAC9A77
:1001000022FDC09AEAE83F12E6E7832C24BC18954A
:10011000A8951895A89511FDEFCFECE75F12E0E7E1
:10012000852C20FD959821FDAC9822FDC09844BCFB
:1001300018959FB640916300415008F40E7F40939C
:1001400063009FBE18959FB640916400439540930D
:1001500064004F7019F4BB2019F0BA949FBE189533
:10016000409165004395409365004091660043953A
:1001700040936600F3CF4CB55DB5829B0DC09FB632
:100180005A5659BD48BD42E045BF48E048BF9FBEF2
:1001900018959FB6BB240BC098B693FCFACF9FB6B8
:1001A0003A0148B559B55659641A750A106143E0C9
:1001B00045BF9FBE189578EC90E5AD9A959A0EC014
:1001C00074EB94E6AB9AAC9A09C070EA98E7949AFB
:1001D000C09A04C07CE89CE8AB9A959A08B215B224
:1001E000A2B208BA15BAA2BAF2BF82B78032E8F357
:1001F0009598AC98C0989498AD98AB9860E1F2BF90
:10020000A89582B78717E8F36A95C9F79A9549F7D1
:10021000089500D000D000D09FE060E1F2BF81E0FF
:1002200088BFA89588B780FFFDCF6A95B9F79A95E2
:10023000A1F708958091600081BFC0E8D0E080E818
:1002400090E0A895E199FDCF67B760FDFACFC83877
:1002500081F09FBB8EBB0196E09A6DB317F0699356
:10026000F0CF79917DBBF894E29A6713E19A789484
:10027000E8CFD2DF8FEF81BF0895000C111CAA1CBC
:100280008A95D9F70895869FA12C969FA00CC11D31
:10029000DF1F879FA00CC11DDF1F979FC00DD11DC1
:1002A00008951F7EC2E8D0E007FD42C001C0B1DF63
:1002B000B301A895FF9FAA24C23831F4603C87E6B9
:1002C0007807B0F18FE113C08091820068178091A8
:1002D0008300780768F7C43811F482E208C080917F
:1002E0008400681780918500780710F380E2882EDB
:1002F000A89514FFFDCF1F7EC301080E191EAF1E67
:10030000861B970B80569F4F8154914080F68A94AC
:1003100079F783E0B2DF1992A99257DFC43841F22E
:100320007BDF53DFC63821F277DF4FDF83DF32C058
:100330001F76C0917C00D0917D00C3018C1B9D0B6A
:1003400060F41068909581959F4F60917A0070914C
:100350007B0007C0CC27DD2710C06091780070912A
:10036000790080529340B2F3CAE3D0E08CDFC93504
:1003700083E0D80710F0C9E5D3E0C0937600D093AE
:10038000770001FF03C082E0B82E92C080E1B8166A
:10039000BF1E0895809186009091870080937C0015
:1003A00090937D006091820070918300681B790BAF
:1003B00014D08093780090937900609186007091BA
:1003C00087008091840090918500681B790B05D08F
:1003D00080937A0090937B0008956052734085E586
:1003E00095E00196A8959F3F890721F0C0EEDCEFCC
:1003F0004ADFB9F70895F8948CB59DB56091640013
:1004000078B77894903872FD6F1FC0916700D091D3
:100410006800A090690080936700909368006093E3
:10042000690000906A0010906B0070916C00C0939E
:100430006A00D0936B00A0926C0080199109670B41
:10044000803077E097076F0728F480E097E060E05E
:10045000D694C7946130A9E5B3E058F06230ADEAB4
:10046000B1E038F0643018F064E090E080E0A6ED90
:10047000B0E07D0180936D0090936E0060936F00FB
:10048000669597958795C0916700D0916800A09078
:10049000690073E32DD0C0937000D0937100A092D7
:1004A000720041D014FD44CFC0917600D091770006
:1004B000CE15DF0508F0E701CC15DD0508F0E601F3
:1004C00089E593E08C1B9D0B79F01D7F209671F0E0
:1004D00016FF04C0880F991FCC0FDD1F1E7FC0952B
:1004E00080951E012C0108951260F8CF1160F7CF9E
:1004F000879FC10DDF1FAF1E979FC00DD11DAF1E7F
:10050000679FD00DA11C089580916D0090916E00A1
:1005100060916F00C0917000D0917100A090720046
:100520000895F2DFE5DF79B7072E7B7E79BF70E1B2
:10053000F894DBBDCABD78BF8CB59DB578940160D9
:100540006091640078B7903872FD6F1FC81BD90B9B
:10055000A60AA09263000AF40E7F09BE08952796AA
:1005600070E1F8948CB59DB5C80FD91FDBBDCABD2D
:1005700078BFA092630001607894089514FDD8DEDE
:1005800000FDFCCF0895F5BD80E488BFE8E89498AD
:10059000AD98AB989598AC98C0980895829BF093CD
:1005A00065008091650085FF0895F894F7BBF4BB62
:1005B000F1BB88E181BDF1BD23CBECDE84E588BFD2
:1005C00089BF83E085BF80E48BBF7894BB24137E12
:1005D000F0936500F0936600A89514FD02C0DEDF7D
:1005E000FBCF5FDEC0917600D0917700209671F747
:1005F0008AE0B81688F3812F8C7009F0FBBFEADD22
:10060000E9DDE8DDC0DF0D7FF0936500F093660063
:10061000A89514FD0DC0BB20D9F7C0DF80916600FE
:100620008837B1F78CE380936600ADDFCEDDF0CF85
:100630007FDE209649F3BB2039F3A5DF80B78860C1
:1006400080BF3798CFE8D0E06E010260A9D082E089
:10065000B82E86E0809362008CE08093610081E098
:1006600085BD17FD3AC0A2D087E087B9AD9810FFCD
:10067000949A9AD080E087B9F894287F10FF22607E
:1006800088B3C09898B38913AC9A78948FD086E0D9
:1006900087B9949810FFAB9A87D087E087B9F89410
:1006A000287F10FF216085B3AC9895B38913959A84
:1006B00078947CD080E087B9AB9810FFAD9A74D065
:1006C00086E087B9F894287F10FF246082B395985C
:1006D00092B38913C09A789439C066D080E087B904
:1006E000F894287F10FF216088B3C09898B38913CD
:1006F000959A78945BD087E087B9AD9810FFAB9A54
:1007000053D086E087B9F894287F10FF226082B327
:10071000959892B38913AC9A789448D080E087B9C1
:10072000AB9810FF949A40D087E087B9F894287F5F
:1007300010FF246085B3AC9895B38913C09A789460
:1007400035D086E087B9949810FFAD9A809161000A
:10075000803010FDF1F0E6012096E1F0809161001B
:100760008C3038F4839580936100629686ED90E03A
:1007700004C01F7B6B9689E593E0C817D90710F07A
:100780006C016FCF6E016DCFFEDE46DD1EDD18DD24
:1007900043DD38CF52CFE8E89598AC98C0985EC05A
:1007A000F093610010645AC01F7D01C010628091F7
:1007B0006200815050F08093620016FF29C0C0E0B3
:1007C000DFEFAF2ECCDEA4E03BC0E83809F4EAE866
:1007D00016FF1EC0C0917300D0917400A0907500E8
:1007E00072B77F71D71BAF0A30F0C0307AECD707F1
:1007F00078E0A70620F4C0E0D8EB7BE0A72EC093FA
:100800007300D0937400A0927500A9DEAFEF18C0FA
:100810007BE187DEB3DE79E584DE00FFBCCF14FD2B
:1008200087DD68B1612765FDF8CF6EDEA92F6F13F4
:10083000AFEFC80FD91FA61EC80FD91FA61E73DEA3
:10084000BA2F00FFADCF14FD73DD68B1612765FDE0
:1008500003C0AB17AF1FF5CFAA9599F7CCDD16FFF4
:100860008DDE809162008F131160BF1208958F9109
:040870008F918ACF0B
:101C0000E4E0FFE5FEBFEDBF00E0ECEBFEE0C0E886
:101C1000D0E0A0E6B0E042E045BD5CEE539571F047
:101C200040EC04BD48BFA03619F0E8B6E6FC46C05B
:101C30008299F9CF04BD48BFE8B6E6FCE1C1829BBA
:101C4000FBCF04BD48BFE8B6E6FCE8CF8299FBCFE6
:101C500034B404BD48BFE8B6E6FCD2C1829BFBCFDA
:101C600024B4022C030C802C07940694402C069478
:101C70008008809420943094409460EE83E084BC8B
:101C800048BFE8B6E6FCBCC1829BFBCF84BC48BF22
:101C9000E8B6E6FCC3CF8299FBCF0894E8B6E6FC31
:101CA00023C0829BFBCFE8B6E6FCB8CF8299FBCF7E
:101CB0008894E8B6E6FC18C0829BFBCF43BC87E162
:101CC000929A8A9A34BC48BFE8B6E6FEFDCF929855
:101CD00024BC48BFE8B6E6FEFDCF8A9589F7C0E68A
:101CE000D0E060E081E00BC0679548F6815068F570
:101CF0005CEE0994CA17DB07D1F0699188E066951C
:101D0000929A34BC48BFE8B610F0E7FC02BBE6FE8E
:101D1000FACF929808F0929A24BC48BFE8B610F027
:101D2000E7FC02BBE6FEFACF8A9549F7E3CF929A29
:101D300034BC48BFC0E8D0E0A0E6B0E0E8B6E7FEBB
:101D4000FDCF8A9802BB6ACF80E060E898CFECEBC9
:101D5000FEE0C0E8D0E0F8CF009000000090000066
:101D60000090000000900000009000000090000033
:101D70000090000000900000000000006B3121F78F
:101D8000562E3796E1CF962E56263496DDCF762EF8
:101D900056263496D9CF662E56263496D5CF6E3039
:101DA000B1F656263596D0CF69935626CF3584E0C6
:101DB000D80768F681E0681A700A09F43C96C4CF27
:101DC0006511C5CFC0E8D0E0699199918991FD0175
:101DD0007BE170839182028372E073837EE074837F
:101DE0006583068317966130A1F48BE0838388E0D6
:101DF0008D93EF01ECEDFFE185918D93E43EE1F7EA
:101E0000FE01819161918627EA17FB07D9F78D932F
:101E10009ECF6D3151F5792F90E0039683839283A5
:101E200003970D938A95E9F789916991603380074B
:101E300094E0790779F460878991803059F4699149
:101E400060308EE131F0613083E919F0623087E073
:101E500009F482870D93D5CF8017900709F5D990A3
:101E6000C9905601AA0CBB1CCCCF6330E1F06230A4
:101E700041F2603131F2613121F2663069F3623151
:101E8000F1F1833F73E0970758F4643109F166314B
:101E900069F127966531C1F16331F9F10000000065
:101EA00080EC8683AECF90398FE071F0913982E07B
:101EB00059F092398AE041F0943982E329F0903860
:101EC00080E011F0913861F78D9383E0838399CF9F
:101ED00049D0EF01F5018FD076FDFDCF65916D936F
:101EE0000197E1F75F01FE010D938BCF3BD011E02D
:101EF0003ED06DB36D930197D9F70D9382CFCC246B
:101F0000DD2480E092E0689416E06FEF0EF06991B6
:101F10002ED00197D1F7E89474CF8F7F61E07F01D5
:101F2000F5010990199068D032960297D1F70F0108
:101F3000F501500163E0E03C7FE1F70719F058D06C
:101F4000F7015FCF0BD065E009D061E107D0F8CF92
:101F500077B770FDFDCFE199FECF0895F9DF67BF38
:101F6000E8950895039692838383039708953AD062
:101F7000DFBACEBA0894C01ED01E762FE09A6DB399
:0E1F8000671312FF08957DBBE29A1CBB089503
:101FC000687474703A2F2F6769746875622E636F36
:101FD0006D2F73696D2D2F7467792F00415652490B
:101FE00053505F3277B770FDFDCFE199FECF089572
:101FF00003D065E001D061E1F5DF67BFE8950895A2
:00000001FF
