17971.00,54.90
17974.00,54.88
17977.00,57.10
17980.00,63.34
17983.00,68.48
17987.00,73.49
17990.00,81.06
17993.00,85.53
17996.00,89.88
17999.00,96.37
18003.00,99.73
18006.00,103.09
18009.00,108.34
18012.00,111.66
18016.00,119.15
18019.00,123.74
18022.00,127.97
18025.00,133.73
18028.00,136.35
18032.00,139.82
18035.00,145.28
18038.00,149.89
18041.00,153.53
18045.00,158.54
18048.00,163.37
18051.00,170.08
18054.00,172.50
18057.00,175.42
18061.00,180.54
18064.00,183.65
18067.00,187.17
18073.00,195.92
18076.00,197.90
18080.00,202.99
18083.00,205.04
18086.00,209.12
18089.00,213.78
18093.00,216.74
18096.00,221.15
18099.00,226.35
18102.00,230.77
18106.00,235.64
18109.00,238.22
18112.00,240.56
18115.00,244.23
18118.00,245.09
18122.00,246.39
18125.00,247.63
18128.00,250.44
18131.00,253.06
18135.00,256.24
18138.00,259.90
18141.00,266.48
18144.00,270.68
18148.00,274.81
18151.00,278.45
18154.00,279.43
18157.00,279.27
18161.00,278.94
18164.00,278.32
18167.00,280.19
18173.00,285.81
18176.00,289.53
18180.00,295.32
18183.00,297.41
18186.00,299.62
18189.00,299.83
18193.00,298.89
18196.00,299.86
18199.00,300.84
18202.00,303.79
18206.00,306.80
18209.00,308.85
18212.00,310.62
18215.00,310.78
18219.00,311.36
18222.00,313.71
18225.00,315.69
18228.00,317.96
18231.00,316.94
18235.00,315.71
18238.00,313.52
18241.00,313.51
18245.00,314.22
18248.00,318.59
18251.00,321.12
18254.00,324.80
18257.00,323.66
18261.00,321.15
18264.00,320.17
18267.00,322.21
18273.00,327.60
18277.00,323.86
18280.00,320.27
18283.00,316.46
18286.00,316.19
18290.00,322.40
18293.00,331.74
18296.00,327.03
18299.00,321.55
18303.00,320.13
18306.00,319.55
18309.00,321.91
18312.00,334.93
18316.00,322.13
18319.00,319.38
18322.00,319.09
18325.00,311.38
18328.00,312.32
18332.00,332.58
18335.00,326.06
18338.00,326.15
18341.00,318.32
18345.00,300.37
18348.00,305.19
18351.00,331.23
18354.00,322.39
18358.00,321.18
18361.00,313.30
18364.00,291.82
18367.00,304.01
18374.00,322.22
18377.00,315.55
18380.00,308.37
18383.00,300.70
18387.00,309.66
18390.00,312.76
18393.00,312.07
18396.00,303.95
18400.00,300.36
18403.00,307.83
18406.00,308.84
18409.00,310.80
18413.00,299.50
18416.00,301.79
18419.00,304.97
18422.00,306.38
18426.00,303.89
18429.00,299.74
18432.00,301.48
18435.00,302.87
18439.00,300.79
18442.00,292.66
18445.00,303.46
18448.00,295.69
18452.00,297.16
18455.00,288.34
18458.00,288.84
18461.00,294.07
18465.00,292.54
18468.00,292.16
18474.00,299.10
18477.00,294.62
18480.00,286.44
18484.00,279.66
18487.00,284.68
18490.00,296.09
18493.00,288.32
18497.00,279.45
18500.00,281.46
18503.00,297.83
18506.00,286.17
18510.00,275.12
18513.00,272.71
18516.00,296.96
18519.00,297.03
18523.00,274.31
18526.00,273.50
18529.00,289.44
18532.00,295.58
18536.00,279.43
18539.00,277.66
18542.00,291.78
18545.00,297.63
18549.00,281.33
18552.00,287.69
18555.00,294.87
18558.00,294.66
18562.00,283.64
18565.00,295.49
18568.00,299.31
18574.00,286.21
18578.00,300.78
18581.00,304.26
18584.00,297.90
18587.00,289.01
18591.00,305.60
18594.00,307.63
18597.00,303.02
18600.00,295.77
18604.00,314.07
18607.00,313.52
18610.00,304.58
18613.00,305.09
18616.00,317.86
18620.00,314.03
18623.00,308.94
18626.00,323.17
18629.00,325.92
18633.00,318.13
18636.00,319.25
18639.00,329.97
18642.00,330.48
18646.00,321.71
18649.00,336.02
18652.00,339.00
18655.00,331.33
18659.00,326.91
18662.00,344.94
18665.00,343.53
18668.00,336.17
18675.00,354.33
18678.00,347.42
18681.00,349.87
18684.00,356.59
18687.00,356.56
18691.00,351.34
18694.00,356.62
18697.00,356.62
18700.00,356.62
18704.00,356.57
18707.00,356.62
18710.00,356.62
18713.00,356.62
18717.00,356.62
18720.00,356.62
18723.00,356.62
18726.00,356.62
18730.00,356.62
18733.00,356.62
18736.00,356.62
18739.00,356.62
18743.00,356.62
18746.00,356.62
18749.00,356.62
18752.00,356.62
18756.00,356.62
18759.00,356.62
18762.00,356.62
18765.00,356.62
18769.00,356.62
18775.00,356.62
18778.00,356.62
18781.00,356.62
18784.00,356.62
18788.00,356.62
18791.00,356.62
18794.00,356.62
18797.00,356.62
18800.00,356.62
18804.00,356.62
18807.00,356.62
18810.00,356.62
18813.00,356.62
18817.00,356.62
18820.00,356.62
18823.00,356.62
18826.00,356.62
18830.00,356.62
18833.00,356.62
18836.00,356.62
18839.00,356.62
18842.00,356.62
18846.00,356.62
18849.00,356.62
18852.00,356.62
18855.00,356.62
18859.00,356.62
18862.00,356.62
18865.00,356.62
18868.00,356.62
18872.00,356.62
18878.00,356.62
18881.00,356.62
18884.00,356.62
18887.00,356.62
18891.00,356.62
18894.00,356.62
18897.00,356.62
18900.00,356.62
18904.00,356.62
18907.00,356.62
18910.00,356.62
18913.00,356.62
18917.00,356.62
18920.00,356.62
18923.00,356.62
18926.00,356.62
18930.00,356.62
18933.00,356.62
18936.00,356.62
18940.00,356.62
18943.00,356.62
18946.00,356.62
18949.00,356.62
18953.00,356.62
18956.00,356.62
18959.00,356.62
18962.00,356.62
18966.00,356.62
18969.00,356.62
18972.00,356.62
18978.00,356.62
18982.00,356.62
18985.00,356.62
18988.00,356.62
18991.00,356.62
18995.00,356.62
18998.00,356.62
19001.00,356.62
19004.00,356.62
19008.00,356.62
19011.00,356.62
19014.00,356.62
19017.00,356.62
19021.00,356.62
19024.00,356.62
19027.00,356.62
19030.00,356.62
19034.00,356.62
19037.00,356.62
19040.00,356.62
19043.00,356.62
19047.00,356.62
19050.00,356.62
19053.00,356.62
19056.00,356.62
19060.00,356.62
19063.00,356.62
19066.00,356.62
19069.00,356.62
19073.00,356.62
19079.00,356.62
19082.00,356.62
19085.00,356.62
19088.00,356.62
19092.00,356.62
19095.00,356.62
19098.00,356.62
19101.00,356.62
19105.00,356.62
19108.00,356.62
19111.00,356.62
19114.00,356.62
19117.00,356.62
19121.00,356.62
19124.00,356.62
19127.00,356.62
19130.00,356.62
19134.00,356.62
19137.00,356.62
19140.00,356.62
19143.00,356.62
19147.00,356.62
19150.00,356.62
19153.00,356.62
19156.00,356.62
19160.00,356.62
19163.00,356.62
19166.00,356.62
19169.00,356.62
19173.00,356.62
19179.00,356.62
19182.00,356.62
19185.00,356.62
19189.00,356.62
19192.00,356.62
19195.00,356.62
19198.00,356.62
19202.00,356.62
19205.00,356.62
19208.00,356.62
19211.00,356.62
19215.00,356.62
19218.00,356.62
19221.00,356.62
19225.00,356.62
19228.00,356.62
19231.00,356.62
19234.00,356.62
19238.00,356.62
19241.00,356.62
19244.00,356.62
19247.00,356.62
19251.00,356.62
19254.00,356.62
19257.00,356.62
19260.00,356.62
19264.00,356.62
19267.00,356.62
19270.00,356.62
19273.00,356.62
19279.00,356.62
19283.00,356.62
19286.00,356.62
19289.00,356.62
19292.00,356.62
19296.00,356.62
19299.00,356.62
19302.00,356.62
19306.00,356.62
19309.00,356.62
19312.00,356.62
19315.00,356.62
19319.00,356.62
19322.00,356.62
19325.00,356.62
19328.00,356.62
19332.00,356.62
19335.00,356.62
19338.00,356.62
19341.00,356.62
19345.00,356.62
19348.00,356.62
19351.00,356.62
19354.00,356.62
19357.00,356.62
19361.00,356.62
19364.00,356.62
19367.00,356.62
19370.00,356.62
19374.00,356.62
19380.00,356.62
19383.00,356.62
19386.00,356.62
19390.00,356.62
19393.00,356.62
19396.00,356.62
19399.00,356.62
19402.00,356.62
19406.00,356.62
19409.00,356.62
19412.00,356.62
19415.00,356.62
19419.00,356.62
19422.00,356.62
19425.00,356.62
19428.00,356.62
19432.00,356.62
19435.00,356.62
19438.00,356.62
19441.00,356.62
19445.00,356.62
19448.00,356.62
19451.00,356.62
19454.00,356.62
19458.00,356.62
19461.00,356.62
19464.00,356.62
19467.00,356.62
19471.00,356.62
19474.00,356.62
19480.00,356.62
19483.00,356.62
19487.00,356.62
19490.00,356.62
19493.00,356.62
19496.00,356.62
19500.00,356.62
19503.00,356.62
19506.00,356.62
19509.00,356.62
19513.00,356.62
19516.00,356.62
19519.00,356.62
19522.00,356.62
19526.00,356.62
19529.00,356.62
19532.00,356.62
19535.00,356.62
19539.00,356.62
19542.00,356.62
19545.00,356.62
19548.00,356.62
19552.00,356.62
19555.00,356.62
19558.00,356.62
19561.00,356.62
19565.00,356.62
19568.00,356.62
19571.00,356.62
19574.00,356.62
19581.00,356.62
19584.00,356.62
19587.00,356.62
19590.00,356.62
19594.00,356.62
19597.00,356.62
19600.00,356.62
19603.00,356.62
19607.00,356.62
19610.00,356.62
19613.00,356.62
19616.00,356.62
19619.00,356.62
19623.00,356.62
19626.00,356.62
19629.00,356.62
19632.00,356.62
19636.00,356.62
19639.00,356.62
19642.00,356.62
19645.00,356.62
19649.00,356.62
19652.00,356.62
19655.00,356.62
19659.00,356.62
19662.00,356.62
19665.00,356.62
19668.00,356.62
19672.00,356.62
19675.00,356.62
19678.00,356.62
19684.00,356.62
19687.00,356.62
19691.00,356.62
19694.00,356.62
19697.00,356.62
19700.00,356.62
19704.00,356.62
19707.00,356.62
19710.00,356.62
19714.00,356.62
19717.00,356.62
19720.00,356.62
19723.00,356.62
19727.00,356.62
19730.00,356.62
19733.00,356.62
19736.00,356.62
19740.00,356.62
19743.00,356.62
19746.00,356.62
19749.00,356.62
19753.00,356.62
19756.00,356.62
19759.00,356.62
19762.00,356.62
19766.00,356.62
19769.00,356.62
19772.00,356.62
19775.00,356.62
19779.00,356.62
19785.00,356.62
19788.00,356.62
19791.00,356.62
19795.00,356.62
19798.00,356.62
19801.00,356.62
19804.00,356.62
19808.00,356.62
19811.00,356.62
19814.00,356.62
19817.00,356.62
19821.00,356.62
19824.00,356.62
19827.00,356.62
19830.00,356.62
19833.00,356.62
19837.00,356.62
19840.00,356.62
19843.00,356.62
19846.00,356.62
19850.00,356.62
19853.00,356.62
19856.00,356.62
19859.00,356.62
19863.00,356.62
19866.00,356.62
19869.00,356.62
19872.00,356.62
19875.00,356.62
19879.00,356.62
19885.00,356.62
19888.00,356.62
19891.00,356.62
19895.00,356.62
19898.00,356.62
19901.00,356.62
19904.00,356.62
19908.00,356.62
19911.00,356.62
19914.00,356.62
19917.00,356.62
19921.00,356.62
19924.00,356.62
19927.00,356.62
19930.00,356.62
19934.00,356.62
19937.00,356.62
19940.00,356.62
19943.00,356.62
19947.00,356.62
19950.00,356.62
19953.00,356.62
19956.00,356.62
19960.00,356.62
19963.00,356.62
19966.00,356.62
19969.00,356.62
19973.00,356.62
19976.00,356.62
19979.00,356.62
19985.00,356.62
19989.00,356.62
19992.00,356.62
19995.00,356.62
19998.00,356.62
20002.00,356.62
20005.00,356.62
20008.00,356.62
20011.00,356.62
20015.00,356.62
20018.00,356.62
20021.00,356.62
20024.00,356.62
20028.00,356.62
20031.00,356.62
20034.00,356.62
20037.00,356.62
20041.00,356.62
20044.00,356.62
20047.00,356.62
20050.00,356.62
20054.00,356.62
20057.00,356.62
20060.00,356.62
20063.00,356.62
20066.00,356.62
20070.00,356.62
20073.00,356.62
20076.00,356.62
20079.00,356.62
20086.00,356.62
20089.00,356.62
20092.00,356.62
20095.00,356.62
20099.00,356.62
20102.00,356.62
20105.00,356.62
20108.00,356.62
20112.00,356.62
20115.00,356.62
20118.00,356.62
20121.00,356.62
20125.00,356.62
20128.00,356.62
20131.00,356.62
20134.00,356.62
20138.00,356.62
20141.00,356.62
20144.00,356.62
20147.00,356.62
20151.00,356.62
20154.00,356.62
20157.00,356.62
20160.00,356.62
20164.00,356.62
20167.00,356.62
20170.00,356.62
20173.00,356.62
20177.00,356.62
20180.00,356.62
20186.00,356.62
20189.00,356.62
20193.00,356.62
20196.00,356.62
20199.00,356.62
20203.00,356.62
20206.00,356.62
20209.00,356.62
20212.00,356.62
20216.00,356.62
20219.00,356.62
20222.00,356.62
20225.00,356.62
20229.00,356.62
20232.00,356.62
20235.00,356.62
20238.00,356.62
20242.00,356.62
20245.00,356.62
20248.00,356.62
20251.00,356.62
20255.00,356.62
20258.00,356.62
20261.00,356.62
20264.00,356.62
20268.00,356.62
20271.00,356.62
20274.00,356.62
20277.00,356.62
20281.00,356.62
20287.00,356.62
20290.00,356.62
20293.00,356.62
20296.00,356.62
20300.00,356.62
20303.00,356.62
20306.00,356.62
20309.00,356.62
20313.00,356.62
20316.00,356.62
20319.00,356.62
20322.00,356.62
20326.00,356.62
20329.00,356.62
20332.00,356.62
20335.00,356.62
20339.00,356.62
20342.00,356.62
20345.00,356.62
20348.00,356.62
20352.00,356.62
20355.00,356.62
20358.00,356.62
20361.00,356.62
20364.00,356.62
20368.00,356.62
20371.00,356.62
20374.00,356.62
20377.00,356.62
20381.00,356.62
20387.00,356.62
20390.00,356.62
20393.00,356.62
20397.00,356.62
20400.00,356.62
20403.00,356.62
20406.00,356.62
20409.00,356.62
20413.00,356.62
20416.00,356.62
20419.00,356.62
20422.00,356.62
20426.00,356.62
20429.00,356.62
20432.00,356.62
20435.00,356.62
20439.00,356.62
20442.00,356.62
20445.00,356.62
20448.00,356.62
20452.00,356.62
20455.00,356.62
20458.00,356.62
20461.00,356.62
20465.00,356.62
20468.00,356.62
20471.00,356.62
20474.00,356.62
20478.00,356.62
20481.00,356.62
20487.00,356.62
20490.00,356.62
20494.00,356.62
20497.00,356.62
20500.00,356.62
20503.00,356.62
20507.00,356.62
20510.00,356.62
20513.00,356.62
20516.00,356.62
20520.00,356.62
20523.00,356.62
20526.00,356.62
20529.00,356.62
20533.00,356.62
20536.00,356.62
20539.00,356.62
20542.00,356.62
20546.00,356.62
20549.00,356.62
20552.00,356.62
20555.00,356.62
20559.00,356.62
20562.00,356.62
20565.00,356.62
20568.00,356.62
20572.00,356.62
20575.00,356.62
20578.00,356.62
20581.00,356.62
20585.00,356.62
20591.00,356.62
20594.00,356.62
20597.00,356.62
20601.00,356.62
20604.00,356.62
20607.00,356.62
20610.00,356.62
20614.00,356.62
20617.00,356.62
20620.00,356.62
20623.00,356.62
20627.00,356.62
20630.00,356.62
20633.00,356.62
20636.00,356.62
20640.00,356.62
20643.00,356.62
20646.00,356.62
20649.00,356.62
20653.00,356.62
20656.00,356.62
20659.00,356.62
20662.00,356.62
20665.00,356.62
20669.00,356.62
20672.00,356.62
20675.00,356.62
20678.00,356.62
20682.00,356.62
20685.00,356.62
20691.00,356.62
20694.00,356.62
20698.00,356.62
20701.00,356.62
20704.00,356.62
20707.00,356.62
20710.00,356.62
20714.00,356.62
20717.00,356.62
20720.00,356.62
20723.00,356.62
20727.00,356.62
20730.00,356.62
20733.00,356.62
20736.00,356.62
20740.00,356.62
20743.00,356.62
20746.00,356.62
20749.00,356.62
20753.00,356.62
20756.00,356.62
20759.00,356.62
20762.00,356.62
20766.00,356.62
20769.00,356.62
20772.00,356.62
20775.00,356.62
20779.00,356.62
20782.00,356.62
20785.00,356.62
20791.00,356.62
20795.00,356.62
20798.00,356.62
20801.00,356.62
20804.00,356.62
20808.00,356.62
20811.00,356.62
20814.00,356.62
20817.00,356.62
20821.00,356.62
20824.00,356.62
20827.00,356.62
20830.00,356.62
20834.00,356.62
20837.00,356.62
20840.00,356.62
20843.00,356.62
20847.00,356.62
20850.00,356.62
20853.00,356.62
20856.00,356.62
20860.00,356.62
20863.00,356.62
20866.00,356.62
20869.00,356.62
20873.00,356.62
20876.00,356.62
20879.00,356.62
20882.00,356.62
20886.00,356.62
20892.00,356.38
20895.00,353.91
20898.00,356.10
20901.00,351.67
20905.00,335.43
20908.00,346.12
20911.00,340.15
20914.00,328.10
20918.00,326.96
20921.00,329.84
20924.00,320.15
20927.00,311.64
20931.00,318.83
20934.00,313.68
20937.00,297.87
20940.00,306.99
20944.00,304.91
20947.00,292.37
20950.00,283.00
20953.00,293.34
20957.00,287.23
20960.00,276.17
20963.00,283.42
20966.00,279.99
20970.00,266.11
20973.00,262.71
20976.00,271.05
20979.00,261.30
20983.00,251.55
20986.00,258.82
20992.00,246.55
20995.00,236.03
20999.00,248.39
21002.00,242.74
21005.00,226.87
21008.00,239.58
21012.00,237.56
21015.00,225.54
21018.00,216.53
21021.00,228.88
21025.00,223.39
21028.00,212.89
21031.00,220.96
21034.00,218.22
21038.00,211.89
21041.00,197.69
21044.00,212.16
21047.00,203.98
21051.00,195.22
21054.00,189.44
21057.00,200.95
21060.00,194.72
21064.00,185.13
21067.00,194.58
21070.00,191.18
21073.00,178.26
21077.00,170.96
21080.00,185.84
21083.00,177.57
21086.00,169.61
21093.00,175.13
21096.00,168.58
21099.00,159.87
21102.00,169.16
21105.00,166.52
21109.00,152.99
21112.00,145.66
21115.00,161.90
21118.00,155.10
21122.00,145.97
21125.00,137.64
21128.00,152.38
21131.00,147.68
21135.00,133.95
21138.00,142.16
21141.00,144.72
21144.00,135.08
21148.00,126.03
21151.00,135.49
21154.00,135.34
21157.00,126.99
21161.00,116.57
21164.00,131.66
21167.00,128.03
21170.00,115.91
21174.00,109.26
21177.00,122.48
21180.00,117.43
21183.00,108.37
21187.00,113.74
21193.00,110.59
21196.00,98.49
21199.00,104.23
21203.00,109.18
21206.00,101.04
21209.00,92.53
21212.00,104.02
21216.00,101.54
21219.00,93.93
21222.00,81.53
21225.00,96.57
21229.00,94.98
21232.00,83.74
21235.00,76.12
21238.00,89.26
21241.00,86.61
21245.00,80.05
21248.00,67.14
21251.00,83.67
21254.00,80.29
21258.00,68.03
21261.00,61.29
21264.00,74.45
21267.00,70.90
21271.00,62.87
21274.00,52.77
21277.00,68.05
21280.00,64.67
21284.00,53.75
21287.00,47.57
21290.00,59.71
21293.00,56.29
21299.00,40.27
21303.00,53.25
21306.00,50.04
21309.00,40.36
21312.00,32.51
21316.00,41.20
21319.00,41.57
21322.00,35.98
21325.00,25.19
21329.00,35.10
21332.00,35.25
21335.00,27.35
21338.00,16.64
21342.00,17.60
21345.00,26.53
21348.00,22.18
21351.00,11.05
21355.00,8.71
21358.00,18.80
21361.00,13.76
21364.00,2.01
21367.00,-0.64
21371.00,9.48
21374.00,7.01
21377.00,2.29
21380.00,-9.59
21384.00,-8.53
21387.00,-3.23
21390.00,-4.94
21393.00,-19.63
21397.00,-21.05
21400.00,-10.81
21406.00,-30.50
21409.00,-28.36
21412.00,-29.82
21416.00,-25.99
21419.00,-27.34
21422.00,-43.50
21425.00,-43.30
21429.00,-32.04
21432.00,-38.54
21435.00,-56.54
21438.00,-53.10
21442.00,-48.19
21445.00,-47.17
21448.00,-55.81
21451.00,-66.41
21455.00,-68.51
21458.00,-55.11
21461.00,-68.75
21464.00,-75.34
21468.00,-82.62
21471.00,-82.00
21474.00,-72.16
21477.00,-87.73
21481.00,-90.94
21484.00,-99.23
21487.00,-95.64
21490.00,-96.96
21493.00,-102.37
21497.00,-105.78
21500.00,-112.10
21506.00,-118.34
21509.00,-116.60
21513.00,-126.90
21516.00,-127.45
21519.00,-123.99
21522.00,-133.46
21526.00,-133.07
21529.00,-141.59
21532.00,-143.96
21535.00,-139.51
21539.00,-147.81
21542.00,-149.11
21545.00,-164.16
21548.00,-162.32
21552.00,-156.46
21555.00,-162.68
21558.00,-165.72
21561.00,-170.93
21565.00,-179.48
21568.00,-175.71
21571.00,-178.69
21574.00,-182.79
21578.00,-187.86
21581.00,-197.53
21584.00,-198.47
21587.00,-194.51
21591.00,-200.51
21594.00,-205.54
21600.00,-216.59
21603.00,-210.25
21606.00,-215.31
21610.00,-216.79
21613.00,-216.79
21616.00,-216.79
21619.00,-216.79
21623.00,-216.79
21626.00,-216.79
21629.00,-216.79
21632.00,-216.79
21636.00,-216.79
21639.00,-216.79
21642.00,-216.79
21645.00,-216.79
21649.00,-216.79
21652.00,-216.79
21655.00,-216.79
21658.00,-216.79
21662.00,-216.79
21665.00,-216.79
21668.00,-216.79
21671.00,-216.79
21675.00,-216.79
21678.00,-216.79
21681.00,-216.79
21684.00,-216.79
21688.00,-216.79
21691.00,-216.79
21697.00,-216.79
21700.00,-216.79
21703.00,-216.79
21707.00,-216.79
21710.00,-216.79
21713.00,-216.79
21716.00,-216.79
21720.00,-216.79
21723.00,-216.79
21726.00,-216.79
21729.00,-216.79
21733.00,-216.79
21736.00,-216.79
21739.00,-216.79
21742.00,-216.79
21746.00,-216.79
21749.00,-216.79
21752.00,-216.79
21755.00,-216.79
21759.00,-216.79
21762.00,-216.79
21765.00,-216.79
21768.00,-216.79
21772.00,-216.79
21775.00,-216.79
21778.00,-216.79
21781.00,-216.79
21785.00,-216.79
21791.00,-216.79
21794.00,-216.79
21797.00,-216.79
21801.00,-216.79
21804.00,-216.79
21807.00,-216.79
21810.00,-216.79
21814.00,-216.79
21817.00,-216.79
21820.00,-216.79
21823.00,-216.79
21827.00,-216.79
21830.00,-216.79
21833.00,-216.79
21836.00,-216.79
21840.00,-216.79
21843.00,-216.79
21846.00,-216.79
21849.00,-216.79
21853.00,-216.79
21856.00,-216.79
21859.00,-216.79
21862.00,-216.79
21866.00,-216.79
21869.00,-216.79
21872.00,-216.79
21875.00,-216.79
21879.00,-216.79
21882.00,-216.79
21888.00,-216.79
21891.00,-216.79
21894.00,-216.79
21898.00,-216.79
21901.00,-216.79
21904.00,-216.79
21907.00,-216.79
21911.00,-216.79
21914.00,-216.79
21917.00,-216.79
21920.00,-216.79
21924.00,-216.79
21927.00,-216.79
21930.00,-216.79
21933.00,-216.79
21937.00,-216.79
21940.00,-216.79
21943.00,-216.79
21946.00,-216.79
21950.00,-216.79
21953.00,-216.79
21956.00,-216.79
21959.00,-216.79
21963.00,-216.79
21966.00,-216.79
21969.00,-216.79
21972.00,-216.79
