1827.00,64.29
1857.00,15.92
1860.00,12.56
1863.00,8.43
1867.00,3.46
1870.00,-2.63
1873.00,-10.26
1876.00,-14.39
1879.00,-17.47
1882.00,-21.88
1886.00,-26.01
1889.00,-30.35
1892.00,-37.77
1895.00,-41.97
1898.00,-44.42
1902.00,-50.16
1905.00,-54.78
1908.00,-58.77
1911.00,-63.74
1914.00,-67.73
1918.00,-72.56
1921.00,-78.86
1924.00,-83.27
1927.00,-89.50
1930.00,-91.67
1934.00,-95.73
1937.00,-101.96
1940.00,-105.60
1943.00,-108.54
1947.00,-112.67
1950.00,-116.24
1953.00,-120.51
1956.00,-124.08
2045.00,-214.52
2048.00,-218.37
2051.00,-224.46
2055.00,-226.84
2058.00,-229.01
2061.00,-230.76
2064.00,-231.32
2068.00,-231.04
2071.00,-232.30
2074.00,-233.84
2077.00,-237.48
2081.00,-241.05
2084.00,-244.48
2087.00,-247.91
2090.00,-249.10
2093.00,-250.01
2097.00,-252.46
2100.00,-252.11
2103.00,-254.49
2106.00,-256.52
2110.00,-257.71
2113.00,-260.30
2116.00,-261.42
2119.00,-264.64
2122.00,-265.48
2126.00,-267.58
2129.00,-268.98
2132.00,-270.94
2135.00,-271.36
2139.00,-273.95
2230.00,-300.90
2233.00,-303.56
2237.00,-305.66
2240.00,-295.30
2243.00,-295.09
2246.00,-298.80
2249.00,-309.02
2253.00,-306.85
2256.00,-295.51
2259.00,-297.68
2262.00,-306.57
2266.00,-316.86
2269.00,-310.00
2272.00,-301.74
2275.00,-308.32
2278.00,-317.07
2282.00,-322.18
2285.00,-307.34
2288.00,-304.54
2291.00,-318.19
2295.00,-324.28
2298.00,-322.67
2301.00,-306.22
2304.00,-311.75
2308.00,-341.99
2311.00,-330.16
2314.00,-316.30
2317.00,-307.41
2320.00,-324.35
2324.00,-335.13
2410.00,-350.67
2413.00,-347.80
2417.00,-363.48
2420.00,-365.86
2423.00,-359.49
2426.00,-362.15
2430.00,-371.11
2433.00,-372.58
2436.00,-367.40
2439.00,-371.74
2443.00,-379.51
2446.00,-377.76
2449.00,-373.42
2452.00,-387.70
2455.00,-389.87
2459.00,-384.62
2462.00,-386.16
2465.00,-396.31
2468.00,-397.15
2472.00,-392.04
2475.00,-396.80
2478.00,-405.83
2481.00,-402.75
2484.00,-401.98
2488.00,-413.81
2491.00,-413.88
2494.00,-411.64
2497.00,-416.54
2501.00,-422.77
2504.00,-422.07
2593.00,-530.01
2596.00,-538.06
2599.00,-538.34
2603.00,-543.80
2606.00,-553.67
2609.00,-553.74
2612.00,-557.52
2616.00,-568.30
2619.00,-571.31
2622.00,-573.62
2625.00,-584.12
2628.00,-586.78
2632.00,-587.76
2635.00,-601.97
2638.00,-602.11
2641.00,-603.65
2645.00,-617.86
2648.00,-618.70
2651.00,-620.24
2654.00,-632.70
2658.00,-634.52
2661.00,-638.51
2664.00,-647.26
2667.00,-649.92
2671.00,-654.05
2674.00,-662.66
2677.00,-664.20
2680.00,-668.33
2683.00,-676.94
2687.00,-676.59
2776.00,-748.83
2779.00,-744.70
2782.00,-753.94
2785.00,-747.64
2789.00,-747.99
2792.00,-753.73
2795.00,-745.68
2798.00,-747.43
2802.00,-749.46
2805.00,-745.19
2808.00,-752.05
2811.00,-745.82
2815.00,-745.96
2818.00,-750.58
2821.00,-742.88
2824.00,-745.89
2828.00,-746.31
2831.00,-740.50
2834.00,-748.20
2837.00,-740.15
2840.00,-740.78
2844.00,-744.21
2847.00,-736.93
2850.00,-741.41
2853.00,-738.33
2857.00,-736.30
2860.00,-742.95
2863.00,-732.80
2866.00,-737.14
2870.00,-734.76
2877.00,-739.03
2880.00,-729.79
2883.00,-736.51
2886.00,-732.17
2889.00,-725.80
2893.00,-736.72
2896.00,-727.83
2899.00,-730.07
2902.00,-731.33
2906.00,-722.93
2909.00,-735.18
2912.00,-725.24
2915.00,-728.04
2919.00,-729.79
2922.00,-722.51
2925.00,-735.04
2928.00,-723.56
2931.00,-726.01
2935.00,-733.78
2938.00,-720.76
2941.00,-733.29
2944.00,-722.44
2948.00,-726.29
2951.00,-733.22
2954.00,-719.71
2957.00,-736.30
2960.00,-728.25
2964.00,-729.72
2967.00,-734.83
2970.00,-723.98
2987.00,-726.78
2990.00,-743.30
2993.00,-728.32
2997.00,-741.41
3000.00,-737.91
3003.00,-733.92
3006.00,-750.58
3010.00,-736.58
3013.00,-755.20
3016.00,-745.05
3019.00,-739.87
3022.00,-757.37
3026.00,-744.77
3029.00,-768.01
3032.00,-753.59
3035.00,-753.45
3039.00,-765.21
3042.00,-756.60
3045.00,-792.30
3048.00,-763.60
3052.00,-771.09
3055.00,-775.29
3058.00,-774.03
3061.00,-789.99
3065.00,-780.19
3068.00,-792.30
3071.00,-776.13
3074.00,-791.46
3077.00,-808.12
3081.00,-795.52
3087.00,-802.38
3090.00,-803.50
3093.00,-818.62
3097.00,-809.17
3100.00,-828.70
3103.00,-814.91
3106.00,-823.73
3109.00,-823.52
3113.00,-825.69
3116.00,-845.29
3119.00,-830.80
3122.00,-844.17
3126.00,-836.89
3129.00,-844.17
3132.00,-855.58
3135.00,-844.87
3139.00,-860.69
3142.00,-847.67
3145.00,-859.99
3148.00,-855.30
3151.00,-853.62
3155.00,-866.64
3158.00,-856.77
3161.00,-871.05
3164.00,-858.24
3168.00,-864.19
3171.00,-862.58
3174.00,-861.46
3177.00,-873.29
3180.00,-861.39
3184.00,-872.10
3190.00,-867.41
3193.00,-869.44
3196.00,-858.94
3199.00,-873.36
3203.00,-858.45
3206.00,-881.83
3209.00,-857.96
3212.00,-857.82
3216.00,-859.22
3219.00,-852.85
3222.00,-865.24
3225.00,-849.91
3229.00,-858.17
3232.00,-853.55
3235.00,-851.59
3238.00,-857.68
3242.00,-842.98
3245.00,-855.02
3248.00,-839.27
3251.00,-849.84
3254.00,-837.03
3258.00,-833.60
3261.00,-838.50
3264.00,-826.95
3267.00,-843.33
3271.00,-824.08
3274.00,-834.37
3277.00,-820.23
3280.00,-823.59
3284.00,-833.74
3290.00,-831.64
3293.00,-809.38
3296.00,-826.81
3299.00,-809.45
3303.00,-806.02
3306.00,-811.27
3309.00,-799.37
3312.00,-816.17
3316.00,-795.38
3319.00,-808.12
3322.00,-793.49
3325.00,-803.43
3328.00,-808.33
3332.00,-792.72
3335.00,-810.50
3338.00,-786.91
3341.00,-805.18
3345.00,-785.93
3348.00,-807.91
3351.00,-788.03
3354.00,-783.69
3357.00,-794.33
3361.00,-780.33
3364.00,-800.28
3367.00,-778.86
3370.00,-793.49
3374.00,-788.10
3377.00,-789.15
3380.00,-794.19
3383.00,-780.12
3389.00,-775.71
3393.00,-787.75
3396.00,-776.76
3399.00,-782.92
3402.00,-776.76
3406.00,-778.37
3409.00,-796.36
3412.00,-775.71
3415.00,-797.41
3418.00,-781.17
3422.00,-795.24
3425.00,-786.35
3428.00,-799.51
3431.00,-797.41
3435.00,-784.32
3438.00,-804.06
3441.00,-787.75
3444.00,-805.53
3448.00,-791.11
3451.00,-802.03
3454.00,-793.49
3457.00,-802.87
3461.00,-820.02
3464.00,-805.32
3467.00,-825.20
3470.00,-806.58
3474.00,-830.80
3477.00,-815.40
3480.00,-840.25
3483.00,-827.23
3489.00,-846.41
3493.00,-831.22
3496.00,-851.66
3499.00,-838.50
3502.00,-854.11
3506.00,-848.44
3509.00,-857.47
3512.00,-861.95
3515.00,-853.41
3519.00,-871.96
3522.00,-859.64
3525.00,-880.78
3528.00,-864.96
3532.00,-877.49
3535.00,-870.70
3538.00,-881.27
3541.00,-888.62
3544.00,-882.39
3548.00,-895.27
3551.00,-899.33
3554.00,-898.77
3557.00,-884.56
3561.00,-900.66
3564.00,-886.87
3567.00,-893.03
3570.00,-891.56
3573.00,-893.17
3577.00,-906.75
3580.00,-892.26
3583.00,-904.51
3589.00,-904.09
3592.00,-892.61
3596.00,-894.57
3599.00,-892.75
3602.00,-892.12
3605.00,-903.81
3609.00,-889.46
3612.00,-899.82
3615.00,-887.22
3618.00,-897.93
3621.00,-886.03
3625.00,-895.13
3628.00,-887.01
3631.00,-881.97
3634.00,-887.92
3638.00,-877.63
3641.00,-890.02
3644.00,-872.45
3647.00,-884.49
3651.00,-867.83
3654.00,-879.94
3657.00,-872.24
3660.00,-873.50
3664.00,-872.24
3667.00,-876.65
3670.00,-870.56
3673.00,-852.50
3677.00,-870.77
3680.00,-848.09
3683.00,-863.28
3689.00,-853.69
3692.00,-852.71
3696.00,-846.76
3699.00,-852.43
3702.00,-833.25
3705.00,-851.87
3709.00,-828.07
3712.00,-861.81
3715.00,-824.36
3718.00,-837.31
3721.00,-819.95
3725.00,-830.66
3728.00,-835.35
3731.00,-825.06
3734.00,-835.63
3738.00,-813.58
3741.00,-833.11
3744.00,-809.80
3747.00,-844.80
3750.00,-806.37
3754.00,-820.65
3757.00,-804.90
3760.00,-814.42
3763.00,-822.19
3767.00,-806.65
3770.00,-822.19
3773.00,-800.00
3776.00,-823.87
3780.00,-799.23
3783.00,-822.33
3789.00,-812.11
3792.00,-816.17
3795.00,-809.52
3799.00,-819.88
3802.00,-805.18
3805.00,-821.98
3808.00,-800.84
3812.00,-824.99
3815.00,-803.08
3818.00,-819.88
3821.00,-803.36
3825.00,-818.27
3828.00,-807.91
3831.00,-816.31
3834.00,-827.30
3837.00,-810.71
3841.00,-827.51
3844.00,-803.85
3847.00,-827.65
3850.00,-802.45
3854.00,-824.78
3857.00,-801.75
3860.00,-809.03
3863.00,-801.19
3867.00,-804.27
3870.00,-819.60
3873.00,-802.03
3876.00,-819.88
3880.00,-800.00
3883.00,-820.51
3889.00,-822.33
3892.00,-806.51
3895.00,-802.17
3899.00,-813.93
3902.00,-800.28
3905.00,-814.70
3908.00,-799.93
3912.00,-812.74
3915.00,-794.05
3918.00,-807.63
3921.00,-816.45
3925.00,-803.43
3928.00,-817.78
3931.00,-801.61
3934.00,-815.96
3938.00,-802.87
3941.00,-802.17
3944.00,-807.84
3947.00,-798.95
3950.00,-811.97
3954.00,-796.64
3957.00,-805.81
3960.00,-795.45
3963.00,-796.64
3967.00,-803.50
3970.00,-791.53
3973.00,-800.35
3976.00,-789.78
3979.00,-794.19
3983.00,-790.06
3986.00,-783.83
3992.00,-777.04
3995.00,-779.98
3998.00,-773.26
4002.00,-768.64
4005.00,-758.63
4008.00,-760.66
4011.00,-767.87
4015.00,-754.15
4018.00,-753.45
4021.00,-758.21
4024.00,-741.41
4028.00,-751.28
4031.00,-723.00
4034.00,-736.93
4037.00,-736.86
4040.00,-721.74
4044.00,-730.00
4047.00,-717.40
4050.00,-718.03
4053.00,-714.04
4057.00,-702.28
4060.00,-712.08
4063.00,-696.54
4066.00,-696.75
4070.00,-691.29
4073.00,-679.67
4076.00,-687.93
4079.00,-674.84
4083.00,-668.89
4086.00,-671.34
4092.00,-663.78
4095.00,-653.14
4098.00,-647.40
4102.00,-654.54
4105.00,-636.97
4108.00,-641.52
4111.00,-631.58
4115.00,-623.39
4118.00,-629.69
4121.00,-615.55
4124.00,-618.21
4128.00,-618.56
4131.00,-602.60
4134.00,-608.20
4137.00,-597.98
4140.00,-596.37
4144.00,-598.82
4147.00,-584.96
4150.00,-589.72
4153.00,-586.43
4157.00,-575.58
4160.00,-577.19
4163.00,-571.66
4166.00,-566.76
4170.00,-568.30
4173.00,-556.68
4176.00,-560.11
4179.00,-556.33
4182.00,-548.21
4186.00,-551.92
4192.00,-541.07
4195.00,-541.42
4198.00,-533.16
4201.00,-533.79
4205.00,-531.76
4208.00,-526.30
4211.00,-526.44
4214.00,-521.40
4218.00,-516.64
4221.00,-520.63
4224.00,-512.86
4227.00,-512.23
4230.00,-511.11
4234.00,-504.53
4237.00,-504.88
4240.00,-501.87
4243.00,-496.69
4247.00,-502.22
4250.00,-495.08
4253.00,-489.90
4256.00,-494.45
4259.00,-486.75
4263.00,-488.78
4266.00,-488.22
4269.00,-481.01
4272.00,-483.25
4276.00,-481.01
4279.00,-476.88
4282.00,-480.10
4285.00,-476.53
4291.00,-477.09
4295.00,-471.77
4298.00,-469.04
4301.00,-473.94
4304.00,-467.92
4308.00,-469.53
4311.00,-472.05
4314.00,-465.33
4317.00,-465.61
4321.00,-468.69
4324.00,-463.16
4327.00,-467.15
4330.00,-467.50
4334.00,-462.39
4337.00,-468.83
4340.00,-467.22
4343.00,-462.67
4347.00,-469.95
4350.00,-467.22
4353.00,-463.02
4356.00,-470.37
4359.00,-465.19
4363.00,-465.82
4366.00,-473.80
4369.00,-466.87
4372.00,-468.90
4376.00,-475.90
4379.00,-469.74
4382.00,-471.35
4385.00,-477.37
4392.00,-474.08
4395.00,-480.80
4398.00,-476.18
4401.00,-477.86
4404.00,-483.53
4408.00,-480.10
4411.00,-484.72
4414.00,-488.78
4417.00,-485.84
4421.00,-489.41
4424.00,-492.56
4427.00,-490.04
4430.00,-498.09
4434.00,-496.76
4437.00,-494.66
4440.00,-502.50
4443.00,-500.82
4447.00,-498.23
4450.00,-506.91
4453.00,-506.77
4456.00,-504.81
4459.00,-512.02
4463.00,-511.81
4466.00,-509.15
4469.00,-515.80
4472.00,-516.99
4476.00,-512.93
4479.00,-519.30
4482.00,-520.49
4485.00,-517.13
4491.00,-524.34
4495.00,-521.54
4498.00,-525.39
4501.00,-527.63
4504.00,-523.22
4508.00,-525.95
4511.00,-527.70
4514.00,-524.69
4517.00,-527.35
4521.00,-530.64
4524.00,-526.65
4527.00,-527.21
4530.00,-530.64
4533.00,-526.79
4537.00,-527.63
4540.00,-530.36
4543.00,-526.86
4546.00,-527.07
4550.00,-529.73
4553.00,-525.11
4556.00,-525.67
4559.00,-527.35
4562.00,-523.36
4566.00,-521.12
4569.00,-524.06
4572.00,-520.77
4575.00,-517.06
4578.00,-520.00
4582.00,-514.33
4585.00,-509.99
4591.00,-512.51
4594.00,-504.88
4598.00,-505.93
4601.00,-503.62
4604.00,-499.00
4607.00,-497.11
4610.00,-498.65
4614.00,-491.65
4617.00,-491.37
4620.00,-492.21
4623.00,-484.30
4627.00,-481.64
4630.00,-485.35
4633.00,-478.42
4636.00,-472.82
4640.00,-476.11
4643.00,-472.61
4646.00,-465.33
4649.00,-467.71
4652.00,-465.47
4656.00,-454.90
4659.00,-455.67
4662.00,-453.43
4665.00,-445.94
4669.00,-446.29
4672.00,-445.73
4675.00,-437.61
4678.00,-435.02
4682.00,-436.42
4685.00,-429.28
4691.00,-426.55
4694.00,-421.23
4697.00,-413.39
4701.00,-415.56
4704.00,-413.18
4707.00,-401.77
4710.00,-403.31
4714.00,-403.80
4717.00,-392.11
4720.00,-390.43
4723.00,-393.44
4727.00,-385.04
4730.00,-378.04
4733.00,-381.54
4736.00,-377.69
4739.00,-369.08
4743.00,-370.27
4746.00,-367.82
4749.00,-360.19
4752.00,-355.64
4756.00,-358.65
4759.00,-348.29
4762.00,-343.46
4765.00,-345.77
4769.00,-340.03
4772.00,-332.47
4775.00,-332.75
4778.00,-333.17
4782.00,-324.63
4785.00,-319.73
4791.00,-317.14
4794.00,-309.09
4797.00,-311.26
4801.00,-309.44
4804.00,-302.09
4807.00,-299.08
4810.00,-300.55
4814.00,-290.26
4817.00,-284.66
4820.00,-288.79
4823.00,-284.10
4826.00,-275.91
4830.00,-274.23
4833.00,-276.82
4836.00,-269.47
4839.00,-263.94
4843.00,-268.14
4846.00,-263.52
4849.00,-252.81
4852.00,-256.03
4855.00,-256.10
4859.00,-245.67
4862.00,-241.89
4865.00,-247.14
4868.00,-240.63
4872.00,-232.93
4875.00,-236.50
4878.00,-235.17
4881.00,-227.68
4884.00,-221.66
4888.00,-227.26
4894.00,-213.40
4897.00,-216.90
4900.00,-217.95
4904.00,-208.78
4907.00,-204.37
4910.00,-208.57
4913.00,-204.16
4916.00,-196.39
4920.00,-196.53
4923.00,-199.89
4926.00,-193.10
4929.00,-185.05
4933.00,-190.37
4936.00,-189.53
4939.00,-177.77
4942.00,-177.49
4945.00,-182.04
4949.00,-175.04
4952.00,-168.25
4955.00,-172.03
4958.00,-172.52
4962.00,-164.68
4965.00,-159.22
4968.00,-164.89
4971.00,-162.86
4974.00,-152.01
4978.00,-151.87
4981.00,-157.96
4984.00,-148.93
4987.00,-141.65
4994.00,-147.46
4997.00,-139.55
5000.00,-134.02
5003.00,-141.37
5006.00,-138.43
5010.00,-112.46
5013.00,-130.03
5016.00,-134.93
5019.00,-126.67
5022.00,-118.20
5026.00,-124.36
5029.00,-125.90
5032.00,-118.34
5035.00,-111.97
5039.00,-118.90
5042.00,-118.62
5045.00,-110.78
5048.00,-104.76
5052.00,-113.72
5055.00,-106.79
5058.00,-99.09
5061.00,-97.34
5064.00,-106.30
5068.00,-99.44
5071.00,-91.46
5074.00,-93.00
5077.00,-99.65
5081.00,-92.86
5084.00,-81.87
5087.00,-91.67
5093.00,-83.69
5096.00,-75.29
5100.00,-84.53
5103.00,-85.58
5106.00,-77.32
5109.00,-70.18
5112.00,-81.24
5116.00,-80.68
5119.00,-66.82
5122.00,-63.88
5125.00,-75.29
5129.00,-71.23
5132.00,-61.92
5135.00,-56.88
5138.00,-71.37
5141.00,-66.68
5145.00,-52.89
5148.00,-54.08
5151.00,-64.37
5154.00,-58.98
5158.00,-48.41
5161.00,-46.87
5164.00,-60.94
5167.00,-55.34
5170.00,-45.33
5174.00,-44.21
5177.00,-54.99
5180.00,-47.01
5183.00,-36.23
5187.00,-36.37
5190.00,-50.93
5193.00,-45.68
5199.00,-29.79
5202.00,-45.96
5206.00,-43.16
5209.00,-27.41
5212.00,-26.22
5215.00,-38.96
5219.00,-36.58
5222.00,-25.73
5225.00,-19.50
5228.00,-37.35
5231.00,-36.79
5235.00,-6.83
5238.00,-14.46
5241.00,-28.39
5244.00,-31.54
5248.00,-16.70
5251.00,-8.86
5254.00,-25.17
5257.00,-28.81
5260.00,-16.98
5264.00,-3.26
5267.00,-21.53
5270.00,-24.75
5273.00,-10.96
5276.00,-1.30
5280.00,-15.16
5283.00,-20.20
5286.00,-13.69
5289.00,4.16
5293.00,0.24
5296.00,-19.08
5299.00,-9.63
5302.00,6.68
5308.00,-13.20
5312.00,-14.53
5315.00,6.40
5318.00,19.42
5321.00,-5.22
5324.00,-9.35
5328.00,9.27
5331.00,18.44
5334.00,22.64
5337.00,-6.83
5341.00,-2.00
5344.00,23.20
5347.00,32.16
5350.00,12.91
5353.00,-0.11
5357.00,25.51
5360.00,32.72
5363.00,19.77
5366.00,9.06
5369.00,13.82
5373.00,37.34
5376.00,44.69
5379.00,-2.07
5382.00,11.16
5386.00,35.38
5389.00,51.20
5392.00,34.12
5395.00,22.57
5398.00,35.66
5402.00,49.38
5405.00,56.73
5408.00,38.11
5411.00,25.30
5415.00,43.50
5421.00,54.14
5424.00,45.74
5427.00,38.32
5430.00,53.86
5434.00,65.76
5437.00,52.53
5440.00,40.49
5443.00,53.37
5447.00,62.89
5450.00,70.73
5453.00,54.49
5456.00,47.49
5460.00,56.73
5463.00,71.64
5466.00,74.93
5469.00,58.62
5472.00,53.79
5476.00,64.92
5479.00,78.15
5482.00,75.07
5485.00,61.35
5489.00,59.39
5492.00,69.40
5495.00,74.93
5498.00,75.14
5501.00,65.76
5505.00,63.31
5508.00,68.00
5511.00,77.59
5514.00,75.98
5518.00,69.33
5521.00,66.67
5524.00,67.51
5527.00,80.39
5533.00,75.56
5537.00,68.98
5540.00,67.23
5543.00,73.67
5546.00,79.90
5549.00,82.70
5553.00,71.57
5556.00,67.51
5559.00,69.26
5562.00,82.84
5566.00,85.92
5569.00,76.82
5572.00,74.09
5575.00,70.45
5578.00,85.64
5582.00,85.92
5585.00,84.59
5588.00,75.35
5591.00,72.13
5594.00,72.83
5598.00,87.04
5601.00,89.77
5604.00,78.71
5607.00,74.23
5611.00,75.49
5614.00,90.33
5617.00,91.45
5620.00,87.74
5623.00,76.33
5627.00,76.61
5630.00,94.04
5633.00,91.66
5636.00,93.41
5640.00,82.77
5646.00,79.27
5649.00,90.96
5652.00,95.51
5655.00,93.06
5659.00,68.42
5662.00,81.23
5665.00,80.25
5668.00,94.81
5671.00,98.24
5675.00,93.06
5678.00,82.28
5681.00,83.75
5684.00,85.57
5688.00,99.08
5691.00,99.64
5694.00,94.88
5697.00,84.10
5700.00,85.64
5704.00,95.09
5707.00,101.88
5710.00,100.97
5713.00,91.59
5717.00,85.64
5720.00,87.46
5723.00,102.65
5726.00,105.52
5729.00,102.93
5733.00,93.48
5736.00,89.91
5739.00,90.12
5742.00,105.31
5745.00,107.27
5749.00,102.37
5752.00,95.51
5758.00,93.06
5761.00,109.37
5765.00,110.91
5768.00,105.73
5771.00,99.22
5774.00,95.51
5777.00,98.17
5781.00,111.54
5784.00,113.22
5787.00,110.00
5790.00,104.12
5794.00,98.45
5797.00,97.75
5800.00,115.67
5803.00,115.11
5806.00,113.71
5810.00,108.74
5813.00,103.70
5816.00,102.72
5819.00,120.78
5823.00,117.56
5826.00,116.65
