1796.00,4.30
1799.00,4.74
1802.00,5.17
1805.00,4.94
1809.00,4.77
1812.00,4.63
1815.00,4.51
1818.00,4.41
1821.00,4.28
1824.00,4.12
1828.00,4.01
1831.00,3.98
1834.00,3.94
1837.00,3.74
1840.00,3.48
1844.00,3.24
1847.00,3.00
1850.00,2.75
1853.00,2.50
1856.00,2.30
1862.00,2.18
1866.00,1.89
1869.00,1.51
1872.00,37.26
1875.00,73.01
1878.00,108.71
1882.00,144.32
1885.00,179.78
1888.00,215.20
1891.00,250.48
1895.00,285.67
1898.00,320.98
1901.00,356.46
1904.00,356.08
1907.00,355.90
1911.00,320.16
1914.00,284.67
1917.00,249.13
1920.00,249.22
1923.00,249.19
1927.00,248.72
1930.00,247.75
1933.00,246.42
1936.00,244.80
1940.00,243.26
1943.00,277.74
1946.00,313.05
1949.00,313.66
1952.00,280.05
1956.00,246.23
1959.00,211.61
1962.00,211.67
1965.00,210.68
1971.00,208.81
1974.00,206.77
1978.00,205.40
1981.00,204.91
1984.00,206.44
1987.00,206.82
1991.00,206.64
1994.00,241.59
1997.00,240.01
2000.00,238.00
2003.00,235.94
2007.00,233.60
2010.00,231.75
2013.00,231.97
2016.00,265.69
2020.00,298.71
2023.00,331.72
2026.00,329.60
2029.00,328.84
2032.00,329.67
2036.00,333.17
2039.00,336.89
2042.00,338.33
2045.00,334.90
2049.00,329.86
2052.00,323.49
2055.00,318.46
2058.00,286.87
2061.00,290.09
2065.00,292.17
2068.00,290.82
2071.00,286.36
2077.00,282.25
2080.00,283.24
2084.00,285.54
2087.00,288.85
2090.00,290.60
2093.00,311.78
2097.00,293.00
2100.00,294.06
2103.00,295.28
2106.00,298.61
2109.00,299.81
2113.00,288.09
2116.00,274.51
2119.00,273.97
2122.00,275.43
2126.00,284.73
2129.00,297.09
2132.00,279.64
2135.00,263.63
2138.00,263.69
2142.00,265.56
2145.00,276.60
2148.00,276.26
2151.00,261.82
2155.00,252.59
2158.00,252.18
2161.00,254.76
2164.00,269.84
2167.00,268.66
2171.00,254.37
2174.00,251.59
2177.00,250.91
2183.00,246.70
2186.00,246.76
2190.00,251.55
2193.00,250.16
2196.00,250.44
2199.00,228.70
2203.00,228.34
2206.00,238.03
2209.00,239.16
2212.00,239.84
2215.00,235.35
2219.00,222.49
2222.00,222.85
2225.00,221.56
2228.00,215.61
2232.00,215.30
2235.00,227.96
2238.00,229.37
2241.00,226.69
2245.00,205.14
2248.00,204.06
2251.00,229.24
2254.00,228.76
2257.00,220.36
2261.00,205.38
2264.00,223.94
2267.00,225.45
2270.00,221.44
2274.00,206.67
2277.00,205.22
2280.00,225.67
2283.00,222.31
2289.00,204.55
2293.00,215.65
2296.00,234.24
2299.00,228.53
2302.00,210.36
2306.00,220.20
2309.00,237.39
2312.00,253.88
2315.00,236.49
2318.00,220.75
2322.00,240.25
2325.00,235.18
2328.00,223.70
2331.00,210.83
2335.00,230.25
2338.00,222.68
2341.00,211.80
2344.00,195.95
2347.00,214.38
2351.00,230.34
2354.00,222.94
2357.00,207.19
2360.00,219.29
2364.00,235.80
2367.00,225.56
2370.00,208.19
2373.00,220.67
2376.00,236.89
2380.00,228.65
2383.00,216.38
2386.00,223.04
2389.00,237.10
2395.00,210.59
2399.00,211.94
2402.00,214.75
2405.00,225.60
2408.00,223.62
2412.00,223.67
2415.00,223.08
2418.00,227.47
2421.00,225.72
2425.00,226.14
2428.00,241.21
2431.00,240.35
2434.00,243.42
2437.00,244.36
2441.00,232.50
2444.00,235.53
2447.00,238.11
2450.00,240.62
2454.00,232.49
2457.00,233.27
2460.00,236.71
2463.00,228.00
2466.00,228.02
2470.00,230.28
2473.00,231.14
2476.00,227.25
2479.00,227.80
2483.00,226.28
2486.00,223.89
2489.00,224.24
2492.00,223.82
2495.00,223.70
2502.00,219.53
2505.00,214.47
2508.00,215.08
2511.00,214.08
2514.00,207.96
2518.00,205.34
2521.00,215.36
2524.00,209.22
2527.00,204.65
2530.00,211.72
2534.00,210.24
2537.00,209.07
2540.00,208.18
2543.00,204.70
2547.00,203.15
2550.00,202.63
2553.00,196.87
2556.00,194.15
2559.00,192.62
2563.00,188.14
2566.00,184.89
2569.00,182.29
2572.00,183.95
2576.00,180.78
2579.00,178.12
2582.00,180.02
2585.00,175.76
2588.00,172.23
2592.00,161.75
2595.00,156.91
2598.00,152.75
2601.00,143.14
2607.00,137.99
2611.00,126.50
2614.00,127.05
2617.00,122.31
2620.00,112.39
2624.00,114.33
2627.00,122.12
2630.00,113.47
2633.00,114.96
2637.00,121.40
2640.00,115.94
2643.00,124.37
2646.00,119.88
2649.00,116.38
2653.00,122.97
2656.00,116.26
2659.00,114.05
2662.00,118.94
2666.00,110.78
2669.00,109.88
2672.00,112.73
2675.00,102.79
2679.00,103.24
2682.00,103.93
2685.00,94.26
2688.00,96.21
2692.00,94.81
2695.00,86.05
2698.00,89.67
2701.00,85.64
2704.00,78.70
2708.00,83.69
2714.00,78.82
2717.00,77.13
2720.00,76.56
2724.00,73.42
2727.00,71.69
2730.00,70.15
2733.00,66.96
2736.00,64.60
2740.00,62.33
2743.00,59.71
2746.00,55.92
2749.00,51.19
2753.00,54.76
2756.00,48.46
2759.00,46.47
2762.00,48.31
2766.00,42.32
2769.00,42.55
2772.00,41.60
2775.00,36.98
2778.00,37.69
2782.00,34.03
2785.00,31.01
2788.00,30.93
2791.00,25.96
2795.00,24.40
2798.00,23.38
2801.00,19.15
2804.00,18.50
2807.00,52.13
2811.00,50.62
2814.00,50.15
2817.00,82.37
2820.00,81.26
2826.00,116.39
2829.00,149.34
2833.00,183.80
2836.00,218.46
2839.00,252.02
2842.00,250.65
2846.00,283.23
2849.00,317.22
2852.00,315.86
2855.00,349.92
2858.00,348.26
2862.00,345.74
2865.00,344.41
2868.00,341.71
2871.00,339.94
2875.00,338.12
2878.00,335.56
2881.00,334.32
2884.00,331.99
2888.00,329.38
2891.00,327.74
2894.00,324.92
2897.00,323.47
2901.00,320.57
2904.00,317.99
2907.00,317.11
2910.00,314.45
2914.00,312.79
2917.00,310.14
2920.00,309.11
2923.00,308.09
2926.00,305.79
2933.00,302.43
2936.00,302.07
2939.00,302.26
2942.00,297.15
2946.00,298.33
2949.00,294.95
2952.00,293.65
2955.00,291.47
2958.00,285.67
2962.00,287.28
2965.00,283.88
2968.00,281.40
2971.00,278.62
2975.00,276.97
2978.00,275.46
2981.00,271.49
2984.00,271.59
2988.00,269.61
2991.00,268.31
2994.00,266.87
2997.00,264.53
3001.00,264.95
3004.00,262.65
3007.00,261.15
3010.00,258.30
3013.00,256.18
3017.00,254.75
3020.00,250.88
3023.00,249.35
3026.00,245.42
3030.00,243.06
3033.00,241.89
3039.00,238.59
3042.00,237.52
3045.00,231.55
3049.00,235.27
3052.00,227.81
3055.00,226.57
3058.00,224.68
3061.00,220.19
3065.00,224.62
3068.00,216.74
3071.00,217.96
3074.00,214.52
3078.00,214.10
3081.00,207.80
3084.00,206.34
3087.00,208.16
3090.00,204.63
3094.00,203.47
3097.00,195.83
3100.00,194.96
3103.00,187.07
3106.00,183.99
3110.00,180.93
3113.00,176.84
3116.00,175.80
3119.00,165.42
3122.00,164.51
3126.00,160.21
3129.00,156.48
3132.00,150.65
3135.00,148.23
3139.00,147.33
3145.00,143.83
3148.00,136.53
3151.00,131.87
3154.00,130.30
3158.00,125.21
3161.00,124.11
3164.00,116.49
3167.00,116.84
3171.00,111.43
3174.00,106.66
3177.00,101.06
3180.00,100.08
3184.00,99.45
3187.00,92.72
3190.00,90.70
3193.00,82.28
3197.00,82.97
3200.00,78.97
3203.00,77.19
3206.00,75.56
3209.00,71.60
3213.00,72.59
3216.00,65.61
3219.00,66.84
3222.00,61.85
3226.00,61.05
3229.00,61.12
3232.00,55.41
3235.00,55.54
3239.00,49.11
3242.00,50.27
3245.00,46.10
3248.00,44.54
3251.00,43.56
3258.00,43.50
3261.00,41.33
3264.00,37.40
3267.00,37.86
3270.00,33.61
3274.00,33.82
3277.00,29.33
3280.00,28.49
3283.00,25.97
3287.00,22.00
3290.00,18.02
3293.00,16.66
3296.00,15.07
3299.00,48.11
3303.00,47.45
3306.00,80.33
3309.00,80.54
3312.00,112.08
3316.00,147.14
3319.00,146.39
3322.00,180.54
3325.00,215.96
3328.00,249.13
3332.00,247.91
3335.00,280.70
3338.00,279.57
3341.00,311.72
3345.00,311.36
3348.00,310.19
3351.00,342.86
3354.00,342.18
3357.00,338.34
3361.00,336.71
3367.00,334.89
3370.00,332.07
3373.00,330.08
3377.00,329.33
3380.00,326.99
3383.00,324.60
3386.00,320.90
3390.00,319.00
3393.00,316.78
3396.00,314.90
3399.00,311.59
3403.00,311.05
3406.00,308.34
3409.00,306.30
3412.00,305.09
3415.00,300.00
3419.00,300.31
3422.00,296.21
3425.00,295.85
3428.00,292.10
3432.00,290.96
3435.00,287.97
3438.00,285.97
3441.00,285.25
3445.00,279.72
3448.00,281.30
3451.00,277.19
3454.00,277.40
3458.00,274.01
3461.00,272.47
3464.00,269.73
3467.00,265.92
3473.00,262.05
3477.00,259.77
3480.00,257.61
3483.00,253.16
3486.00,251.57
3489.00,246.56
3493.00,247.01
3496.00,243.05
3499.00,243.69
3502.00,241.04
3506.00,242.28
3509.00,236.84
3512.00,235.93
3515.00,233.36
3518.00,229.63
3522.00,231.37
3525.00,224.53
3528.00,225.93
3531.00,218.33
3535.00,220.05
3538.00,214.56
3541.00,213.28
3544.00,211.45
3547.00,208.20
3551.00,209.89
3554.00,202.00
3557.00,202.32
3560.00,195.34
3563.00,195.21
3567.00,188.62
3570.00,185.79
3573.00,180.78
3579.00,176.93
3583.00,173.07
3586.00,165.84
3589.00,163.21
3592.00,159.11
3595.00,157.27
3599.00,153.73
3602.00,146.00
3605.00,143.03
3608.00,138.35
3612.00,133.85
3615.00,132.16
3618.00,128.92
3621.00,126.16
3625.00,117.61
3628.00,116.37
3631.00,107.50
3634.00,109.32
3637.00,102.12
3641.00,101.77
3644.00,97.94
3647.00,94.26
3650.00,89.63
3654.00,84.56
3657.00,87.87
3660.00,79.24
3663.00,81.15
3667.00,74.48
3670.00,75.65
3673.00,70.49
3676.00,69.24
3680.00,67.60
3683.00,65.94
3689.00,62.62
3692.00,58.26
3695.00,56.69
3699.00,54.16
3702.00,52.83
3705.00,49.00
3708.00,47.20
3711.00,43.40
3715.00,40.59
3718.00,37.73
3721.00,39.53
3724.00,34.19
3728.00,34.99
3731.00,30.61
3734.00,30.38
3737.00,27.67
3740.00,26.17
3744.00,24.34
3747.00,55.68
3750.00,55.84
3753.00,86.62
3756.00,86.93
3760.00,118.92
3763.00,118.63
3766.00,151.72
3769.00,150.81
3773.00,183.52
3776.00,217.47
3779.00,217.26
3782.00,249.74
3785.00,214.07
3789.00,247.02
3792.00,245.76
3798.00,279.02
3801.00,277.23
3805.00,311.25
3808.00,311.10
3811.00,309.11
3814.00,307.30
3817.00,305.49
3821.00,338.57
3824.00,335.79
3827.00,333.44
3830.00,330.45
3834.00,329.55
3837.00,326.14
3840.00,324.00
3843.00,322.01
3847.00,317.24
3850.00,316.05
3853.00,311.29
3856.00,310.90
3860.00,308.37
3863.00,308.00
3866.00,305.67
3869.00,303.66
3873.00,301.58
3876.00,297.71
3879.00,299.00
3882.00,294.01
3885.00,294.78
3889.00,292.39
3892.00,290.44
3895.00,289.62
3898.00,284.87
3905.00,283.28
3908.00,280.70
3911.00,282.76
3914.00,276.70
3918.00,278.97
3921.00,275.86
3924.00,273.92
3927.00,272.54
3930.00,266.21
3934.00,269.13
3937.00,265.55
3940.00,263.81
3943.00,260.17
3947.00,258.48
3950.00,257.31
3953.00,253.49
3956.00,251.00
3959.00,249.77
3963.00,248.41
3966.00,247.24
3969.00,245.23
3972.00,244.90
3976.00,244.07
3979.00,242.81
3982.00,240.97
3985.00,240.29
3989.00,239.27
3992.00,237.04
3995.00,235.21
3998.00,234.50
4002.00,233.69
4005.00,229.45
4011.00,223.99
4014.00,227.56
4017.00,223.60
4021.00,221.71
4024.00,222.30
4027.00,218.64
4030.00,218.75
4033.00,212.76
4037.00,210.60
4040.00,214.79
4043.00,214.59
4046.00,208.13
4050.00,207.50
4053.00,205.86
4056.00,201.79
4059.00,201.21
4062.00,198.11
4066.00,202.20
4069.00,200.75
4072.00,192.76
4075.00,193.51
4079.00,191.89
4082.00,187.62
4085.00,186.90
4088.00,183.39
4091.00,182.85
4095.00,181.64
4098.00,172.98
4101.00,171.38
4104.00,169.71
4107.00,164.72
4111.00,163.23
4117.00,158.42
4120.00,157.68
4123.00,156.42
4126.00,144.71
4130.00,144.06
4133.00,141.99
4136.00,135.34
4139.00,134.43
4143.00,131.42
4146.00,128.59
4149.00,129.79
4152.00,122.10
4156.00,120.65
4159.00,127.72
4162.00,117.22
4165.00,116.40
4168.00,119.58
4172.00,109.75
4175.00,110.63
4178.00,108.33
4181.00,102.26
4185.00,106.01
4188.00,100.36
4191.00,97.15
4194.00,103.16
4198.00,95.41
4201.00,94.49
4204.00,98.91
4207.00,89.88
4211.00,90.68
4214.00,90.71
4217.00,81.60
4220.00,84.62
4226.00,78.30
4230.00,77.85
4233.00,78.94
4236.00,73.19
4239.00,73.42
4243.00,74.40
4246.00,70.02
4249.00,72.03
4252.00,72.10
4255.00,68.69
4259.00,73.51
4262.00,65.38
4265.00,66.10
4268.00,68.33
4272.00,60.83
4275.00,63.28
4278.00,62.92
4281.00,54.97
4284.00,58.57
4288.00,56.38
4291.00,49.20
4294.00,52.44
4297.00,49.61
4301.00,43.49
4304.00,47.26
4307.00,43.47
4310.00,38.47
4314.00,42.35
4317.00,37.98
4320.00,33.90
4323.00,37.64
4326.00,33.97
4330.00,30.46
4333.00,33.90
4339.00,28.36
4342.00,29.29
4345.00,29.71
4349.00,59.98
4352.00,61.15
4355.00,61.85
4358.00,92.11
4362.00,93.42
4365.00,94.06
4368.00,124.34
4371.00,125.19
4374.00,121.85
4378.00,154.93
4381.00,119.27
4384.00,116.05
4387.00,148.69
4391.00,148.68
4394.00,145.70
4397.00,178.52
4400.00,178.20
4403.00,177.32
4407.00,210.55
4410.00,209.78
4413.00,245.44
4416.00,278.79
4419.00,277.39
4423.00,277.39
4426.00,310.81
4429.00,309.06
4432.00,309.51
4436.00,343.44
4439.00,341.28
4445.00,341.22
4448.00,336.95
4451.00,336.86
4455.00,337.65
4458.00,332.97
4461.00,331.81
4464.00,333.17
4468.00,328.74
4471.00,326.02
4474.00,327.73
4477.00,324.76
4480.00,323.12
4484.00,322.85
4487.00,320.14
4490.00,318.54
4493.00,319.42
4497.00,317.83
4500.00,315.93
4503.00,317.83
4506.00,316.58
4510.00,314.55
4513.00,317.39
4516.00,316.48
4519.00,314.48
4522.00,316.06
4526.00,315.20
4529.00,312.44
4532.00,312.24
4535.00,311.43
4539.00,308.79
4542.00,307.12
4545.00,306.45
4551.00,301.42
4554.00,303.51
4558.00,304.19
4561.00,299.81
4564.00,299.72
4567.00,303.37
4571.00,299.86
4574.00,296.74
4577.00,300.91
4580.00,298.32
4584.00,296.22
4587.00,295.37
4590.00,293.97
4593.00,292.02
4596.00,290.46
4600.00,288.93
4603.00,286.82
4606.00,285.35
4609.00,285.26
4613.00,283.50
4616.00,282.84
4619.00,283.38
4622.00,282.29
4626.00,281.86
4629.00,283.00
4632.00,282.42
4635.00,282.43
4638.00,282.38
4642.00,282.15
4645.00,282.48
4648.00,281.58
4651.00,279.92
4658.00,276.28
4661.00,275.34
4664.00,276.53
4667.00,273.80
4671.00,270.41
4674.00,276.17
4677.00,273.86
4680.00,270.15
4683.00,275.76
4687.00,276.41
4690.00,276.94
4693.00,276.83
4696.00,277.65
4700.00,277.46
4703.00,278.32
4706.00,275.27
4709.00,275.25
4713.00,275.91
4716.00,269.13
4719.00,269.33
4722.00,269.56
4726.00,267.50
4729.00,267.23
4732.00,268.86
4735.00,269.49
4738.00,265.80
4742.00,267.57
4745.00,269.03
4748.00,268.08
4751.00,267.21
4755.00,269.48
4758.00,271.39
4764.00,270.52
4767.00,268.92
4771.00,266.44
4774.00,273.06
4777.00,271.54
4780.00,270.05
4783.00,271.52
4787.00,273.23
4790.00,271.75
4793.00,270.86
4796.00,266.77
4800.00,268.15
4803.00,270.92
4806.00,260.68
4809.00,262.50
4813.00,264.24
4816.00,264.52
4819.00,260.11
4822.00,263.25
4825.00,265.67
4829.00,260.13
4832.00,262.44
4835.00,265.66
4838.00,268.96
4842.00,257.18
4845.00,260.86
4848.00,263.75
4851.00,260.29
4855.00,261.12
4858.00,264.42
4861.00,270.31
4864.00,258.36
4870.00,258.40
4874.00,259.45
4877.00,258.25
4880.00,258.69
4883.00,259.10
4887.00,259.63
4890.00,231.72
4893.00,232.51
4896.00,233.05
4900.00,233.68
4903.00,205.99
4906.00,210.02
4909.00,217.29
4912.00,205.31
4916.00,210.96
4919.00,215.31
4922.00,237.43
4925.00,220.93
4929.00,226.99
4932.00,235.27
4935.00,257.09
4938.00,232.39
4942.00,237.68
4945.00,245.49
4948.00,236.27
4951.00,212.21
4954.00,216.45
4958.00,228.58
4961.00,213.94
4964.00,220.06
4967.00,227.00
4971.00,248.73
4977.00,253.68
4980.00,256.15
4983.00,259.20
4986.00,268.19
4990.00,271.58
4993.00,275.18
4996.00,282.48
4999.00,259.77
5003.00,264.48
5006.00,267.61
5009.00,257.42
5012.00,239.20
5015.00,244.99
5019.00,260.45
5022.00,252.79
5025.00,232.61
5028.00,241.42
5032.00,259.36
5035.00,248.44
5038.00,229.69
5041.00,237.07
5044.00,255.08
5048.00,248.39
5051.00,229.32
5054.00,239.78
5057.00,260.51
5061.00,250.88
5064.00,229.81
5067.00,240.83
5070.00,260.38
5074.00,254.40
5077.00,235.31
5083.00,240.53
5086.00,257.60
5089.00,233.40
5093.00,205.74
5096.00,212.03
5099.00,231.94
5102.00,208.37
5106.00,180.89
5109.00,185.46
5112.00,204.18
5115.00,193.10
5118.00,174.31
5122.00,194.41
5125.00,221.20
5128.00,210.68
5131.00,190.25
5135.00,214.49
5138.00,242.96
5141.00,235.10
5144.00,214.73
5148.00,195.69
5151.00,219.44
5154.00,216.98
5157.00,197.68
5161.00,180.49
5164.00,204.19
5167.00,199.30
5170.00,178.66
5173.00,163.46
5177.00,187.79
5180.00,218.32
5183.00,214.62
5189.00,190.27
5193.00,211.84
5196.00,237.64
5199.00,215.90
5202.00,192.70
5205.00,217.67
5209.00,240.97
5212.00,238.84
5215.00,216.72
5218.00,193.76
5222.00,220.55
5225.00,218.57
5228.00,198.11
5231.00,195.50
5235.00,189.53
5238.00,185.68
5241.00,186.01
5244.00,164.51
5247.00,161.86
5251.00,188.70
5254.00,188.68
5257.00,162.71
5260.00,162.98
5264.00,161.65
5267.00,192.10
5270.00,191.34
5273.00,165.44
5277.00,165.24
5280.00,163.30
5283.00,163.19
5286.00,164.46
5289.00,168.89
5296.00,164.54
5299.00,189.93
5302.00,192.61
5305.00,169.40
5309.00,173.29
5312.00,198.94
5315.00,226.19
5318.00,229.71
5321.00,203.82
5325.00,205.88
5328.00,211.62
5331.00,213.41
5334.00,214.50
5338.00,211.81
5341.00,213.14
5344.00,191.00
5347.00,193.87
5351.00,194.11
5354.00,189.22
5357.00,189.96
5360.00,192.07
5363.00,165.72
5367.00,165.46
5370.00,160.82
5373.00,158.18
5376.00,158.42
5380.00,135.78
5383.00,135.17
5386.00,168.50
5389.00,162.32
5392.00,162.45
5396.00,167.79
5402.00,167.90
5405.00,169.20
5408.00,171.69
5411.00,172.36
5415.00,173.67
5418.00,174.69
5421.00,139.63
5424.00,141.20
5428.00,142.29
5431.00,143.75
5434.00,115.48
5437.00,149.54
5440.00,139.39
5444.00,138.37
5447.00,138.48
5450.00,116.61
5453.00,152.25
5457.00,181.78
5460.00,173.12
5463.00,173.28
5466.00,180.28
5469.00,157.70
5473.00,156.90
5476.00,144.87
5479.00,143.54
5482.00,143.85
5486.00,122.22
5489.00,96.12
5492.00,126.95
5495.00,113.45
5498.00,113.99
5502.00,115.03
5508.00,118.73
5511.00,153.80
5514.00,142.28
5517.00,143.05
5521.00,143.09
5524.00,147.98
5527.00,118.47
5530.00,153.47
5534.00,166.85
5537.00,168.77
5540.00,179.62
5543.00,158.70
5546.00,160.49
5550.00,180.36
5553.00,189.03
5556.00,191.13
5559.00,199.77
5563.00,179.63
5566.00,154.19
5569.00,172.69
5572.00,189.50
5575.00,192.54
5579.00,206.04
5582.00,186.67
5585.00,167.97
5588.00,186.59
5592.00,202.58
5595.00,205.95
5598.00,220.37
5601.00,201.59
5604.00,179.15
5608.00,197.29
5614.00,203.22
5617.00,205.78
5620.00,218.28
5623.00,198.50
5627.00,168.08
5630.00,182.46
5633.00,190.10
5636.00,193.69
5639.00,202.71
5643.00,183.70
5646.00,168.74
5649.00,184.63
5652.00,195.01
5656.00,200.66
5659.00,219.64
5662.00,204.51
5665.00,195.89
5668.00,210.94
5672.00,221.77
5675.00,228.69
5678.00,243.20
5681.00,228.54
5685.00,219.46
5688.00,215.55
5691.00,225.17
5694.00,235.08
5697.00,243.67
5701.00,231.12
5704.00,222.14
5707.00,217.00
5710.00,214.08
5714.00,222.27
5720.00,229.49
5723.00,234.32
5726.00,225.63
5729.00,217.03
5733.00,213.63
5736.00,219.49
5739.00,227.52
5742.00,234.10
5745.00,238.56
5749.00,231.83
5752.00,226.71
5755.00,226.39
5758.00,234.95
5762.00,243.79
5765.00,248.80
5768.00,244.46
5771.00,238.38
5774.00,234.09
