solid OpenSCAD_Model
  facet normal -1 0 0
    outer loop
      vertex 1.5 1.5 6
      vertex 1.5 3 46
      vertex 1.5 3 6
    endloop
  endfacet
  facet normal -1 -0 0
    outer loop
      vertex 1.5 3 46
      vertex 1.5 1.5 6
      vertex 1.5 1.5 46
    endloop
  endfacet
  facet normal -1 0 0
    outer loop
      vertex 1.5 -3 6
      vertex 1.5 -1.5 46
      vertex 1.5 -1.5 6
    endloop
  endfacet
  facet normal -1 -0 0
    outer loop
      vertex 1.5 -1.5 46
      vertex 1.5 -3 6
      vertex 1.5 -3 46
    endloop
  endfacet
  facet normal 1 -0 0
    outer loop
      vertex -1.5 -3 46
      vertex -1.5 3 6
      vertex -1.5 3 46
    endloop
  endfacet
  facet normal 1 0 0
    outer loop
      vertex -1.5 3 6
      vertex -1.5 -3 46
      vertex -1.5 -3 6
    endloop
  endfacet
  facet normal 0 1 -0
    outer loop
      vertex 1.5 -3 6
      vertex -1.5 -3 46
      vertex 1.5 -3 46
    endloop
  endfacet
  facet normal 0 1 0
    outer loop
      vertex -1.5 -3 46
      vertex 1.5 -3 6
      vertex -1.5 -3 6
    endloop
  endfacet
  facet normal 0 -1 0
    outer loop
      vertex -1.5 3 6
      vertex 1.5 3 46
      vertex -1.5 3 46
    endloop
  endfacet
  facet normal 0 -1 -0
    outer loop
      vertex 1.5 3 46
      vertex -1.5 3 6
      vertex 1.5 3 6
    endloop
  endfacet
  facet normal 0 -1 0
    outer loop
      vertex 1.5 1.5 6
      vertex 3.5 1.5 46
      vertex 1.5 1.5 46
    endloop
  endfacet
  facet normal 0 -1 -0
    outer loop
      vertex 3.5 1.5 46
      vertex 1.5 1.5 6
      vertex 3.5 1.5 6
    endloop
  endfacet
  facet normal 0 1 -0
    outer loop
      vertex 3.5 -1.5 6
      vertex 1.5 -1.5 46
      vertex 3.5 -1.5 46
    endloop
  endfacet
  facet normal 0 1 0
    outer loop
      vertex 1.5 -1.5 46
      vertex 3.5 -1.5 6
      vertex 1.5 -1.5 6
    endloop
  endfacet
  facet normal -1 0 0
    outer loop
      vertex -3.5 -12.425 0.125001
      vertex -3.5 -13.925 2.475
      vertex -3.5 -12.425 2.475
    endloop
  endfacet
  facet normal -1 0 0
    outer loop
      vertex -3.5 -13.925 2.475
      vertex -3.5 -16.075 2.475
      vertex -3.5 -13.925 6
    endloop
  endfacet
  facet normal -1 0 0
    outer loop
      vertex -3.5 -12.425 0.125001
      vertex -3.5 -16.075 2.475
      vertex -3.5 -13.925 2.475
    endloop
  endfacet
  facet normal -1 0 0
    outer loop
      vertex -3.5 -17.575 0.125001
      vertex -3.5 -16.075 2.475
      vertex -3.5 -12.425 0.125001
    endloop
  endfacet
  facet normal -1 -0 0
    outer loop
      vertex -3.5 -16.075 2.475
      vertex -3.5 -17.575 0.125001
      vertex -3.5 -17.575 2.475
    endloop
  endfacet
  facet normal -1 0 0
    outer loop
      vertex -3.5 17.575 0.125001
      vertex -3.5 16.075 2.475
      vertex -3.5 17.575 2.475
    endloop
  endfacet
  facet normal -1 0 0
    outer loop
      vertex -3.5 16.075 2.475
      vertex -3.5 13.925 2.475
      vertex -3.5 16.075 6
    endloop
  endfacet
  facet normal -1 0 0
    outer loop
      vertex -3.5 17.575 0.125001
      vertex -3.5 13.925 2.475
      vertex -3.5 16.075 2.475
    endloop
  endfacet
  facet normal -1 0 0
    outer loop
      vertex -3.5 12.425 0.125001
      vertex -3.5 13.925 2.475
      vertex -3.5 17.575 0.125001
    endloop
  endfacet
  facet normal -1 -0 0
    outer loop
      vertex -3.5 13.925 2.475
      vertex -3.5 12.425 0.125001
      vertex -3.5 12.425 2.475
    endloop
  endfacet
  facet normal -1 0 0
    outer loop
      vertex -3.5 16.075 6
      vertex -3.5 20 46
      vertex -3.5 20 6
    endloop
  endfacet
  facet normal -1 0 0
    outer loop
      vertex -3.5 13.925 6
      vertex -3.5 16.075 6
      vertex -3.5 13.925 2.475
    endloop
  endfacet
  facet normal -1 0 0
    outer loop
      vertex -3.5 16.075 6
      vertex -3.5 13.925 6
      vertex -3.5 20 46
    endloop
  endfacet
  facet normal -1 0 0
    outer loop
      vertex -3.5 -13.925 6
      vertex -3.5 20 46
      vertex -3.5 13.925 6
    endloop
  endfacet
  facet normal -1 0 0
    outer loop
      vertex -3.5 -16.075 6
      vertex -3.5 -13.925 6
      vertex -3.5 -16.075 2.475
    endloop
  endfacet
  facet normal -1 0 0
    outer loop
      vertex -3.5 -20 46
      vertex -3.5 -13.925 6
      vertex -3.5 -16.075 6
    endloop
  endfacet
  facet normal -1 0 0
    outer loop
      vertex -3.5 -20 46
      vertex -3.5 -16.075 6
      vertex -3.5 -20 6
    endloop
  endfacet
  facet normal -1 0 0
    outer loop
      vertex -3.5 -13.925 6
      vertex -3.5 -20 46
      vertex -3.5 20 46
    endloop
  endfacet
  facet normal -0 0 1
    outer loop
      vertex -3.5 13.925 2.475
      vertex 3.5 12.425 2.475
      vertex 3.5 13.925 2.475
    endloop
  endfacet
  facet normal 0 0 1
    outer loop
      vertex 3.5 12.425 2.475
      vertex -3.5 13.925 2.475
      vertex -3.5 12.425 2.475
    endloop
  endfacet
  facet normal -0 0 1
    outer loop
      vertex -3.5 17.575 2.475
      vertex 3.5 16.075 2.475
      vertex 3.5 17.575 2.475
    endloop
  endfacet
  facet normal 0 0 1
    outer loop
      vertex 3.5 16.075 2.475
      vertex -3.5 17.575 2.475
      vertex -3.5 16.075 2.475
    endloop
  endfacet
  facet normal 1 0 0
    outer loop
      vertex 3.5 -1.5 46
      vertex 3.5 -13.925 6
      vertex 3.5 -1.5 6
    endloop
  endfacet
  facet normal 1 0 0
    outer loop
      vertex 3.5 -13.925 6
      vertex 3.5 -16.075 6
      vertex 3.5 -13.925 2.475
    endloop
  endfacet
  facet normal 1 -0 0
    outer loop
      vertex 3.5 -20 46
      vertex 3.5 -13.925 6
      vertex 3.5 -1.5 46
    endloop
  endfacet
  facet normal 1 0 0
    outer loop
      vertex 3.5 -13.925 6
      vertex 3.5 -20 46
      vertex 3.5 -16.075 6
    endloop
  endfacet
  facet normal 1 0 0
    outer loop
      vertex 3.5 -16.075 6
      vertex 3.5 -20 46
      vertex 3.5 -20 6
    endloop
  endfacet
  facet normal 1 -0 0
    outer loop
      vertex 3.5 -13.925 2.475
      vertex 3.5 -12.425 0.125001
      vertex 3.5 -12.425 2.475
    endloop
  endfacet
  facet normal 1 0 0
    outer loop
      vertex 3.5 -16.075 2.475
      vertex 3.5 -13.925 2.475
      vertex 3.5 -16.075 6
    endloop
  endfacet
  facet normal 1 -0 0
    outer loop
      vertex 3.5 -16.075 2.475
      vertex 3.5 -12.425 0.125001
      vertex 3.5 -13.925 2.475
    endloop
  endfacet
  facet normal 1 0 0
    outer loop
      vertex 3.5 -17.575 0.125001
      vertex 3.5 -16.075 2.475
      vertex 3.5 -17.575 2.475
    endloop
  endfacet
  facet normal 1 0 0
    outer loop
      vertex 3.5 -16.075 2.475
      vertex 3.5 -17.575 0.125001
      vertex 3.5 -12.425 0.125001
    endloop
  endfacet
  facet normal 1 0 0
    outer loop
      vertex 3.5 20 46
      vertex 3.5 16.075 6
      vertex 3.5 20 6
    endloop
  endfacet
  facet normal 1 0 0
    outer loop
      vertex 3.5 16.075 6
      vertex 3.5 13.925 6
      vertex 3.5 16.075 2.475
    endloop
  endfacet
  facet normal 1 0 0
    outer loop
      vertex 3.5 20 46
      vertex 3.5 13.925 6
      vertex 3.5 16.075 6
    endloop
  endfacet
  facet normal 1 -0 0
    outer loop
      vertex 3.5 1.5 46
      vertex 3.5 13.925 6
      vertex 3.5 20 46
    endloop
  endfacet
  facet normal 1 0 0
    outer loop
      vertex 3.5 13.925 6
      vertex 3.5 1.5 46
      vertex 3.5 1.5 6
    endloop
  endfacet
  facet normal 1 -0 0
    outer loop
      vertex 3.5 16.075 2.475
      vertex 3.5 17.575 0.125001
      vertex 3.5 17.575 2.475
    endloop
  endfacet
  facet normal 1 0 0
    outer loop
      vertex 3.5 13.925 2.475
      vertex 3.5 16.075 2.475
      vertex 3.5 13.925 6
    endloop
  endfacet
  facet normal 1 -0 0
    outer loop
      vertex 3.5 13.925 2.475
      vertex 3.5 17.575 0.125001
      vertex 3.5 16.075 2.475
    endloop
  endfacet
  facet normal 1 0 0
    outer loop
      vertex 3.5 12.425 0.125001
      vertex 3.5 13.925 2.475
      vertex 3.5 12.425 2.475
    endloop
  endfacet
  facet normal 1 0 0
    outer loop
      vertex 3.5 13.925 2.475
      vertex 3.5 12.425 0.125001
      vertex 3.5 17.575 0.125001
    endloop
  endfacet
  facet normal 0 0 -1
    outer loop
      vertex -3.5 12.425 0.125001
      vertex 3.5 17.575 0.125001
      vertex 3.5 12.425 0.125001
    endloop
  endfacet
  facet normal -0 0 -1
    outer loop
      vertex 3.5 17.575 0.125001
      vertex -3.5 12.425 0.125001
      vertex -3.5 17.575 0.125001
    endloop
  endfacet
  facet normal 0 -1 0
    outer loop
      vertex -3.5 12.425 0.125001
      vertex 3.5 12.425 2.475
      vertex -3.5 12.425 2.475
    endloop
  endfacet
  facet normal 0 -1 -0
    outer loop
      vertex 3.5 12.425 2.475
      vertex -3.5 12.425 0.125001
      vertex 3.5 12.425 0.125001
    endloop
  endfacet
  facet normal 0 1 -0
    outer loop
      vertex 3.5 17.575 0.125001
      vertex -3.5 17.575 2.475
      vertex 3.5 17.575 2.475
    endloop
  endfacet
  facet normal 0 1 0
    outer loop
      vertex -3.5 17.575 2.475
      vertex 3.5 17.575 0.125001
      vertex -3.5 17.575 0.125001
    endloop
  endfacet
  facet normal 0 1 -0
    outer loop
      vertex 3.5 16.075 2.475
      vertex -3.5 16.075 6
      vertex 3.5 16.075 6
    endloop
  endfacet
  facet normal 0 1 0
    outer loop
      vertex -3.5 16.075 6
      vertex 3.5 16.075 2.475
      vertex -3.5 16.075 2.475
    endloop
  endfacet
  facet normal 0 -1 0
    outer loop
      vertex -3.5 13.925 2.475
      vertex 3.5 13.925 6
      vertex -3.5 13.925 6
    endloop
  endfacet
  facet normal 0 -1 -0
    outer loop
      vertex 3.5 13.925 6
      vertex -3.5 13.925 2.475
      vertex 3.5 13.925 2.475
    endloop
  endfacet
  facet normal -0 0 1
    outer loop
      vertex -3.5 -16.075 2.475
      vertex 3.5 -17.575 2.475
      vertex 3.5 -16.075 2.475
    endloop
  endfacet
  facet normal 0 0 1
    outer loop
      vertex 3.5 -17.575 2.475
      vertex -3.5 -16.075 2.475
      vertex -3.5 -17.575 2.475
    endloop
  endfacet
  facet normal -0 0 1
    outer loop
      vertex -3.5 -12.425 2.475
      vertex 3.5 -13.925 2.475
      vertex 3.5 -12.425 2.475
    endloop
  endfacet
  facet normal 0 0 1
    outer loop
      vertex 3.5 -13.925 2.475
      vertex -3.5 -12.425 2.475
      vertex -3.5 -13.925 2.475
    endloop
  endfacet
  facet normal 0 0 -1
    outer loop
      vertex -3.5 -17.575 0.125001
      vertex 3.5 -12.425 0.125001
      vertex 3.5 -17.575 0.125001
    endloop
  endfacet
  facet normal -0 0 -1
    outer loop
      vertex 3.5 -12.425 0.125001
      vertex -3.5 -17.575 0.125001
      vertex -3.5 -12.425 0.125001
    endloop
  endfacet
  facet normal 0 -1 0
    outer loop
      vertex -3.5 -17.575 0.125001
      vertex 3.5 -17.575 2.475
      vertex -3.5 -17.575 2.475
    endloop
  endfacet
  facet normal 0 -1 -0
    outer loop
      vertex 3.5 -17.575 2.475
      vertex -3.5 -17.575 0.125001
      vertex 3.5 -17.575 0.125001
    endloop
  endfacet
  facet normal 0 1 -0
    outer loop
      vertex 3.5 -12.425 0.125001
      vertex -3.5 -12.425 2.475
      vertex 3.5 -12.425 2.475
    endloop
  endfacet
  facet normal 0 1 0
    outer loop
      vertex -3.5 -12.425 2.475
      vertex 3.5 -12.425 0.125001
      vertex -3.5 -12.425 0.125001
    endloop
  endfacet
  facet normal 0 1 -0
    outer loop
      vertex 3.5 -13.925 2.475
      vertex -3.5 -13.925 6
      vertex 3.5 -13.925 6
    endloop
  endfacet
  facet normal 0 1 0
    outer loop
      vertex -3.5 -13.925 6
      vertex 3.5 -13.925 2.475
      vertex -3.5 -13.925 2.475
    endloop
  endfacet
  facet normal 0 -1 0
    outer loop
      vertex -3.5 -16.075 2.475
      vertex 3.5 -16.075 6
      vertex -3.5 -16.075 6
    endloop
  endfacet
  facet normal 0 -1 -0
    outer loop
      vertex 3.5 -16.075 6
      vertex -3.5 -16.075 2.475
      vertex 3.5 -16.075 2.475
    endloop
  endfacet
  facet normal 0 0 1
    outer loop
      vertex 3.5 20 46
      vertex 1.5 3 46
      vertex 3.5 1.5 46
    endloop
  endfacet
  facet normal 0 0 1
    outer loop
      vertex 3.5 20 46
      vertex -1.5 3 46
      vertex 1.5 3 46
    endloop
  endfacet
  facet normal 0 0 1
    outer loop
      vertex -1.5 3 46
      vertex -3.5 20 46
      vertex -1.5 -3 46
    endloop
  endfacet
  facet normal -0 0 1
    outer loop
      vertex -3.5 20 46
      vertex -1.5 3 46
      vertex 3.5 20 46
    endloop
  endfacet
  facet normal 0 0 1
    outer loop
      vertex 3.5 1.5 46
      vertex 1.5 3 46
      vertex 1.5 1.5 46
    endloop
  endfacet
  facet normal 0 0 1
    outer loop
      vertex 1.5 -3 46
      vertex 3.5 -1.5 46
      vertex 1.5 -1.5 46
    endloop
  endfacet
  facet normal 0 0 1
    outer loop
      vertex 3.5 -1.5 46
      vertex 1.5 -3 46
      vertex 3.5 -20 46
    endloop
  endfacet
  facet normal -0 0 1
    outer loop
      vertex -1.5 -3 46
      vertex 3.5 -20 46
      vertex 1.5 -3 46
    endloop
  endfacet
  facet normal 0 0 1
    outer loop
      vertex -1.5 -3 46
      vertex -3.5 -20 46
      vertex 3.5 -20 46
    endloop
  endfacet
  facet normal 0 0 1
    outer loop
      vertex -3.5 -20 46
      vertex -1.5 -3 46
      vertex -3.5 20 46
    endloop
  endfacet
  facet normal 0 0 -1
    outer loop
      vertex -3.5 16.075 6
      vertex 3.5 20 6
      vertex 3.5 16.075 6
    endloop
  endfacet
  facet normal -0 0 -1
    outer loop
      vertex 3.5 20 6
      vertex -3.5 16.075 6
      vertex -3.5 20 6
    endloop
  endfacet
  facet normal 0 0 -1
    outer loop
      vertex -3.5 -20 6
      vertex 3.5 -16.075 6
      vertex 3.5 -20 6
    endloop
  endfacet
  facet normal -0 0 -1
    outer loop
      vertex 3.5 -16.075 6
      vertex -3.5 -20 6
      vertex -3.5 -16.075 6
    endloop
  endfacet
  facet normal 0 0 -1
    outer loop
      vertex 3.5 -13.925 6
      vertex 1.5 -3 6
      vertex 3.5 -1.5 6
    endloop
  endfacet
  facet normal 0 0 -1
    outer loop
      vertex 3.5 -13.925 6
      vertex -1.5 -3 6
      vertex 1.5 -3 6
    endloop
  endfacet
  facet normal -0 0 -1
    outer loop
      vertex -1.5 -3 6
      vertex -3.5 -13.925 6
      vertex -1.5 3 6
    endloop
  endfacet
  facet normal 0 0 -1
    outer loop
      vertex -3.5 -13.925 6
      vertex -1.5 -3 6
      vertex 3.5 -13.925 6
    endloop
  endfacet
  facet normal -0 0 -1
    outer loop
      vertex 3.5 -1.5 6
      vertex 1.5 -3 6
      vertex 1.5 -1.5 6
    endloop
  endfacet
  facet normal 0 0 -1
    outer loop
      vertex 1.5 3 6
      vertex 3.5 1.5 6
      vertex 1.5 1.5 6
    endloop
  endfacet
  facet normal 0 0 -1
    outer loop
      vertex 3.5 1.5 6
      vertex 1.5 3 6
      vertex 3.5 13.925 6
    endloop
  endfacet
  facet normal 0 0 -1
    outer loop
      vertex -1.5 3 6
      vertex 3.5 13.925 6
      vertex 1.5 3 6
    endloop
  endfacet
  facet normal 0 0 -1
    outer loop
      vertex -1.5 3 6
      vertex -3.5 13.925 6
      vertex 3.5 13.925 6
    endloop
  endfacet
  facet normal 0 0 -1
    outer loop
      vertex -3.5 13.925 6
      vertex -1.5 3 6
      vertex -3.5 -13.925 6
    endloop
  endfacet
  facet normal 0 -1 0
    outer loop
      vertex -3.5 -20 6
      vertex 3.5 -20 46
      vertex -3.5 -20 46
    endloop
  endfacet
  facet normal 0 -1 -0
    outer loop
      vertex 3.5 -20 46
      vertex -3.5 -20 6
      vertex 3.5 -20 6
    endloop
  endfacet
  facet normal 0 1 -0
    outer loop
      vertex 3.5 20 6
      vertex -3.5 20 46
      vertex 3.5 20 46
    endloop
  endfacet
  facet normal 0 1 0
    outer loop
      vertex -3.5 20 46
      vertex 3.5 20 6
      vertex -3.5 20 6
    endloop
  endfacet
endsolid OpenSCAD_Model
