solid OpenSCAD_Model
  facet normal -1 0 0
    outer loop
      vertex -3.5 -12.15 0.150001
      vertex -3.5 -13.65 2.85
      vertex -3.5 -12.15 2.85
    endloop
  endfacet
  facet normal -1 0 0
    outer loop
      vertex -3.5 -13.65 2.85
      vertex -3.5 -16.35 2.85
      vertex -3.5 -13.65 6
    endloop
  endfacet
  facet normal -1 0 0
    outer loop
      vertex -3.5 -12.15 0.150001
      vertex -3.5 -16.35 2.85
      vertex -3.5 -13.65 2.85
    endloop
  endfacet
  facet normal -1 0 0
    outer loop
      vertex -3.5 -17.85 0.150001
      vertex -3.5 -16.35 2.85
      vertex -3.5 -12.15 0.150001
    endloop
  endfacet
  facet normal -1 -0 0
    outer loop
      vertex -3.5 -16.35 2.85
      vertex -3.5 -17.85 0.150001
      vertex -3.5 -17.85 2.85
    endloop
  endfacet
  facet normal -1 0 0
    outer loop
      vertex -3.5 17.85 0.150001
      vertex -3.5 16.35 2.85
      vertex -3.5 17.85 2.85
    endloop
  endfacet
  facet normal -1 0 0
    outer loop
      vertex -3.5 16.35 2.85
      vertex -3.5 13.65 2.85
      vertex -3.5 16.35 6
    endloop
  endfacet
  facet normal -1 0 0
    outer loop
      vertex -3.5 17.85 0.150001
      vertex -3.5 13.65 2.85
      vertex -3.5 16.35 2.85
    endloop
  endfacet
  facet normal -1 0 0
    outer loop
      vertex -3.5 12.15 0.150001
      vertex -3.5 13.65 2.85
      vertex -3.5 17.85 0.150001
    endloop
  endfacet
  facet normal -1 -0 0
    outer loop
      vertex -3.5 13.65 2.85
      vertex -3.5 12.15 0.150001
      vertex -3.5 12.15 2.85
    endloop
  endfacet
  facet normal -1 0 0
    outer loop
      vertex -3.5 16.35 6
      vertex -3.5 20 46
      vertex -3.5 20 6
    endloop
  endfacet
  facet normal -1 0 0
    outer loop
      vertex -3.5 13.65 6
      vertex -3.5 16.35 6
      vertex -3.5 13.65 2.85
    endloop
  endfacet
  facet normal -1 0 0
    outer loop
      vertex -3.5 16.35 6
      vertex -3.5 13.65 6
      vertex -3.5 20 46
    endloop
  endfacet
  facet normal -1 0 0
    outer loop
      vertex -3.5 -13.65 6
      vertex -3.5 20 46
      vertex -3.5 13.65 6
    endloop
  endfacet
  facet normal -1 0 0
    outer loop
      vertex -3.5 -16.35 6
      vertex -3.5 -13.65 6
      vertex -3.5 -16.35 2.85
    endloop
  endfacet
  facet normal -1 0 0
    outer loop
      vertex -3.5 -20 46
      vertex -3.5 -13.65 6
      vertex -3.5 -16.35 6
    endloop
  endfacet
  facet normal -1 0 0
    outer loop
      vertex -3.5 -20 46
      vertex -3.5 -16.35 6
      vertex -3.5 -20 6
    endloop
  endfacet
  facet normal -1 0 0
    outer loop
      vertex -3.5 -13.65 6
      vertex -3.5 -20 46
      vertex -3.5 20 46
    endloop
  endfacet
  facet normal -0 0 1
    outer loop
      vertex -3.5 17.85 2.85
      vertex 3.5 16.35 2.85
      vertex 3.5 17.85 2.85
    endloop
  endfacet
  facet normal 0 0 1
    outer loop
      vertex 3.5 16.35 2.85
      vertex -3.5 17.85 2.85
      vertex -3.5 16.35 2.85
    endloop
  endfacet
  facet normal -0 0 1
    outer loop
      vertex -3.5 13.65 2.85
      vertex 3.5 12.15 2.85
      vertex 3.5 13.65 2.85
    endloop
  endfacet
  facet normal 0 0 1
    outer loop
      vertex 3.5 12.15 2.85
      vertex -3.5 13.65 2.85
      vertex -3.5 12.15 2.85
    endloop
  endfacet
  facet normal 1 0 0
    outer loop
      vertex 3.5 -1.5 46
      vertex 3.5 -13.65 6
      vertex 3.5 -1.5 6
    endloop
  endfacet
  facet normal 1 0 0
    outer loop
      vertex 3.5 -13.65 6
      vertex 3.5 -16.35 6
      vertex 3.5 -13.65 2.85
    endloop
  endfacet
  facet normal 1 -0 0
    outer loop
      vertex 3.5 -20 46
      vertex 3.5 -13.65 6
      vertex 3.5 -1.5 46
    endloop
  endfacet
  facet normal 1 0 0
    outer loop
      vertex 3.5 -13.65 6
      vertex 3.5 -20 46
      vertex 3.5 -16.35 6
    endloop
  endfacet
  facet normal 1 0 0
    outer loop
      vertex 3.5 -16.35 6
      vertex 3.5 -20 46
      vertex 3.5 -20 6
    endloop
  endfacet
  facet normal 1 -0 0
    outer loop
      vertex 3.5 -13.65 2.85
      vertex 3.5 -12.15 0.150001
      vertex 3.5 -12.15 2.85
    endloop
  endfacet
  facet normal 1 0 0
    outer loop
      vertex 3.5 -16.35 2.85
      vertex 3.5 -13.65 2.85
      vertex 3.5 -16.35 6
    endloop
  endfacet
  facet normal 1 0 0
    outer loop
      vertex 3.5 -13.65 2.85
      vertex 3.5 -16.35 2.85
      vertex 3.5 -12.15 0.150001
    endloop
  endfacet
  facet normal 1 0 0
    outer loop
      vertex 3.5 -17.85 0.150001
      vertex 3.5 -16.35 2.85
      vertex 3.5 -17.85 2.85
    endloop
  endfacet
  facet normal 1 0 0
    outer loop
      vertex 3.5 -16.35 2.85
      vertex 3.5 -17.85 0.150001
      vertex 3.5 -12.15 0.150001
    endloop
  endfacet
  facet normal 1 0 0
    outer loop
      vertex 3.5 20 46
      vertex 3.5 16.35 6
      vertex 3.5 20 6
    endloop
  endfacet
  facet normal 1 0 0
    outer loop
      vertex 3.5 16.35 6
      vertex 3.5 13.65 6
      vertex 3.5 16.35 2.85
    endloop
  endfacet
  facet normal 1 0 0
    outer loop
      vertex 3.5 20 46
      vertex 3.5 13.65 6
      vertex 3.5 16.35 6
    endloop
  endfacet
  facet normal 1 -0 0
    outer loop
      vertex 3.5 1.5 46
      vertex 3.5 13.65 6
      vertex 3.5 20 46
    endloop
  endfacet
  facet normal 1 0 0
    outer loop
      vertex 3.5 13.65 6
      vertex 3.5 1.5 46
      vertex 3.5 1.5 6
    endloop
  endfacet
  facet normal 1 -0 0
    outer loop
      vertex 3.5 16.35 2.85
      vertex 3.5 17.85 0.150001
      vertex 3.5 17.85 2.85
    endloop
  endfacet
  facet normal 1 0 0
    outer loop
      vertex 3.5 13.65 2.85
      vertex 3.5 16.35 2.85
      vertex 3.5 13.65 6
    endloop
  endfacet
  facet normal 1 0 0
    outer loop
      vertex 3.5 16.35 2.85
      vertex 3.5 13.65 2.85
      vertex 3.5 17.85 0.150001
    endloop
  endfacet
  facet normal 1 0 0
    outer loop
      vertex 3.5 12.15 0.150001
      vertex 3.5 13.65 2.85
      vertex 3.5 12.15 2.85
    endloop
  endfacet
  facet normal 1 0 0
    outer loop
      vertex 3.5 13.65 2.85
      vertex 3.5 12.15 0.150001
      vertex 3.5 17.85 0.150001
    endloop
  endfacet
  facet normal 0 0 -1
    outer loop
      vertex -3.5 12.15 0.150001
      vertex 3.5 17.85 0.150001
      vertex 3.5 12.15 0.150001
    endloop
  endfacet
  facet normal -0 0 -1
    outer loop
      vertex 3.5 17.85 0.150001
      vertex -3.5 12.15 0.150001
      vertex -3.5 17.85 0.150001
    endloop
  endfacet
  facet normal 0 -1 0
    outer loop
      vertex -3.5 12.15 0.150001
      vertex 3.5 12.15 2.85
      vertex -3.5 12.15 2.85
    endloop
  endfacet
  facet normal 0 -1 -0
    outer loop
      vertex 3.5 12.15 2.85
      vertex -3.5 12.15 0.150001
      vertex 3.5 12.15 0.150001
    endloop
  endfacet
  facet normal 0 1 -0
    outer loop
      vertex 3.5 17.85 0.150001
      vertex -3.5 17.85 2.85
      vertex 3.5 17.85 2.85
    endloop
  endfacet
  facet normal 0 1 0
    outer loop
      vertex -3.5 17.85 2.85
      vertex 3.5 17.85 0.150001
      vertex -3.5 17.85 0.150001
    endloop
  endfacet
  facet normal 0 1 -0
    outer loop
      vertex 3.5 16.35 2.85
      vertex -3.5 16.35 6
      vertex 3.5 16.35 6
    endloop
  endfacet
  facet normal 0 1 0
    outer loop
      vertex -3.5 16.35 6
      vertex 3.5 16.35 2.85
      vertex -3.5 16.35 2.85
    endloop
  endfacet
  facet normal 0 -1 0
    outer loop
      vertex -3.5 13.65 2.85
      vertex 3.5 13.65 6
      vertex -3.5 13.65 6
    endloop
  endfacet
  facet normal 0 -1 -0
    outer loop
      vertex 3.5 13.65 6
      vertex -3.5 13.65 2.85
      vertex 3.5 13.65 2.85
    endloop
  endfacet
  facet normal -0 0 1
    outer loop
      vertex -3.5 -12.15 2.85
      vertex 3.5 -13.65 2.85
      vertex 3.5 -12.15 2.85
    endloop
  endfacet
  facet normal 0 0 1
    outer loop
      vertex 3.5 -13.65 2.85
      vertex -3.5 -12.15 2.85
      vertex -3.5 -13.65 2.85
    endloop
  endfacet
  facet normal -0 0 1
    outer loop
      vertex -3.5 -16.35 2.85
      vertex 3.5 -17.85 2.85
      vertex 3.5 -16.35 2.85
    endloop
  endfacet
  facet normal 0 0 1
    outer loop
      vertex 3.5 -17.85 2.85
      vertex -3.5 -16.35 2.85
      vertex -3.5 -17.85 2.85
    endloop
  endfacet
  facet normal 0 0 -1
    outer loop
      vertex -3.5 -17.85 0.150001
      vertex 3.5 -12.15 0.150001
      vertex 3.5 -17.85 0.150001
    endloop
  endfacet
  facet normal -0 0 -1
    outer loop
      vertex 3.5 -12.15 0.150001
      vertex -3.5 -17.85 0.150001
      vertex -3.5 -12.15 0.150001
    endloop
  endfacet
  facet normal 0 -1 0
    outer loop
      vertex -3.5 -17.85 0.150001
      vertex 3.5 -17.85 2.85
      vertex -3.5 -17.85 2.85
    endloop
  endfacet
  facet normal 0 -1 -0
    outer loop
      vertex 3.5 -17.85 2.85
      vertex -3.5 -17.85 0.150001
      vertex 3.5 -17.85 0.150001
    endloop
  endfacet
  facet normal 0 1 -0
    outer loop
      vertex 3.5 -12.15 0.150001
      vertex -3.5 -12.15 2.85
      vertex 3.5 -12.15 2.85
    endloop
  endfacet
  facet normal 0 1 0
    outer loop
      vertex -3.5 -12.15 2.85
      vertex 3.5 -12.15 0.150001
      vertex -3.5 -12.15 0.150001
    endloop
  endfacet
  facet normal 0 1 -0
    outer loop
      vertex 3.5 -13.65 2.85
      vertex -3.5 -13.65 6
      vertex 3.5 -13.65 6
    endloop
  endfacet
  facet normal 0 1 0
    outer loop
      vertex -3.5 -13.65 6
      vertex 3.5 -13.65 2.85
      vertex -3.5 -13.65 2.85
    endloop
  endfacet
  facet normal 0 -1 0
    outer loop
      vertex -3.5 -16.35 2.85
      vertex 3.5 -16.35 6
      vertex -3.5 -16.35 6
    endloop
  endfacet
  facet normal 0 -1 -0
    outer loop
      vertex 3.5 -16.35 6
      vertex -3.5 -16.35 2.85
      vertex 3.5 -16.35 2.85
    endloop
  endfacet
  facet normal 0 0 1
    outer loop
      vertex 3.5 20 46
      vertex 1.5 3 46
      vertex 3.5 1.5 46
    endloop
  endfacet
  facet normal 0 0 1
    outer loop
      vertex 3.5 20 46
      vertex -1.5 3 46
      vertex 1.5 3 46
    endloop
  endfacet
  facet normal 0 0 1
    outer loop
      vertex -1.5 3 46
      vertex -3.5 20 46
      vertex -1.5 -3 46
    endloop
  endfacet
  facet normal -0 0 1
    outer loop
      vertex -3.5 20 46
      vertex -1.5 3 46
      vertex 3.5 20 46
    endloop
  endfacet
  facet normal 0 0 1
    outer loop
      vertex 3.5 1.5 46
      vertex 1.5 3 46
      vertex 1.5 1.5 46
    endloop
  endfacet
  facet normal 0 0 1
    outer loop
      vertex 1.5 -3 46
      vertex 3.5 -1.5 46
      vertex 1.5 -1.5 46
    endloop
  endfacet
  facet normal 0 0 1
    outer loop
      vertex 3.5 -1.5 46
      vertex 1.5 -3 46
      vertex 3.5 -20 46
    endloop
  endfacet
  facet normal -0 0 1
    outer loop
      vertex -1.5 -3 46
      vertex 3.5 -20 46
      vertex 1.5 -3 46
    endloop
  endfacet
  facet normal 0 0 1
    outer loop
      vertex -1.5 -3 46
      vertex -3.5 -20 46
      vertex 3.5 -20 46
    endloop
  endfacet
  facet normal 0 0 1
    outer loop
      vertex -3.5 -20 46
      vertex -1.5 -3 46
      vertex -3.5 20 46
    endloop
  endfacet
  facet normal 0 1 -0
    outer loop
      vertex 3.5 20 6
      vertex -3.5 20 46
      vertex 3.5 20 46
    endloop
  endfacet
  facet normal 0 1 0
    outer loop
      vertex -3.5 20 46
      vertex 3.5 20 6
      vertex -3.5 20 6
    endloop
  endfacet
  facet normal 0 0 -1
    outer loop
      vertex -3.5 16.35 6
      vertex 3.5 20 6
      vertex 3.5 16.35 6
    endloop
  endfacet
  facet normal -0 0 -1
    outer loop
      vertex 3.5 20 6
      vertex -3.5 16.35 6
      vertex -3.5 20 6
    endloop
  endfacet
  facet normal 0 0 -1
    outer loop
      vertex -3.5 -20 6
      vertex 3.5 -16.35 6
      vertex 3.5 -20 6
    endloop
  endfacet
  facet normal -0 0 -1
    outer loop
      vertex 3.5 -16.35 6
      vertex -3.5 -20 6
      vertex -3.5 -16.35 6
    endloop
  endfacet
  facet normal 0 0 -1
    outer loop
      vertex 3.5 -13.65 6
      vertex 1.5 -3 6
      vertex 3.5 -1.5 6
    endloop
  endfacet
  facet normal 0 0 -1
    outer loop
      vertex 3.5 -13.65 6
      vertex -1.5 -3 6
      vertex 1.5 -3 6
    endloop
  endfacet
  facet normal -0 0 -1
    outer loop
      vertex -1.5 -3 6
      vertex -3.5 -13.65 6
      vertex -1.5 3 6
    endloop
  endfacet
  facet normal 0 0 -1
    outer loop
      vertex -3.5 -13.65 6
      vertex -1.5 -3 6
      vertex 3.5 -13.65 6
    endloop
  endfacet
  facet normal -0 0 -1
    outer loop
      vertex 3.5 -1.5 6
      vertex 1.5 -3 6
      vertex 1.5 -1.5 6
    endloop
  endfacet
  facet normal 0 0 -1
    outer loop
      vertex 1.5 3 6
      vertex 3.5 1.5 6
      vertex 1.5 1.5 6
    endloop
  endfacet
  facet normal 0 0 -1
    outer loop
      vertex 3.5 1.5 6
      vertex 1.5 3 6
      vertex 3.5 13.65 6
    endloop
  endfacet
  facet normal 0 0 -1
    outer loop
      vertex -1.5 3 6
      vertex 3.5 13.65 6
      vertex 1.5 3 6
    endloop
  endfacet
  facet normal 0 0 -1
    outer loop
      vertex -1.5 3 6
      vertex -3.5 13.65 6
      vertex 3.5 13.65 6
    endloop
  endfacet
  facet normal 0 0 -1
    outer loop
      vertex -3.5 13.65 6
      vertex -1.5 3 6
      vertex -3.5 -13.65 6
    endloop
  endfacet
  facet normal 0 -1 0
    outer loop
      vertex -3.5 -20 6
      vertex 3.5 -20 46
      vertex -3.5 -20 46
    endloop
  endfacet
  facet normal 0 -1 -0
    outer loop
      vertex 3.5 -20 46
      vertex -3.5 -20 6
      vertex 3.5 -20 6
    endloop
  endfacet
  facet normal -1 0 0
    outer loop
      vertex 1.5 1.5 6
      vertex 1.5 3 46
      vertex 1.5 3 6
    endloop
  endfacet
  facet normal -1 -0 0
    outer loop
      vertex 1.5 3 46
      vertex 1.5 1.5 6
      vertex 1.5 1.5 46
    endloop
  endfacet
  facet normal -1 0 0
    outer loop
      vertex 1.5 -3 6
      vertex 1.5 -1.5 46
      vertex 1.5 -1.5 6
    endloop
  endfacet
  facet normal -1 -0 0
    outer loop
      vertex 1.5 -1.5 46
      vertex 1.5 -3 6
      vertex 1.5 -3 46
    endloop
  endfacet
  facet normal 1 -0 0
    outer loop
      vertex -1.5 -3 46
      vertex -1.5 3 6
      vertex -1.5 3 46
    endloop
  endfacet
  facet normal 1 0 0
    outer loop
      vertex -1.5 3 6
      vertex -1.5 -3 46
      vertex -1.5 -3 6
    endloop
  endfacet
  facet normal 0 1 -0
    outer loop
      vertex 1.5 -3 6
      vertex -1.5 -3 46
      vertex 1.5 -3 46
    endloop
  endfacet
  facet normal 0 1 0
    outer loop
      vertex -1.5 -3 46
      vertex 1.5 -3 6
      vertex -1.5 -3 6
    endloop
  endfacet
  facet normal 0 -1 0
    outer loop
      vertex -1.5 3 6
      vertex 1.5 3 46
      vertex -1.5 3 46
    endloop
  endfacet
  facet normal 0 -1 -0
    outer loop
      vertex 1.5 3 46
      vertex -1.5 3 6
      vertex 1.5 3 6
    endloop
  endfacet
  facet normal 0 1 -0
    outer loop
      vertex 3.5 -1.5 6
      vertex 1.5 -1.5 46
      vertex 3.5 -1.5 46
    endloop
  endfacet
  facet normal 0 1 0
    outer loop
      vertex 1.5 -1.5 46
      vertex 3.5 -1.5 6
      vertex 1.5 -1.5 6
    endloop
  endfacet
  facet normal 0 -1 0
    outer loop
      vertex 1.5 1.5 6
      vertex 3.5 1.5 46
      vertex 1.5 1.5 46
    endloop
  endfacet
  facet normal 0 -1 -0
    outer loop
      vertex 3.5 1.5 46
      vertex 1.5 1.5 6
      vertex 3.5 1.5 6
    endloop
  endfacet
endsolid OpenSCAD_Model
